%YAML 1.1
%TAG !u! tag:unity3d.com,2011:
--- !u!114 &11400000
MonoBehaviour:
  m_ObjectHideFlags: 0
  m_CorrespondingSourceObject: {fileID: 0}
  m_PrefabInstance: {fileID: 0}
  m_PrefabAsset: {fileID: 0}
  m_GameObject: {fileID: 0}
  m_Enabled: 1
  m_EditorHideFlags: 0
  m_Script: {fileID: 11500000, guid: df1a88fa39801ba4fa0c143fb761bb51, type: 3}
  m_Name: PhysicsSettings
  m_EditorClassIdentifier: 
  delay: 0
  affectedType:
    sceneObjectType: 0
    closestTag: 
    nameToFind: 
  maskInd: 400
  mass: 0
  drag: 0
  angularDrag: 0
  useGravity: 0
  isKinematic: 0
  interpolate: 0
  collisionDetection: 0
  constraints:
    freezePositionX: 0
    freezePositionY: 0
    freezePositionZ: 0
    freezeRotationX: 0
    freezeRotationY: 0
    freezeRotationZ: 0
    constraints: 0
  isTrigger: 0
  physicMaterial: {fileID: 0}
