# File produced by Open Asset Import Library (http://www.assimp.sf.net)
# (assimp v3.1.151580502)

mtllib guntexcturing.mtl

# 648 vertex positions
v  25.1437 7.0917 -11.4844
v  25.1437 7.0917 -8.1253
v  9.9125 7.0917 -8.1253
v  9.9125 7.0917 -11.4844
v  25.1437 8.2406 -14.641
v  9.9125 8.2406 -14.641
v  9.9125 10.3998 -17.2143
v  25.1437 10.3998 -17.2143
v  25.1437 13.3089 -18.8938
v  9.9125 13.3089 -18.8938
v  9.9125 16.617 -19.4771
v  25.1437 16.617 -19.4771
v  9.9125 19.9251 -18.8938
v  25.1437 19.9251 -18.8938
v  9.9125 22.8342 -17.2143
v  25.1437 22.8342 -17.2143
v  9.9125 24.9935 -14.641
v  25.1437 24.9935 -14.641
v  25.1437 26.1424 -11.4844
v  9.9125 26.1424 -11.4844
v  9.9125 26.1424 -8.1253
v  25.1437 26.1424 -8.1253
v  9.9125 24.9935 -4.9687
v  25.1437 24.9935 -4.9687
v  9.9125 22.8342 -2.3955
v  25.1437 22.8342 -2.3955
v  25.1437 19.9251 -0.715899
v  9.9125 19.9251 -0.715899
v  25.1437 16.617 -0.1326
v  9.9125 16.617 -0.1326
v  9.9125 13.3089 -0.715899
v  25.1437 13.3089 -0.715899
v  25.1437 10.3998 -2.3955
v  9.9125 10.3998 -2.3955
v  9.9125 8.2406 -4.9687
v  25.1437 8.2406 -4.9687
v  40.375 7.0917 -11.4844
v  40.375 7.0917 -8.1253
v  40.375 8.2406 -14.641
v  40.375 10.3998 -17.2143
v  40.375 13.3089 -18.8938
v  40.375 16.617 -19.4771
v  40.375 19.9251 -18.8938
v  40.375 22.8342 -17.2143
v  40.375 24.9935 -14.641
v  40.375 26.1424 -11.4844
v  40.375 26.1424 -8.1253
v  40.375 24.9935 -4.9687
v  40.375 22.8342 -2.3955
v  40.375 19.9251 -0.715899
v  40.375 16.617 -0.1326
v  40.375 13.3089 -0.715899
v  40.375 10.3998 -2.3955
v  40.375 8.2406 -4.9687
v  55.6063 7.0917 -11.4844
v  55.6063 7.0917 -8.1253
v  55.6063 8.2406 -14.641
v  55.6063 10.3998 -17.2143
v  55.6063 13.3089 -18.8938
v  55.6063 16.617 -19.4771
v  55.6063 19.9251 -18.8938
v  55.6063 22.8342 -17.2143
v  55.6063 24.9935 -14.641
v  55.6063 26.1424 -11.4844
v  55.6063 26.1424 -8.1253
v  55.6063 24.9935 -4.9687
v  55.6063 22.8342 -2.3955
v  55.6063 19.9251 -0.715899
v  55.6063 16.617 -0.1326
v  55.6063 13.3089 -0.715899
v  55.6063 10.3998 -2.3955
v  55.6063 8.2406 -4.9687
v  70.8375 7.0917 -8.1253
v  70.8375 7.0917 -11.4844
v  70.8375 8.2406 -14.641
v  70.8375 10.3998 -17.2143
v  70.8375 13.3089 -18.8938
v  70.8375 16.617 -19.4771
v  70.8375 19.9251 -18.8938
v  70.8375 22.8342 -17.2143
v  70.8375 24.9935 -14.641
v  70.8375 26.1424 -11.4844
v  70.8375 26.1424 -8.1253
v  70.8375 24.9935 -4.9687
v  70.8375 22.8342 -2.3955
v  70.8375 19.9251 -0.715899
v  70.8375 16.617 -0.1326
v  70.8375 13.3089 -0.715899
v  70.8375 10.3998 -2.3955
v  70.8375 8.2406 -4.9687
v  86.0688 5.9858 -7.9303
v  86.0688 5.9858 -11.6794
v  86.0688 7.2681 -15.2025
v  86.0688 9.678 -18.0745
v  86.0688 12.9248 -19.9491
v  86.0688 16.617 -20.6001
v  86.0688 20.3092 -19.9491
v  86.0688 23.5561 -18.0745
v  86.0688 25.966 -15.2025
v  86.0688 27.2483 -11.6794
v  81.1938 32.1218 -8.7163
v  85.4977 32.1844 -8.3615
v  85.4977 32.1361 -11.0708
v  81.1938 32.1361 -11.0708
v  86.0688 25.966 -4.4073
v  86.0688 27.2482 -7.9303
v  86.0688 23.5561 -1.5352
v  86.0688 20.3092 0.3393
v  86.0688 16.617 0.9904
v  86.0688 12.9248 0.3393
v  86.0688 9.678 -1.5352
v  86.0688 7.2681 -4.4072
v  9.9125 16.617 -9.8049
v  86.0688 16.617 -9.8049
v  71.308 26.1765 -8.591
v  71.308 26.1765 -11.0187
v  85.5983 27.2141 -8.4081
v  85.5983 27.2141 -11.2017
v  -8.687 -4.502 -4.7452
v  -8.687 -1.9153 -0.2649
v  -13.4302 -1.9153 -0.2649
v  -13.4302 -4.502 -4.7452
v  -8.687 -5.4004 -9.8401
v  -13.4302 -5.4004 -9.8401
v  -13.4302 -4.502 -14.9349
v  -8.687 -4.502 -14.9349
v  -8.687 -1.9153 -19.4153
v  -13.4302 -1.9153 -19.4153
v  -13.4302 2.0478 -22.7407
v  -8.687 2.0478 -22.7407
v  -13.4302 6.9093 -24.5101
v  -8.687 6.9093 -24.5101
v  -13.4302 12.0827 -24.5101
v  -8.687 12.0827 -24.5101
v  -13.4302 16.9442 -22.7407
v  -8.687 16.9442 -22.7407
v  -8.687 20.9072 -19.4153
v  -13.4302 20.9072 -19.4153
v  -13.4302 23.494 -14.935
v  -8.687 23.494 -14.935
v  -13.4302 24.3923 -9.8401
v  -8.687 24.3923 -9.8401
v  -13.4302 23.494 -4.7452
v  -8.687 23.494 -4.7452
v  -8.687 20.9073 -0.2649
v  -13.4302 20.9073 -0.2649
v  -8.687 16.9442 3.0605
v  -13.4302 16.9442 3.0605
v  -13.4302 12.0827 4.83
v  -8.687 12.0827 4.83
v  -8.687 6.9093 4.83
v  -13.4302 6.9093 4.83
v  -13.4302 2.0478 3.0605
v  -8.687 2.0478 3.0605
v  -3.9437 -4.502 -4.7452
v  -3.9437 -1.9153 -0.2649
v  -3.9437 -5.4004 -9.8401
v  -3.9437 -4.502 -14.9349
v  -3.9437 -1.9153 -19.4153
v  -3.9437 2.0478 -22.7407
v  -3.9437 6.9093 -24.5101
v  -3.9437 12.0827 -24.5101
v  -3.9437 16.9442 -22.7407
v  -3.9437 20.9072 -19.4153
v  -3.9437 23.494 -14.935
v  -3.9437 24.3923 -9.8401
v  -3.9437 23.494 -4.7452
v  -3.9437 20.9073 -0.2649
v  -3.9437 16.9442 3.0605
v  -3.9437 12.0827 4.83
v  -3.9437 6.9093 4.83
v  -3.9437 2.0478 3.0605
v  0.799599 -4.502 -4.7452
v  0.799599 -1.9153 -0.2649
v  0.799599 -5.4004 -9.8401
v  0.799599 -4.502 -14.9349
v  0.799599 -1.9153 -19.4153
v  0.799599 2.0478 -22.7407
v  0.799599 6.9093 -24.5101
v  0.799599 12.0827 -24.5101
v  0.799599 16.9442 -22.7407
v  0.799599 20.9072 -19.4153
v  0.799599 23.494 -14.935
v  0.799599 24.3923 -9.8401
v  0.799599 23.494 -4.7452
v  0.799599 20.9073 -0.2649
v  0.799599 16.9442 3.0605
v  0.799599 12.0827 4.83
v  0.799599 6.9093 4.83
v  0.799599 2.0478 3.0605
v  5.5428 -1.9153 -0.2649
v  5.5428 -4.502 -4.7452
v  5.5428 -5.4004 -9.8401
v  5.5428 -4.502 -14.9349
v  5.5428 -1.9153 -19.4153
v  5.5428 2.0478 -22.7407
v  5.5428 6.9093 -24.5101
v  5.5428 12.0827 -24.5101
v  5.5428 16.9442 -22.7407
v  5.5428 20.9072 -19.4153
v  5.5428 23.494 -14.935
v  5.5428 24.3923 -9.8401
v  5.5428 23.494 -4.7452
v  5.5428 20.9073 -0.2649
v  5.5428 16.9442 3.0605
v  5.5428 12.0827 4.83
v  5.5428 6.9093 4.83
v  5.5428 2.0478 3.0605
v  10.2861 -1.9153 -0.2649
v  10.2861 -4.502 -4.7452
v  10.2861 -5.4004 -9.8401
v  10.2861 -4.502 -14.9349
v  10.2861 -1.9153 -19.4153
v  10.2861 2.0478 -22.7407
v  10.2861 6.9093 -24.5101
v  10.2861 12.0827 -24.5101
v  10.2861 16.9442 -22.7407
v  10.2861 20.9072 -19.4153
v  10.2861 23.494 -14.935
v  10.2861 24.3923 -9.8401
v  10.2861 23.494 -4.7452
v  10.2861 20.9073 -0.2649
v  10.2861 16.9442 3.0605
v  10.2861 12.0827 4.83
v  10.2861 6.9093 4.83
v  10.2861 2.0478 3.0605
v  -13.4302 9.496 -9.8401
v  10.2861 9.496 -9.8401
v  -2.9077 -25.0202 -9.8401
v  -3.467 -25.0552 -14.9428
v  3.3498 -24.05 -15.417
v  3.3299 -24.0454 -9.8401
v  15.8884 0.8819 -16.5693
v  15.8884 8.7475 -16.5693
v  15.8884 8.7475 -9.8401
v  15.8884 0.8819 -9.8401
v  15.8884 18.7287 -16.5693
v  15.8893 26.2572 -16.5716
v  15.8654 26.2572 -9.8401
v  15.8884 18.7287 -9.8401
v  15.8884 13.7381 -16.5693
v  15.8884 13.7381 -9.8401
v  -15.5357 2.2378 -18.4586
v  6.8711 2.2378 -19.8308
v  6.8711 -6.2244 -19.8308
v  -15.5357 -7.0314 -18.4586
v  -23.4454 2.2378 -9.8401
v  -23.4454 2.2378 -15.83
v  -34.5891 -4.8581 -15.83
v  -36.0424 -4.8581 -9.8401
v  -23.2094 3.7569 -15.83
v  -23.2094 3.7569 -9.8401
v  11.7349 -20.4558 -9.8401
v  11.7448 -20.4569 -15.3236
v  15.1005 -13.9888 -15.2302
v  15.1005 -13.9912 -9.8401
v  -18.6523 26.8512 -13.6458
v  -18.6523 26.8512 -9.8401
v  -16.4964 26.8512 -9.8401
v  -16.4964 26.8512 -15.1554
v  6.8711 3.7569 -19.8308
v  6.8711 8.7475 -19.8308
v  15.8884 8.7475 -19.5224
v  15.8884 0.8819 -19.5224
v  -17.8145 8.7475 -18.4586
v  -16.2381 8.7475 -18.4586
v  -16.3737 3.7569 -18.4586
v  -18.2544 3.7569 -18.4586
v  15.8884 18.7287 -19.5224
v  6.8711 18.7348 -19.8295
v  6.8711 22.7947 -19.8299
v  15.9275 24.0842 -19.5258
v  -16.0378 23.0985 -18.4557
v  -16.3849 18.7512 -18.4547
v  -18.2906 18.7544 -18.4541
v  -17.1648 23.7803 -18.4553
v  6.8711 13.7381 -19.8308
v  15.8884 13.7381 -19.5224
v  -16.2985 13.7381 -18.4586
v  -18.0104 13.7381 -18.4586
v  -18.4083 2.2378 -18.4586
v  -16.4212 2.2378 -18.4586
v  -19.245 -6.5193 -18.4586
v  -27.5689 -5.3702 -18.4586
v  15.8884 -1.7938 -19.5224
v  15.8884 -0.6372 -19.5224
v  -41.4485 -13.8183 -9.8401
v  -39.9952 -13.8183 -15.83
v  -43.8486 -36.0497 -15.83
v  -45.3019 -36.0497 -9.8401
v  -32.2814 -13.813 -18.4586
v  -24.1854 -13.8012 -18.4586
v  -24.7394 -36.0326 -18.4586
v  -34.7257 -36.0444 -18.4586
v  -40.1234 -45.0099 -15.83
v  -41.3629 -45.0099 -9.8401
v  -23.5352 -43.822 -18.4586
v  -33.8561 -43.8338 -18.4586
v  -13.8832 -24.5058 -9.8401
v  -13.9141 -24.5034 -14.4846
v  -10.2838 -25.055 -14.4687
v  -9.1452 -24.9897 -9.8401
v  6.8711 -6.2244 -16.7836
v  -14.0681 -7.0314 -15.83
v  -15.5357 22.7947 -18.4559
v  -15.5357 26.8512 -15.8281
v  6.8711 26.8512 -16.783
v  -15.5357 26.8512 -9.8401
v  6.8711 26.8512 -9.8401
v  -19.0924 3.7569 -18.4586
v  -22.6905 8.7475 -15.83
v  -18.517 8.7475 -18.4586
v  -24.9828 8.7475 -9.8401
v  15.8884 -0.6372 -16.5693
v  15.8884 -1.7938 -16.5693
v  15.8884 -0.6372 -9.8401
v  15.8884 -1.7938 -9.8401
v  -23.3264 18.7476 -12.9726
v  -19.613 26.8512 -12.9731
v  -17.6669 24.0842 -18.4551
v  -19.1399 18.7559 -18.4539
v  -35.2266 25.6221 -9.9797
v  -31.6254 28.2869 -9.9797
v  -31.6254 28.2869 -13.0681
v  -35.2266 25.6221 -13.0676
v  -22.8924 13.7381 -15.83
v  -18.7733 13.7381 -18.4586
v  -25.1846 13.7381 -9.8401
v  -23.4661 18.7287 -9.8401
v  -31.2782 -4.8581 -18.4586
v  -19.2938 2.2378 -18.4586
v  -22.9717 -43.822 -15.83
v  -34.8362 -43.8338 -15.83
v  -22.4359 -43.822 -9.8401
v  -35.5285 -43.8338 -9.8401
v  -39.1758 -36.0497 -18.4586
v  -35.8892 -13.8183 -18.4586
v  -18.6203 -13.796 -15.83
v  -18.2822 -36.0273 -15.83
v  -20.2893 -36.0273 -18.4586
v  -20.5777 -13.796 -18.4586
v  -17.3506 -13.796 -9.8401
v  -17.0124 -36.0273 -9.8401
v  -38.4553 -45.0099 -18.4586
v  -17.6845 -44.9875 -15.83
v  -18.936 -44.9875 -18.4586
v  -16.6015 -44.9875 -9.8401
v  -24.7656 25.0589 -9.9322
v  -22.1833 25.5236 -9.8992
v  -22.1833 25.5236 -12.9876
v  -24.7656 25.0589 -13.0206
v  -25.8967 18.5319 -12.9871
v  -28.4789 20.4566 -13.0201
v  -26.0365 18.5131 -9.8992
v  -28.6187 20.4378 -9.9322
v  -30.4637 28.3075 -9.9652
v  -30.4637 28.3075 -13.0536
v  -19.613 26.8512 -9.8401
v  -30.4637 25.4606 -13.0532
v  -30.4637 25.4418 -9.9652
v  14.6438 -2.3545 -15.2302
v  14.6438 -2.3569 -9.8401
v  -17.5673 -12.6525 -14.4846
v  -16.6061 -12.6399 -9.8401
v  -13.9371 -7.0967 -14.4687
v  6.8711 -6.229 -15.417
v  -13.1772 -8.4312 -14.4673
v  -16.0729 -12.8629 -14.4792
v  6.8711 -7.5824 -15.4134
v  13.8031 -4.2368 -15.2442
v  13.4918 -13.4249 -15.2551
v  10.7096 -19.5071 -15.3381
v  2.8879 -22.7142 -15.4211
v  -3.6714 -23.7004 -14.9434
v  -12.8612 -23.2816 -14.4795
v  -10.2306 -23.6814 -14.4658
v  -9.6043 -19.8666 -9.8401
v  -10.3109 -20.513 -9.8401
v  -10.3109 -20.513 -12.2361
v  -9.6043 -19.8666 -12.9566
v  4.0999 -7.6836 -12.9566
v  -10.8381 -8.33 -12.2361
v  -10.7577 -10.1879 -9.8401
v  -10.7577 -10.1879 -12.2361
v  -10.5745 -14.4215 -12.2361
v  -10.5745 -14.4215 -9.8401
v  -8.6577 -9.363 -12.9566
v  -9.4991 -13.7751 -12.9566
v  -10.3913 -18.6551 -9.8401
v  -10.3913 -18.6551 -12.2361
v  -9.4828 -18.0087 -12.9566
v  -8.6577 -9.363 -9.8401
v  4.0999 -7.6836 -9.8401
v  -15.5357 3.7569 -18.4586
v  -15.5357 8.7475 -18.4586
v  -15.5357 13.7381 -18.4586
v  -15.5357 18.7498 -18.4549
v  -9.4991 -13.7751 -9.8401
v  -10.8381 -8.33 -9.8401
v  -9.4828 -18.0087 -9.8401
v  3.3498 -24.05 -4.2632
v  -3.467 -25.0552 -4.7373
v  15.8884 8.7475 -3.1109
v  15.8884 0.8819 -3.1109
v  15.8893 26.2572 -3.1086
v  15.8884 18.7287 -3.1109
v  15.8884 13.7381 -3.1109
v  -15.5357 2.2378 -1.2215
v  -15.5357 -7.0314 -1.2215
v  6.8711 -6.2244 0.1506
v  6.8711 2.2378 0.1506
v  -34.5891 -4.8581 -3.8502
v  -23.4454 2.2378 -3.8502
v  -23.2094 3.7569 -3.8502
v  15.1005 -13.9888 -4.45
v  11.7448 -20.4569 -4.3566
v  -18.6523 26.8512 -6.0344
v  -16.4964 26.8512 -4.5248
v  15.8884 8.7475 -0.1578
v  6.8711 8.7475 0.1506
v  6.8711 3.7569 0.1506
v  15.8884 0.8819 -0.1578
v  -16.3737 3.7569 -1.2215
v  -16.2381 8.7475 -1.2215
v  -17.8145 8.7475 -1.2215
v  -18.2544 3.7569 -1.2215
v  15.8884 18.7287 -0.1578
v  15.9275 24.0842 -0.1544
v  6.8711 22.7947 0.1497
v  6.8711 18.7348 0.1494
v  -18.2906 18.7544 -1.2261
v  -16.3849 18.7512 -1.2255
v  -16.0378 23.0985 -1.2244
v  -17.1648 23.7803 -1.2249
v  6.8711 13.7381 0.1506
v  15.8884 13.7381 -0.1578
v  -18.0104 13.7381 -1.2215
v  -16.2985 13.7381 -1.2215
v  -19.245 -6.5193 -1.2215
v  -16.4212 2.2378 -1.2215
v  -18.4083 2.2378 -1.2215
v  -27.5689 -5.3702 -1.2215
v  15.8884 -1.7938 -0.1578
v  15.8884 -0.6372 -0.1578
v  -43.8486 -36.0497 -3.8502
v  -39.9952 -13.8183 -3.8502
v  -24.7394 -36.0326 -1.2215
v  -24.1854 -13.8012 -1.2215
v  -32.2814 -13.813 -1.2215
v  -34.7257 -36.0444 -1.2215
v  -40.1234 -45.0099 -3.8502
v  -33.8561 -43.8338 -1.2215
v  -23.5352 -43.822 -1.2215
v  -10.2838 -25.055 -5.2115
v  -13.9141 -24.5034 -5.1956
v  -14.0681 -7.0314 -3.8502
v  6.8711 -6.2244 -2.8966
v  -15.5357 22.7947 -1.2243
v  6.8711 26.8512 -2.8972
v  -15.5357 26.8512 -3.8521
v  -19.0924 3.7569 -1.2215
v  -18.517 8.7475 -1.2215
v  -22.6905 8.7475 -3.8502
v  15.8884 -1.7938 -3.1109
v  15.8884 -0.6372 -3.1109
v  -17.6669 24.0842 -1.225
v  -19.613 26.8512 -6.7071
v  -23.3264 18.7476 -6.7075
v  -19.1399 18.7559 -1.2263
v  -31.6254 28.2869 -6.6121
v  -31.6254 28.2869 -9.7005
v  -35.2266 25.6221 -9.7005
v  -35.2266 25.6221 -6.6125
v  -22.8924 13.7381 -3.8502
v  -18.7733 13.7381 -1.2215
v  -31.2782 -4.8581 -1.2215
v  -19.2938 2.2378 -1.2215
v  -34.8362 -43.8338 -3.8502
v  -22.9717 -43.822 -3.8502
v  -39.1758 -36.0497 -1.2215
v  -35.8892 -13.8183 -1.2215
v  -20.2893 -36.0273 -1.2215
v  -18.2822 -36.0273 -3.8502
v  -18.6203 -13.796 -3.8502
v  -20.5777 -13.796 -1.2215
v  -38.4553 -45.0099 -1.2215
v  -18.936 -44.9875 -1.2215
v  -17.6845 -44.9875 -3.8502
v  -24.7656 25.0589 -9.748
v  -24.7656 25.0589 -6.6596
v  -22.1833 25.5236 -6.6926
v  -22.1833 25.5236 -9.781
v  -28.4789 20.4566 -6.66
v  -25.8967 18.5319 -6.6931
v  -28.6187 20.4378 -9.748
v  -26.0365 18.5131 -9.781
v  -30.4637 28.3075 -6.6266
v  -30.4637 28.3075 -9.715
v  -30.4637 25.4606 -6.627
v  -30.4637 25.4418 -9.715
v  14.6438 -2.3545 -4.45
v  -17.5673 -12.6525 -5.1956
v  -13.9371 -7.0967 -5.2115
v  6.8711 -6.229 -4.2632
v  -13.1772 -8.4312 -5.2128
v  -16.0729 -12.8629 -5.201
v  6.8711 -7.5824 -4.2668
v  13.8031 -4.2368 -4.436
v  13.4918 -13.4249 -4.4251
v  10.7096 -19.5071 -4.3421
v  2.8879 -22.7142 -4.2591
v  -3.6714 -23.7004 -4.7367
v  -12.8612 -23.2816 -5.2007
v  -10.2306 -23.6814 -5.2144
v  -9.6043 -19.8666 -6.7236
v  -10.3109 -20.513 -7.4441
v  4.0999 -7.6836 -6.7236
v  -10.8381 -8.33 -7.4441
v  -10.5745 -14.4215 -7.4441
v  -10.7577 -10.1879 -7.4441
v  -9.4991 -13.7751 -6.7236
v  -8.6577 -9.363 -6.7236
v  -10.3913 -18.6551 -7.4441
v  -9.4828 -18.0087 -6.7236
v  -15.5357 3.7569 -1.2215
v  -15.5357 8.7475 -1.2215
v  -15.5357 13.7381 -1.2215
v  -15.5357 18.7498 -1.2253
v  13.4918 -13.4249 -9.8401
v  13.8031 -4.2368 -9.8401
v  6.8711 -7.5824 -9.8401
v  10.7096 -19.5071 -9.8401
v  2.8879 -22.7142 -9.8401
v  -3.6714 -23.7004 -9.8401
v  -10.2306 -23.6814 -9.8401
v  -12.8612 -23.2816 -9.8401
v  -16.0729 -12.8629 -9.8401
v  -13.1772 -8.4312 -9.8401
v  58.5584 2.4771 -7.9701
v  58.5584 2.1536 -9.8049
v  70.7933 2.1536 -9.8049
v  70.7933 2.4771 -7.9701
v  58.5584 3.4087 -6.3566
v  70.7933 3.4087 -6.3566
v  70.7933 4.8359 -5.1591
v  58.5584 4.8359 -5.1591
v  58.5584 6.5866 -4.5219
v  70.7933 6.5866 -4.5219
v  70.7933 8.4496 -4.5219
v  58.5584 8.4496 -4.5219
v  70.7933 10.2003 -5.1591
v  58.5584 10.2003 -5.1591
v  70.7933 11.6275 -6.3566
v  58.5584 11.6275 -6.3566
v  70.7933 12.5591 -7.9701
v  58.5584 12.5591 -7.9701
v  58.5584 12.8826 -9.8049
v  70.7933 12.8826 -9.8049
v  70.7933 12.5591 -11.6396
v  58.5584 12.5591 -11.6396
v  70.7933 11.6275 -13.2531
v  58.5584 11.6275 -13.2531
v  70.7933 10.2003 -14.4506
v  58.5584 10.2003 -14.4506
v  58.5584 8.4496 -15.0878
v  70.7933 8.4496 -15.0878
v  58.5584 6.5866 -15.0878
v  70.7933 6.5866 -15.0878
v  70.7933 4.8359 -14.4506
v  58.5584 4.8359 -14.4506
v  58.5584 3.4087 -13.2531
v  70.7933 3.4087 -13.2531
v  70.7933 2.4771 -11.6396
v  58.5584 2.4771 -11.6396
v  46.3235 2.4771 -7.9701
v  46.3235 2.1536 -9.8049
v  46.3235 3.4087 -6.3566
v  46.3235 4.8359 -5.1591
v  46.3235 6.5866 -4.5219
v  46.3235 8.4496 -4.5219
v  46.3235 10.2003 -5.1591
v  46.3235 11.6275 -6.3566
v  46.3235 12.5591 -7.9701
v  46.3235 12.8826 -9.8049
v  46.3235 12.5591 -11.6396
v  46.3235 11.6275 -13.2531
v  46.3235 10.2003 -14.4506
v  46.3235 8.4496 -15.0878
v  46.3235 6.5866 -15.0878
v  46.3235 4.8359 -14.4506
v  46.3235 3.4087 -13.2531
v  46.3235 2.4771 -11.6396
v  34.0886 2.4771 -7.9701
v  34.0886 2.1536 -9.8049
v  34.0886 3.4087 -6.3566
v  34.0886 4.8359 -5.1591
v  34.0886 6.5866 -4.5219
v  34.0886 8.4496 -4.5219
v  34.0886 10.2003 -5.1591
v  34.0886 11.6275 -6.3566
v  34.0886 12.5591 -7.9701
v  34.0886 12.8826 -9.8049
v  34.0886 12.5591 -11.6396
v  34.0886 11.6275 -13.2531
v  34.0886 10.2003 -14.4506
v  34.0886 8.4496 -15.0878
v  34.0886 6.5866 -15.0878
v  34.0886 4.8359 -14.4506
v  34.0886 3.4087 -13.2531
v  34.0886 2.4771 -11.6396
v  21.8537 2.1536 -9.8049
v  21.8537 2.4771 -7.9701
v  21.8537 3.4087 -6.3566
v  21.8537 4.8359 -5.1591
v  21.8537 6.5866 -4.5219
v  21.8537 8.4496 -4.5219
v  21.8537 10.2003 -5.1591
v  21.8537 11.6275 -6.3566
v  21.8537 12.5591 -7.9701
v  21.8537 12.8826 -9.8049
v  21.8537 12.5591 -11.6396
v  21.8537 11.6275 -13.2531
v  21.8537 10.2003 -14.4506
v  21.8537 8.4496 -15.0878
v  21.8537 6.5866 -15.0878
v  21.8537 4.8359 -14.4506
v  21.8537 3.4087 -13.2531
v  21.8537 2.4771 -11.6396
v  9.6188 1.5308 -9.8049
v  9.6188 1.8919 -7.7571
v  9.6188 2.9316 -5.9563
v  9.6188 4.5245 -4.6197
v  9.6188 6.4784 -3.9085
v  9.6188 8.5578 -3.9085
v  9.6188 10.5118 -4.6197
v  9.6188 12.1046 -5.9563
v  9.6188 13.1443 -7.7571
v  9.6188 13.5054 -9.8049
v  9.6188 13.1443 -11.8526
v  9.6188 12.1046 -13.6534
v  9.6188 10.5118 -14.99
v  9.6188 8.5578 -15.7012
v  9.6188 6.4784 -15.7012
v  9.6188 4.5245 -14.99
v  9.6188 2.9316 -13.6534
v  9.6188 1.8919 -11.8526
v  70.7933 7.5181 -9.8049
v  9.6188 7.5181 -9.8049

# 1063 UV coordinates
vt 0.0363 0.32 0
vt 0.0539 0.32 0
vt 0.0539 0.3995 0
vt 0.0363 0.3995 0
vt 0.0198 0.32 0
vt 0.0198 0.3995 0
vt 0.0064 0.3995 0
vt 0.0064 0.32 0
vt 0.1535 0.32 0
vt 0.1687 0.32 0
vt 0.1687 0.3995 0
vt 0.1535 0.3995 0
vt 0.1362 0.3995 0
vt 0.1362 0.32 0
vt 0.1189 0.3995 0
vt 0.1189 0.32 0
vt 0.1038 0.3995 0
vt 0.1038 0.32 0
vt 0.2652 0.3995 0
vt 0.2517 0.3995 0
vt 0.2517 0.32 0
vt 0.2652 0.32 0
vt 0.2353 0.32 0
vt 0.2353 0.3995 0
vt 0.2177 0.3995 0
vt 0.2177 0.32 0
vt 0.2012 0.3995 0
vt 0.2012 0.32 0
vt 0.1878 0.3995 0
vt 0.1878 0.32 0
vt 0.179 0.32 0
vt 0.179 0.3995 0
vt 0.3131 0.32 0
vt 0.3304 0.32 0
vt 0.3304 0.3995 0
vt 0.3131 0.3995 0
vt 0.2959 0.3995 0
vt 0.2959 0.32 0
vt 0.0838 0.32 0
vt 0.0925 0.32 0
vt 0.0925 0.3995 0
vt 0.0838 0.3995 0
vt 0.0703 0.3995 0
vt 0.0703 0.32 0
vt 0.0363 0.2405 0
vt 0.0539 0.2405 0
vt 0.0198 0.2405 0
vt 0.0064 0.2405 0
vt 0.1535 0.2405 0
vt 0.1687 0.2405 0
vt 0.1362 0.2405 0
vt 0.1189 0.2405 0
vt 0.1038 0.2405 0
vt 0.2517 0.2405 0
vt 0.2652 0.2405 0
vt 0.2353 0.2405 0
vt 0.2177 0.2405 0
vt 0.2012 0.2405 0
vt 0.1878 0.2405 0
vt 0.179 0.2405 0
vt 0.3131 0.2405 0
vt 0.3304 0.2405 0
vt 0.2959 0.2405 0
vt 0.0838 0.2405 0
vt 0.0925 0.2405 0
vt 0.0703 0.2405 0
vt 0.0363 0.161 0
vt 0.0539 0.161 0
vt 0.0198 0.161 0
vt 0.0064 0.161 0
vt 0.1535 0.161 0
vt 0.1687 0.161 0
vt 0.1362 0.161 0
vt 0.1189 0.161 0
vt 0.1038 0.161 0
vt 0.2517 0.161 0
vt 0.2652 0.161 0
vt 0.2353 0.161 0
vt 0.2177 0.161 0
vt 0.2012 0.161 0
vt 0.1878 0.161 0
vt 0.179 0.161 0
vt 0.3131 0.161 0
vt 0.3304 0.161 0
vt 0.2959 0.161 0
vt 0.0838 0.161 0
vt 0.0925 0.161 0
vt 0.0703 0.161 0
vt 0.0539 0.0815 0
vt 0.0363 0.0815 0
vt 0.0198 0.0815 0
vt 0.0064 0.0815 0
vt 0.1535 0.0815 0
vt 0.1687 0.0815 0
vt 0.1362 0.0815 0
vt 0.1189 0.0815 0
vt 0.1038 0.0815 0
vt 0.2517 0.0815 0
vt 0.2652 0.0815 0
vt 0.2353 0.0815 0
vt 0.2177 0.0815 0
vt 0.2012 0.0815 0
vt 0.1878 0.0815 0
vt 0.179 0.0815 0
vt 0.3131 0.0815 0
vt 0.3304 0.0815 0
vt 0.2959 0.0815 0
vt 0.0838 0.0815 0
vt 0.0925 0.0815 0
vt 0.0703 0.0815 0
vt 0.0549 0.002 0
vt 0.0353 0.002 0
vt 0.0169 0.002 0
vt 0.0019 0.002 0
vt 0.1724 0.002 0
vt 0.1555 0.002 0
vt 0.1362 0.002 0
vt 0.1169 0.002 0
vt 0.1 0.002 0
vt 0.2697 0.002 0
vt 0.2547 0.002 0
vt 0.2363 0.002 0
vt 0.4595 0.9672 0
vt 0.4576 0.9447 0
vt 0.4718 0.9447 0
vt 0.4718 0.9672 0
vt 0.1983 0.002 0
vt 0.2167 0.002 0
vt 0.1833 0.002 0
vt 0.3456 0.0815 0
vt 0.3324 0.002 0
vt 0.3494 0.002 0
vt 0.3131 0.002 0
vt 0.2939 0.002 0
vt 0.2807 0.0815 0
vt 0.2769 0.002 0
vt 0.0733 0.002 0
vt 0.0883 0.002 0
vt 0.4698 0.8904 0
vt 0.4201 0.8992 0
vt 0.4201 0.8816 0
vt 0.4261 0.9156 0
vt 0.4374 0.9291 0
vt 0.4525 0.9378 0
vt 0.4698 0.9409 0
vt 0.4871 0.9378 0
vt 0.5023 0.9291 0
vt 0.5135 0.9156 0
vt 0.5195 0.8992 0
vt 0.5195 0.8816 0
vt 0.5135 0.8652 0
vt 0.5023 0.8517 0
vt 0.4871 0.843 0
vt 0.4698 0.8399 0
vt 0.4525 0.843 0
vt 0.4374 0.8517 0
vt 0.4261 0.8652 0
vt 0.5809 0.9259 0
vt 0.5254 0.9356 0
vt 0.5254 0.9161 0
vt 0.5321 0.8977 0
vt 0.5447 0.8827 0
vt 0.5617 0.8729 0
vt 0.5809 0.8695 0
vt 0.6002 0.8729 0
vt 0.6172 0.8827 0
vt 0.6297 0.8977 0
vt 0.6364 0.9161 0
vt 0.6364 0.9356 0
vt 0.6297 0.954 0
vt 0.6172 0.969 0
vt 0.6002 0.9788 0
vt 0.5809 0.9822 0
vt 0.5617 0.9788 0
vt 0.5447 0.969 0
vt 0.5321 0.954 0
vt 0.2202 0.079 0
vt 0.2328 0.079 0
vt 0.2192 0.0044 0
vt 0.2338 0.0044 0
vt 0.2331 0.0274 0
vt 0.2208 0.0274 0
vt 0.0113 0.7456 0
vt 0.0372 0.7461 0
vt 0.0369 0.7686 0
vt 0.0059 0.8202 0
vt 0.4492 0.9704 0
vt 0.435 0.9707 0
vt 0.4353 0.9447 0
vt 0.4499 0.9447 0
vt 0.0276 0.824 0
vt 0.033 0.8986 0
vt 0.0019 0.847 0
vt 0.0019 0.8246 0
vt 0.6311 0.8249 0
vt 0.6311 0.8483 0
vt 0.6063 0.8483 0
vt 0.6063 0.8249 0
vt 0.6311 0.7983 0
vt 0.6063 0.7983 0
vt 0.6063 0.7717 0
vt 0.6311 0.7717 0
vt 0.6311 0.7483 0
vt 0.6063 0.7483 0
vt 0.6063 0.731 0
vt 0.6311 0.731 0
vt 0.868 0.9685 0
vt 0.868 0.9933 0
vt 0.8426 0.9933 0
vt 0.8426 0.9685 0
vt 0.8156 0.9933 0
vt 0.8156 0.9685 0
vt 0.7902 0.9933 0
vt 0.7902 0.9685 0
vt 0.761 0.8483 0
vt 0.761 0.8657 0
vt 0.7362 0.8657 0
vt 0.7362 0.8483 0
vt 0.7362 0.8249 0
vt 0.761 0.8249 0
vt 0.7362 0.7983 0
vt 0.761 0.7983 0
vt 0.7362 0.7717 0
vt 0.761 0.7717 0
vt 0.761 0.7483 0
vt 0.7362 0.7483 0
vt 0.761 0.731 0
vt 0.7362 0.731 0
vt 0.7843 0.9933 0
vt 0.7589 0.9933 0
vt 0.7589 0.9685 0
vt 0.7843 0.9685 0
vt 0.7319 0.9685 0
vt 0.7319 0.9933 0
vt 0.7065 0.9933 0
vt 0.7065 0.9685 0
vt 0.6311 0.8657 0
vt 0.6063 0.8657 0
vt 0.6558 0.8249 0
vt 0.6558 0.8483 0
vt 0.6558 0.7983 0
vt 0.6558 0.7717 0
vt 0.6558 0.7483 0
vt 0.6558 0.731 0
vt 0.8426 0.9438 0
vt 0.868 0.9438 0
vt 0.8156 0.9438 0
vt 0.7902 0.9438 0
vt 0.7857 0.8483 0
vt 0.7857 0.8657 0
vt 0.7857 0.8249 0
vt 0.7857 0.7983 0
vt 0.7857 0.7717 0
vt 0.7857 0.7483 0
vt 0.7857 0.731 0
vt 0.7843 0.9438 0
vt 0.7589 0.9438 0
vt 0.7319 0.9438 0
vt 0.7065 0.9438 0
vt 0.6558 0.8657 0
vt 0.6806 0.8249 0
vt 0.6806 0.8483 0
vt 0.6806 0.7983 0
vt 0.6806 0.7717 0
vt 0.6806 0.7483 0
vt 0.6806 0.731 0
vt 0.8426 0.919 0
vt 0.868 0.919 0
vt 0.8156 0.919 0
vt 0.7902 0.919 0
vt 0.8105 0.8657 0
vt 0.8105 0.8483 0
vt 0.8105 0.8249 0
vt 0.8105 0.7983 0
vt 0.8105 0.7717 0
vt 0.8105 0.7483 0
vt 0.8105 0.731 0
vt 0.7843 0.919 0
vt 0.7589 0.919 0
vt 0.7319 0.919 0
vt 0.7065 0.919 0
vt 0.6806 0.8657 0
vt 0.7054 0.8483 0
vt 0.7054 0.8249 0
vt 0.7054 0.7983 0
vt 0.7054 0.7717 0
vt 0.7054 0.7483 0
vt 0.7054 0.731 0
vt 0.868 0.8943 0
vt 0.8426 0.8943 0
vt 0.8156 0.8943 0
vt 0.7902 0.8943 0
vt 0.8352 0.8483 0
vt 0.8352 0.8657 0
vt 0.8352 0.8249 0
vt 0.8352 0.7983 0
vt 0.8352 0.7717 0
vt 0.8352 0.7483 0
vt 0.8352 0.731 0
vt 0.7589 0.8943 0
vt 0.7843 0.8943 0
vt 0.7319 0.8943 0
vt 0.7065 0.8943 0
vt 0.7054 0.8657 0
vt 0.7301 0.8483 0
vt 0.7301 0.8249 0
vt 0.7301 0.7983 0
vt 0.7301 0.7717 0
vt 0.7301 0.7483 0
vt 0.7301 0.731 0
vt 0.868 0.8695 0
vt 0.8426 0.8695 0
vt 0.8156 0.8695 0
vt 0.7902 0.8695 0
vt 0.86 0.8483 0
vt 0.86 0.8657 0
vt 0.86 0.8249 0
vt 0.86 0.7983 0
vt 0.86 0.7717 0
vt 0.86 0.7483 0
vt 0.86 0.731 0
vt 0.7589 0.8695 0
vt 0.7843 0.8695 0
vt 0.7319 0.8695 0
vt 0.7065 0.8695 0
vt 0.7301 0.8657 0
vt 0.1897 0.6555 0
vt 0.2163 0.5824 0
vt 0.2397 0.5959 0
vt 0.1897 0.5777 0
vt 0.1631 0.5824 0
vt 0.1398 0.5959 0
vt 0.1224 0.6166 0
vt 0.1132 0.642 0
vt 0.1132 0.669 0
vt 0.1224 0.6943 0
vt 0.1398 0.715 0
vt 0.1631 0.7285 0
vt 0.1897 0.7332 0
vt 0.2163 0.7285 0
vt 0.2397 0.715 0
vt 0.2571 0.6943 0
vt 0.2663 0.669 0
vt 0.2663 0.642 0
vt 0.2571 0.6166 0
vt 0.3497 0.7295 0
vt 0.2998 0.67 0
vt 0.3231 0.6565 0
vt 0.3497 0.6518 0
vt 0.3763 0.6565 0
vt 0.3997 0.67 0
vt 0.4171 0.6907 0
vt 0.4263 0.716 0
vt 0.4263 0.743 0
vt 0.4171 0.7684 0
vt 0.3997 0.7891 0
vt 0.3763 0.8026 0
vt 0.3497 0.8073 0
vt 0.3231 0.8026 0
vt 0.2998 0.7891 0
vt 0.2824 0.7684 0
vt 0.2732 0.743 0
vt 0.2732 0.716 0
vt 0.2824 0.6907 0
vt 0.8952 0.8075 0
vt 0.8686 0.8104 0
vt 0.8661 0.7748 0
vt 0.8952 0.7749 0
vt 0.5188 0.7036 0
vt 0.5188 0.7447 0
vt 0.4837 0.7447 0
vt 0.4837 0.7036 0
vt 0.5188 0.7968 0
vt 0.5188 0.8361 0
vt 0.4837 0.8361 0
vt 0.4837 0.7968 0
vt 0.5188 0.7707 0
vt 0.4837 0.7707 0
vt 0.5754 0.116 0
vt 0.6923 0.116 0
vt 0.6923 0.1602 0
vt 0.5754 0.1644 0
vt 0.401 0.2486 0
vt 0.3697 0.2486 0
vt 0.3697 0.2116 0
vt 0.401 0.2116 0
vt 0.3697 0.2565 0
vt 0.401 0.2565 0
vt 0.3855 0.8112 0
vt 0.4142 0.8111 0
vt 0.4137 0.8449 0
vt 0.3855 0.8449 0
vt 0.4436 0.5614 0
vt 0.4237 0.5614 0
vt 0.4237 0.5502 0
vt 0.4515 0.5502 0
vt 0.6923 0.1081 0
vt 0.6923 0.082 0
vt 0.7394 0.082 0
vt 0.7394 0.1231 0
vt 0.5635 0.082 0
vt 0.5717 0.082 0
vt 0.571 0.1081 0
vt 0.5612 0.1081 0
vt 0.7394 0.0299 0
vt 0.6923 0.0299 0
vt 0.6923 0.0087 0
vt 0.7396 0.002 0
vt 0.5727 0.0071 0
vt 0.5709 0.0298 0
vt 0.561 0.0298 0
vt 0.5669 0.0036 0
vt 0.6923 0.056 0
vt 0.7394 0.056 0
vt 0.5714 0.056 0
vt 0.5624 0.056 0
vt 0.5604 0.116 0
vt 0.5707 0.116 0
vt 0.556 0.1617 0
vt 0.5126 0.1557 0
vt 0.7394 0.1371 0
vt 0.7394 0.131 0
vt 0.401 0.1648 0
vt 0.3697 0.1648 0
vt 0.3697 0.0488 0
vt 0.401 0.0488 0
vt 0.488 0.1998 0
vt 0.5302 0.1997 0
vt 0.5273 0.3158 0
vt 0.4752 0.3158 0
vt 0.3697 0.002 0
vt 0.401 0.002 0
vt 0.5336 0.3564 0
vt 0.4797 0.3565 0
vt 0.8952 0.8647 0
vt 0.8709 0.8649 0
vt 0.871 0.846 0
vt 0.8952 0.84 0
vt 0.0019 0.6248 0
vt 0.0178 0.6248 0
vt 0.0228 0.7341 0
vt 0.0091 0.7417 0
vt 0.4687 0.5452 0
vt 0.455 0.5452 0
vt 0.46 0.4282 0
vt 0.4759 0.4282 0
vt 0.4237 0.5452 0
vt 0.4237 0.4282 0
vt 0.5342 0.7036 0
vt 0.5342 0.7447 0
vt 0.356 0.2565 0
vt 0.3697 0.2826 0
vt 0.356 0.2826 0
vt 0.401 0.2826 0
vt 0.5343 0.8247 0
vt 0.5342 0.7968 0
vt 0.5342 0.7707 0
vt 0.5188 0.6957 0
vt 0.5188 0.6896 0
vt 0.5342 0.6896 0
vt 0.5342 0.6957 0
vt 0.4837 0.6957 0
vt 0.4837 0.6896 0
vt 0.3846 0.3348 0
vt 0.3846 0.3771 0
vt 0.356 0.3626 0
vt 0.356 0.3348 0
vt 0.4245 0.6479 0
vt 0.4245 0.6291 0
vt 0.4406 0.6291 0
vt 0.4406 0.6479 0
vt 0.3697 0.3086 0
vt 0.356 0.3086 0
vt 0.401 0.3086 0
vt 0.401 0.3347 0
vt 0.4932 0.1531 0
vt 0.4759 0.1531 0
vt 0.5341 0.116 0
vt 0.5558 0.116 0
vt 0.356 0.2486 0
vt 0.0035 0.5777 0
vt 0.0189 0.5777 0
vt 0.8876 0.902 0
vt 0.8876 0.9639 0
vt 0.8739 0.9588 0
vt 0.8739 0.905 0
vt 0.9189 0.8992 0
vt 0.9189 0.9676 0
vt 0.4589 0.3811 0
vt 0.4743 0.3809 0
vt 0.4237 0.3813 0
vt 0.4687 0.5478 0
vt 0.4687 0.5537 0
vt 0.356 0.0488 0
vt 0.356 0.1648 0
vt 0.3519 0.5662 0
vt 0.3519 0.4501 0
vt 0.3657 0.4501 0
vt 0.3657 0.5662 0
vt 0.3207 0.5662 0
vt 0.3207 0.4501 0
vt 0.356 0.002 0
vt 0.356 0.2116 0
vt 0.3519 0.4033 0
vt 0.3657 0.4033 0
vt 0.3207 0.4033 0
vt 0.3657 0.6015 0
vt 0.3519 0.6015 0
vt 0.4242 0.5933 0
vt 0.424 0.5799 0
vt 0.4402 0.5799 0
vt 0.4403 0.5933 0
vt 0.3169 0.838 0
vt 0.3145 0.8246 0
vt 0.351 0.8439 0
vt 0.3409 0.8574 0
vt 0.343 0.9196 0
vt 0.3431 0.9096 0
vt 0.3593 0.9095 0
vt 0.3591 0.9195 0
vt 0.4244 0.6231 0
vt 0.4405 0.6231 0
vt 0.4401 0.5664 0
vt 0.4237 0.5664 0
vt 0.3001 0.8738 0
vt 0.3 0.8678 0
vt 0.3148 0.8678 0
vt 0.314 0.8926 0
vt 0.3499 0.8305 0
vt 0.3076 0.8111 0
vt 0.4072 0.9096 0
vt 0.4072 0.9257 0
vt 0.3823 0.9256 0
vt 0.3823 0.9095 0
vt 0.3589 0.9457 0
vt 0.3428 0.9457 0
vt 0.4277 0.9612 0
vt 0.4143 0.9609 0
vt 0.4151 0.9447 0
vt 0.4285 0.9448 0
vt 0.0259 0.5842 0
vt 0.0541 0.5777 0
vt 0.0541 0.5842 0
vt 0.3449 0.5721 0
vt 0.3207 0.5722 0
vt 0.3448 0.6011 0
vt 0.0299 0.7334 0
vt 0.025 0.6248 0
vt 0.4137 0.9056 0
vt 0.3855 0.9056 0
vt 0.1866 0.8206 0
vt 0.2108 0.8206 0
vt 0.2108 0.8826 0
vt 0.1866 0.8825 0
vt 0.183 0.5509 0
vt 0.2061 0.5661 0
vt 0.205 0.5739 0
vt 0.176 0.5549 0
vt 0.1715 0.4463 0
vt 0.1786 0.4463 0
vt 0.1611 0.4101 0
vt 0.1513 0.4057 0
vt 0.212 0.4033 0
vt 0.2091 0.4117 0
vt 0.2408 0.4263 0
vt 0.2458 0.4209 0
vt 0.2575 0.4671 0
vt 0.2645 0.4647 0
vt 0.2698 0.5003 0
vt 0.2627 0.5013 0
vt 0.2605 0.5493 0
vt 0.2626 0.5356 0
vt 0.2698 0.5358 0
vt 0.2669 0.5548 0
vt 0.2574 0.8999 0
vt 0.2574 0.8965 0
vt 0.2699 0.8965 0
vt 0.2737 0.8999 0
vt 0.8666 0.731 0
vt 0.8952 0.731 0
vt 0.5533 0.7403 0
vt 0.557 0.8183 0
vt 0.5454 0.8305 0
vt 0.5404 0.7258 0
vt 0.0956 0.8813 0
vt 0.083 0.8813 0
vt 0.083 0.8592 0
vt 0.0956 0.8592 0
vt 0.1517 0.8146 0
vt 0.1474 0.8037 0
vt 0.1704 0.8081 0
vt 0.1738 0.8137 0
vt 0.0956 0.8371 0
vt 0.083 0.8371 0
vt 0.083 0.8274 0
vt 0.0956 0.8274 0
vt 0.0793 0.8405 0
vt 0.0793 0.8308 0
vt 0.0793 0.8626 0
vt 0.142 0.815 0
vt 0.1386 0.7371 0
vt 0.056 0.8935 0
vt 0.0398 0.8935 0
vt 0.0398 0.827 0
vt 0.056 0.827 0
vt 0.5754 0.1081 0
vt 0.5754 0.082 0
vt 0.5754 0.056 0
vt 0.5754 0.0298 0
vt 0.5754 0.0087 0
vt 0.2574 0.9547 0
vt 0.2574 0.9317 0
vt 0.2737 0.9317 0
vt 0.2737 0.9547 0
vt 0.0956 0.891 0
vt 0.083 0.891 0
vt 0.2574 0.9096 0
vt 0.2737 0.9096 0
vt 0.9243 0.7748 0
vt 0.9218 0.8104 0
vt 0.4486 0.7447 0
vt 0.4486 0.7036 0
vt 0.4486 0.8361 0
vt 0.4486 0.7968 0
vt 0.4486 0.7707 0
vt 0.7996 0.6131 0
vt 0.7996 0.5647 0
vt 0.9166 0.5689 0
vt 0.9166 0.6131 0
vt 0.4322 0.2116 0
vt 0.4322 0.2486 0
vt 0.4322 0.2565 0
vt 0.3574 0.8449 0
vt 0.3569 0.8111 0
vt 0.4039 0.5614 0
vt 0.396 0.5502 0
vt 0.9637 0.6471 0
vt 0.9166 0.6471 0
vt 0.9166 0.621 0
vt 0.9637 0.606 0
vt 0.7953 0.621 0
vt 0.796 0.6471 0
vt 0.7877 0.6471 0
vt 0.7855 0.621 0
vt 0.9637 0.6992 0
vt 0.9639 0.7271 0
vt 0.9166 0.7204 0
vt 0.9166 0.6992 0
vt 0.7853 0.6993 0
vt 0.7952 0.6993 0
vt 0.797 0.722 0
vt 0.7911 0.7255 0
vt 0.9166 0.6731 0
vt 0.9637 0.6731 0
vt 0.7867 0.6731 0
vt 0.7957 0.6731 0
vt 0.7803 0.5674 0
vt 0.795 0.6131 0
vt 0.7846 0.6131 0
vt 0.7368 0.5734 0
vt 0.9637 0.5921 0
vt 0.9637 0.5981 0
vt 0.4322 0.0488 0
vt 0.4322 0.1648 0
vt 0.7516 0.4133 0
vt 0.7545 0.5294 0
vt 0.7122 0.5293 0
vt 0.6995 0.4133 0
vt 0.4322 0.002 0
vt 0.704 0.3726 0
vt 0.7579 0.3727 0
vt 0.9193 0.846 0
vt 0.9194 0.8649 0
vt 0.1062 0.6248 0
vt 0.0991 0.7417 0
vt 0.0853 0.7341 0
vt 0.0903 0.6248 0
vt 0.3788 0.5452 0
vt 0.3716 0.4282 0
vt 0.3875 0.4282 0
vt 0.3925 0.5452 0
vt 0.4332 0.7036 0
vt 0.4332 0.7447 0
vt 0.446 0.2565 0
vt 0.446 0.2826 0
vt 0.4322 0.2826 0
vt 0.4332 0.8247 0
vt 0.4332 0.7968 0
vt 0.4332 0.7707 0
vt 0.4332 0.6896 0
vt 0.4486 0.6896 0
vt 0.4486 0.6957 0
vt 0.4332 0.6957 0
vt 0.4459 0.3626 0
vt 0.4173 0.3771 0
vt 0.4173 0.3348 0
vt 0.4459 0.3348 0
vt 0.4069 0.6291 0
vt 0.423 0.6291 0
vt 0.423 0.6479 0
vt 0.4069 0.6479 0
vt 0.4322 0.3086 0
vt 0.446 0.3086 0
vt 0.7175 0.5761 0
vt 0.78 0.6131 0
vt 0.7584 0.6131 0
vt 0.7002 0.5761 0
vt 0.446 0.2486 0
vt 0.1046 0.5777 0
vt 0.0892 0.5777 0
vt 0.9639 0.9588 0
vt 0.9501 0.9639 0
vt 0.9501 0.902 0
vt 0.9639 0.905 0
vt 0.3732 0.3809 0
vt 0.3886 0.3811 0
vt 0.3788 0.5537 0
vt 0.3788 0.5478 0
vt 0.446 0.0488 0
vt 0.446 0.1648 0
vt 0.2757 0.4501 0
vt 0.2894 0.4501 0
vt 0.2894 0.5662 0
vt 0.2757 0.5662 0
vt 0.446 0.002 0
vt 0.446 0.2116 0
vt 0.2757 0.4033 0
vt 0.2894 0.4033 0
vt 0.2757 0.6015 0
vt 0.2894 0.6015 0
vt 0.4232 0.5933 0
vt 0.4071 0.5933 0
vt 0.4073 0.5799 0
vt 0.4234 0.5799 0
vt 0.2771 0.838 0
vt 0.2531 0.8574 0
vt 0.243 0.8439 0
vt 0.2795 0.8246 0
vt 0.3762 0.9196 0
vt 0.3601 0.9195 0
vt 0.3599 0.9095 0
vt 0.376 0.9096 0
vt 0.4069 0.6231 0
vt 0.4231 0.6231 0
vt 0.4074 0.5664 0
vt 0.2939 0.8738 0
vt 0.28 0.8926 0
vt 0.2792 0.8678 0
vt 0.294 0.8678 0
vt 0.2441 0.8305 0
vt 0.2864 0.8111 0
vt 0.3823 0.9271 0
vt 0.4072 0.927 0
vt 0.4072 0.9431 0
vt 0.3823 0.9432 0
vt 0.3602 0.9457 0
vt 0.3763 0.9457 0
vt 0.4285 0.9775 0
vt 0.4151 0.9776 0
vt 0.4143 0.9615 0
vt 0.0822 0.5842 0
vt 0.2964 0.5721 0
vt 0.2965 0.6011 0
vt 0.0782 0.7334 0
vt 0.0832 0.6248 0
vt 0.3574 0.9056 0
vt 0.2351 0.8206 0
vt 0.2351 0.8825 0
vt 0.1136 0.5509 0
vt 0.1206 0.5549 0
vt 0.0916 0.5739 0
vt 0.0905 0.5661 0
vt 0.1251 0.4463 0
vt 0.1181 0.4463 0
vt 0.1355 0.4101 0
vt 0.1453 0.4057 0
vt 0.0846 0.4033 0
vt 0.0876 0.4117 0
vt 0.0558 0.4263 0
vt 0.0509 0.4209 0
vt 0.0269 0.5003 0
vt 0.0321 0.4647 0
vt 0.0391 0.4671 0
vt 0.0339 0.5013 0
vt 0.0361 0.5493 0
vt 0.0297 0.5548 0
vt 0.0269 0.5358 0
vt 0.034 0.5356 0
vt 0.2412 0.8999 0
vt 0.2449 0.8965 0
vt 0.9238 0.731 0
vt 0.5858 0.7403 0
vt 0.5986 0.7258 0
vt 0.5937 0.8305 0
vt 0.582 0.8183 0
vt 0.1081 0.8592 0
vt 0.1081 0.8813 0
vt 0.1009 0.8166 0
vt 0.1239 0.8122 0
vt 0.1196 0.8231 0
vt 0.0975 0.8222 0
vt 0.1081 0.8274 0
vt 0.1081 0.8371 0
vt 0.1118 0.8308 0
vt 0.1118 0.8405 0
vt 0.1118 0.8626 0
vt 0.1293 0.8236 0
vt 0.1327 0.7456 0
vt 0.0723 0.827 0
vt 0.0723 0.8935 0
vt 0.7996 0.621 0
vt 0.7996 0.6471 0
vt 0.7996 0.6731 0
vt 0.7996 0.6993 0
vt 0.7996 0.7204 0
vt 0.2412 0.9317 0
vt 0.2412 0.9547 0
vt 0.1081 0.891 0
vt 0.2412 0.9096 0
vt 0.2084 0.7688 0
vt 0.2367 0.7688 0
vt 0.2366 0.8168 0
vt 0.2084 0.8168 0
vt 0.5695 0.7258 0
vt 0.5695 0.6896 0
vt 0.5977 0.6896 0
vt 0.2084 0.7371 0
vt 0.2371 0.7371 0
vt 0.6715 0.9103 0
vt 0.6424 0.9103 0
vt 0.6428 0.8695 0
vt 0.6715 0.8695 0
vt 0.6715 0.9446 0
vt 0.6448 0.9446 0
vt 0.6715 0.9788 0
vt 0.6473 0.9788 0
vt 0.6715 0.9925 0
vt 0.6473 0.9925 0
vt 0.0674 0.8 0
vt 0.0432 0.8 0
vt 0.0432 0.7456 0
vt 0.0674 0.7456 0
vt 0.0674 0.8231 0
vt 0.0432 0.8231 0
vt 0.1802 0.8168 0
vt 0.1801 0.7688 0
vt 0.5413 0.6896 0
vt 0.1797 0.7371 0
vt 0.7002 0.8695 0
vt 0.7006 0.9103 0
vt 0.6981 0.9446 0
vt 0.6956 0.9788 0
vt 0.6957 0.9925 0
vt 0.0916 0.7456 0
vt 0.0916 0.8 0
vt 0.0915 0.8231 0
vt 0.5695 0.7403 0
vt 0.5695 0.8305 0
vt 0.5695 0.8183 0
vt 0.5598 0.082 0
vt 0.5568 0.1081 0
vt 0.5642 0.002 0
vt 0.5566 0.0298 0
vt 0.5585 0.056 0
vt 0.4691 0.1998 0
vt 0.452 0.3159 0
vt 0.549 0.1997 0
vt 0.5506 0.3157 0
vt 0.4557 0.3626 0
vt 0.5576 0.3625 0
vt 0.8739 0.8809 0
vt 0.8876 0.8744 0
vt 0.8739 0.9828 0
vt 0.8876 0.9915 0
vt 0.9189 0.8688 0
vt 0.9189 0.998 0
vt 0.4687 0.5563 0
vt 0.7841 0.6471 0
vt 0.7811 0.621 0
vt 0.7885 0.7271 0
vt 0.7808 0.6993 0
vt 0.7827 0.6731 0
vt 0.6934 0.5293 0
vt 0.6763 0.4133 0
vt 0.7748 0.4134 0
vt 0.7733 0.5294 0
vt 0.68 0.3665 0
vt 0.7819 0.3666 0
vt 0.9639 0.8809 0
vt 0.9501 0.8744 0
vt 0.9639 0.9828 0
vt 0.9501 0.9915 0
vt 0.3788 0.5563 0
vt 0.6528 0.4303 0
vt 0.6433 0.4303 0
vt 0.6433 0.3665 0
vt 0.6528 0.3665 0
vt 0.6613 0.4303 0
vt 0.6613 0.3665 0
vt 0.6675 0.3665 0
vt 0.6675 0.4303 0
vt 0.5898 0.4303 0
vt 0.5806 0.4303 0
vt 0.5806 0.3665 0
vt 0.5898 0.3665 0
vt 0.5995 0.3665 0
vt 0.5995 0.4303 0
vt 0.6086 0.3665 0
vt 0.6086 0.4303 0
vt 0.5218 0.4303 0
vt 0.5218 0.3665 0
vt 0.528 0.3665 0
vt 0.528 0.4303 0
vt 0.5365 0.3665 0
vt 0.5365 0.4303 0
vt 0.546 0.4303 0
vt 0.546 0.3665 0
vt 0.5556 0.3665 0
vt 0.5556 0.4303 0
vt 0.564 0.3665 0
vt 0.564 0.4303 0
vt 0.5703 0.3665 0
vt 0.5703 0.4303 0
vt 0.4926 0.4303 0
vt 0.4834 0.4303 0
vt 0.4834 0.3665 0
vt 0.4926 0.3665 0
vt 0.5023 0.4303 0
vt 0.5023 0.3665 0
vt 0.5114 0.3665 0
vt 0.5114 0.4303 0
vt 0.6253 0.4303 0
vt 0.619 0.4303 0
vt 0.619 0.3665 0
vt 0.6253 0.3665 0
vt 0.6337 0.3665 0
vt 0.6337 0.4303 0
vt 0.6528 0.4942 0
vt 0.6433 0.4942 0
vt 0.6613 0.4942 0
vt 0.6675 0.4942 0
vt 0.5898 0.4942 0
vt 0.5806 0.4942 0
vt 0.5995 0.4942 0
vt 0.6086 0.4942 0
vt 0.528 0.4942 0
vt 0.5218 0.4942 0
vt 0.5365 0.4942 0
vt 0.546 0.4942 0
vt 0.5556 0.4942 0
vt 0.564 0.4942 0
vt 0.5703 0.4942 0
vt 0.4926 0.4942 0
vt 0.4834 0.4942 0
vt 0.5023 0.4942 0
vt 0.5114 0.4942 0
vt 0.6253 0.4942 0
vt 0.619 0.4942 0
vt 0.6337 0.4942 0
vt 0.6528 0.5581 0
vt 0.6433 0.5581 0
vt 0.6613 0.5581 0
vt 0.6675 0.5581 0
vt 0.5898 0.5581 0
vt 0.5806 0.5581 0
vt 0.5995 0.5581 0
vt 0.6086 0.5581 0
vt 0.5218 0.5581 0
vt 0.528 0.5581 0
vt 0.5365 0.5581 0
vt 0.546 0.5581 0
vt 0.5556 0.5581 0
vt 0.564 0.5581 0
vt 0.5703 0.5581 0
vt 0.4834 0.5581 0
vt 0.4926 0.5581 0
vt 0.5023 0.5581 0
vt 0.5114 0.5581 0
vt 0.6253 0.5581 0
vt 0.619 0.5581 0
vt 0.6337 0.5581 0
vt 0.6433 0.6219 0
vt 0.6528 0.6219 0
vt 0.6613 0.6219 0
vt 0.6675 0.6219 0
vt 0.5898 0.6219 0
vt 0.5806 0.6219 0
vt 0.5995 0.6219 0
vt 0.6086 0.6219 0
vt 0.5218 0.6219 0
vt 0.528 0.6219 0
vt 0.5365 0.6219 0
vt 0.546 0.6219 0
vt 0.5556 0.6219 0
vt 0.564 0.6219 0
vt 0.5703 0.6219 0
vt 0.4926 0.6219 0
vt 0.4834 0.6219 0
vt 0.5023 0.6219 0
vt 0.5114 0.6219 0
vt 0.6253 0.6219 0
vt 0.619 0.6219 0
vt 0.6337 0.6219 0
vt 0.6433 0.6858 0
vt 0.6539 0.6858 0
vt 0.6633 0.6858 0
vt 0.6703 0.6858 0
vt 0.579 0.6858 0
vt 0.5892 0.6858 0
vt 0.6001 0.6858 0
vt 0.6103 0.6858 0
vt 0.5259 0.6858 0
vt 0.519 0.6858 0
vt 0.5353 0.6858 0
vt 0.546 0.6858 0
vt 0.5567 0.6858 0
vt 0.5661 0.6858 0
vt 0.5731 0.6858 0
vt 0.4818 0.6858 0
vt 0.492 0.6858 0
vt 0.5028 0.6858 0
vt 0.513 0.6858 0
vt 0.6162 0.6858 0
vt 0.6232 0.6858 0
vt 0.6326 0.6858 0
vt 0.3083 0.9245 0
vt 0.2987 0.8982 0
vt 0.3083 0.8965 0
vt 0.2903 0.903 0
vt 0.284 0.9105 0
vt 0.2807 0.9196 0
vt 0.2807 0.9294 0
vt 0.284 0.9385 0
vt 0.2903 0.9459 0
vt 0.2987 0.9508 0
vt 0.3083 0.9525 0
vt 0.3178 0.9508 0
vt 0.3263 0.9459 0
vt 0.3325 0.9385 0
vt 0.3358 0.9294 0
vt 0.3358 0.9196 0
vt 0.3325 0.9105 0
vt 0.3263 0.903 0
vt 0.3178 0.8982 0
vt 0.1496 0.8587 0
vt 0.1496 0.8274 0
vt 0.1603 0.8293 0
vt 0.1697 0.8347 0
vt 0.1767 0.843 0
vt 0.1804 0.8532 0
vt 0.1804 0.8641 0
vt 0.1767 0.8743 0
vt 0.1697 0.8826 0
vt 0.1603 0.888 0
vt 0.1496 0.8899 0
vt 0.1389 0.888 0
vt 0.1295 0.8826 0
vt 0.1225 0.8743 0
vt 0.1188 0.8641 0
vt 0.1188 0.8532 0
vt 0.1225 0.843 0
vt 0.1295 0.8347 0
vt 0.1389 0.8293 0

# 442 vertex normals
vn 0 -0.9848 -0.1736
vn 0 -0.9848 0.1736
vn -0.67 -0.7311 0.1289
vn -0.67 -0.7311 -0.1289
vn 0 -0.866 -0.5
vn -0.67 -0.6429 -0.3712
vn -0.67 -0.4772 -0.5687
vn 0 -0.6428 -0.766
vn 0 -0.342 -0.9397
vn -0.67 -0.2539 -0.6976
vn -0.67 0 -0.7423
vn 0 0 -1
vn -0.67 0.2539 -0.6976
vn 0 0.342 -0.9397
vn -0.67 0.4772 -0.5687
vn 0 0.6428 -0.7661
vn -0.67 0.6429 -0.3712
vn 0 0.866 -0.5
vn 0 0.9848 -0.1736
vn -0.67 0.7311 -0.1289
vn -0.6701 0.731 0.1289
vn 0 0.9848 0.1736
vn -0.6701 0.6428 0.3712
vn 0 0.866 0.5
vn -0.67 0.4772 0.5687
vn 0 0.6428 0.7661
vn 0 0.342 0.9397
vn -0.67 0.2539 0.6976
vn 0 0 1
vn -0.67 0 0.7423
vn -0.67 -0.2539 0.6976
vn 0 -0.342 0.9397
vn 0 -0.6428 0.766
vn -0.67 -0.4772 0.5687
vn -0.67 -0.6429 0.3712
vn 0 -0.866 0.5
vn -0.0369 -0.9841 0.1735
vn -0.0369 -0.9841 -0.1735
vn -0.0369 -0.8654 -0.4997
vn -0.0369 -0.6423 -0.7655
vn -0.0369 -0.3418 -0.9391
vn -0.0369 0 -0.9993
vn -0.0369 0.3418 -0.9391
vn -0.0369 0.6423 -0.7655
vn -0.0369 0.8654 -0.4997
vn -0.0369 0.9841 -0.1735
vn -0.0369 0.9841 0.1735
vn -0.0369 0.8654 0.4997
vn -0.0369 0.6423 0.7655
vn -0.0369 0.3418 0.9391
vn -0.0369 -0 0.9993
vn -0.0369 -0.3418 0.9391
vn -0.0369 -0.6423 0.7655
vn -0.0369 -0.8654 0.4997
vn 0.6426 -0.7546 0.1331
vn 0.6426 -0.7546 -0.1331
vn 0.6426 -0.6636 -0.3831
vn 0.6426 -0.4925 -0.5869
vn 0.6426 -0.2621 -0.72
vn 0.6426 0 -0.7662
vn 0.6426 0.2621 -0.72
vn 0.6426 0.4925 -0.5869
vn 0.6426 0.6636 -0.3831
vn 0.6426 0.7546 -0.133
vn -0.2396 0.7753 0.5844
vn 0.5436 0.5854 0.6015
vn 0.5731 0.5841 -0.5747
vn -0.204 0.7298 -0.6525
vn 0.6426 0.6636 0.3831
vn 0.6426 0.7546 0.1331
vn 0.6426 0.4925 0.587
vn 0.6426 0.2621 0.72
vn 0.6426 0 0.7662
vn 0.6426 -0.2621 0.72
vn 0.6426 -0.4925 0.587
vn 0.6426 -0.6636 0.3831
vn -1 0 -0
vn 1 0 -0
vn -0.1866 0.9795 0.0759
vn -0.1879 0.9792 -0.0761
vn 0.2367 0.9189 0.3154
vn 0.2269 0.9224 -0.3125
vn 0 -0.9397 0.342
vn 0 -0.766 0.6428
vn -0.67 -0.5687 0.4772
vn -0.67 -0.6976 0.2539
vn 0 -1 -0
vn -0.67 -0.7423 -0
vn -0.67 -0.6976 -0.2539
vn 0 -0.9397 -0.342
vn 0 -0.7661 -0.6428
vn -0.6701 -0.5686 -0.4771
vn -0.6701 -0.3711 -0.6428
vn 0 -0.5 -0.866
vn -0.6701 -0.1289 -0.731
vn 0 -0.1736 -0.9848
vn -0.67 0.1289 -0.7311
vn 0 0.1736 -0.9848
vn -0.6701 0.3711 -0.6429
vn 0 0.5 -0.866
vn 0 0.7661 -0.6428
vn -0.6701 0.5686 -0.4771
vn -0.6701 0.6975 -0.2539
vn 0 0.9397 -0.342
vn -0.6701 0.7423 -0
vn 0 1 -0
vn -0.6701 0.6975 0.2539
vn 0 0.9397 0.342
vn 0 0.766 0.6428
vn -0.67 0.5687 0.4772
vn 0 0.5 0.866
vn -0.67 0.3712 0.6429
vn -0.67 0.1289 0.7311
vn 0 0.1737 0.9848
vn 0 -0.1737 0.9848
vn -0.67 -0.1289 0.7311
vn -0.67 -0.3712 0.6429
vn 0 -0.5 0.866
vn 0.67 -0.5687 0.4772
vn 0.67 -0.6976 0.2539
vn 0.67 -0.7423 -0
vn 0.67 -0.6976 -0.2539
vn 0.6701 -0.5686 -0.4771
vn 0.6701 -0.3711 -0.6428
vn 0.6701 -0.1289 -0.731
vn 0.67 0.1289 -0.7311
vn 0.6701 0.3711 -0.6429
vn 0.6701 0.5686 -0.4771
vn 0.6701 0.6975 -0.2539
vn 0.6701 0.7423 -0
vn 0.6701 0.6975 0.2539
vn 0.67 0.5687 0.4772
vn 0.67 0.3712 0.6429
vn 0.67 0.1289 0.7311
vn 0.67 -0.1289 0.7311
vn 0.67 -0.3712 0.6429
vn 0.0805 -0.9968 -0
vn 0.0041 -0.7259 -0.6878
vn 0.1811 -0.7048 -0.6859
vn 0.2755 -0.9613 0
vn 1 -0.0001 -0
vn 0.669 0.7074 -0.2283
vn 0.7283 0.6853 0
vn 1 0.0015 -0
vn -0.0306 0 -0.9995
vn -0.0135 0 -0.9999
vn 0.1673 -0.7184 -0.6752
vn 0.2414 -0.394 -0.8869
vn -0.822 0.5696 -0
vn -0.6997 0.5429 -0.4644
vn -0.6532 0.6201 -0.4346
vn -0.7152 0.6989 -0
vn -0.8688 0.1131 -0.4821
vn -0.9956 -0.0935 -0
vn 0.6794 -0.7338 0
vn 0.5299 -0.5618 -0.6353
vn 0.7448 -0.1626 -0.6472
vn 0.9758 -0.2187 -0
vn -0.2188 0.9244 -0.3125
vn -0.2735 0.879 -0.3906
vn 0.7192 0 -0.6948
vn 0.7191 0 -0.6949
vn 0.7183 -0.0028 -0.6957
vn -0.0136 0.0001 -0.9999
vn -0.0334 0.3005 -0.9532
vn 0.6112 0.3857 -0.6911
vn 0.2101 0.3478 -0.9137
vn -0.0003 0.0003 -1
vn -0.0003 0.0004 -1
vn 0.2925 0.4839 -0.8248
vn -0.0135 0.0001 -0.9999
vn 0 0.0004 -1
vn 0.6867 -0.4206 -0.5929
vn -0.9401 0.3409 -0
vn -0.7866 0.2903 -0.545
vn -0.8164 -0.0906 -0.5704
vn -0.9932 -0.1161 -0
vn -0.478 -0.8524 -0.2118
vn -0.5201 -0.8541 -0
vn -0.0731 -0.6812 -0.7284
vn 0.0673 -0.6868 -0.7237
vn -0.6605 -0.7508 0
vn -0.5204 -0.6029 -0.6047
vn -0.0861 -0.7386 -0.6686
vn -0.0459 -0.9989 0
vn 0.2451 -0.9695 -0.0016
vn 0.424 -0.8937 -0.1464
vn 0.0279 0.2376 -0.971
vn -0.1962 0.8335 -0.5165
vn 0.0246 0.8924 -0.4506
vn 0.033 0.9995 -0
vn -0.2784 0.0343 -0.9598
vn -0.7669 0.0244 -0.6413
vn -0.2637 0.008 -0.9646
vn -0.983 -0.1837 -0
vn 0.8465 -0.5323 0.005
vn 0.8403 -0.5421 -0
vn -0.7145 -0.1722 -0.6781
vn -0.3819 0.8699 -0.3123
vn -0.1795 0.6297 -0.7558
vn -0.4792 0.0512 -0.8762
vn -0.9555 -0.2951 -0
vn -0.3216 0.9469 -0
vn -0.2406 0.7186 -0.6525
vn -0.8005 -0.2493 -0.545
vn -0.7443 0.1399 -0.6531
vn -0.2783 -0.0168 -0.9604
vn -0.9902 0.1394 -0
vn -0.7814 -0.624 -0
vn -0.3142 0.3762 -0.8716
vn -0.1967 0.1029 -0.9751
vn -0.1119 -0.9936 0.0176
vn 0.1178 -0.9926 0.0308
vn -0.1035 -0.9946 0
vn 0.1069 -0.9943 0
vn -0.2704 0.0096 -0.9627
vn -0.303 0.1079 -0.9469
vn 0.8701 -0.2713 -0.4114
vn 0.9075 0.0372 -0.4184
vn 0.4269 0.034 -0.9037
vn 0.3611 -0.1044 -0.9267
vn 0.9584 -0.2855 -0
vn 0.9995 0.0306 0
vn -0.2608 -0.7222 -0.6406
vn 0.6497 -0.73 -0.2121
vn 0.3812 -0.667 -0.6402
vn 0.6976 -0.7165 -0
vn 0.1692 0.9856 -0
vn -0.2091 0.6343 -0.7443
vn 0.1133 0.5949 -0.7958
vn -0.2 -0.7411 -0.6409
vn -0.5872 -0.4597 -0.6663
vn -0.2792 -0.9602 -0.0093
vn -0.802 -0.597 -0.0199
vn 0.2476 0.9689 -0
vn 0.1929 0.7346 -0.6504
vn -0.2361 0.9717 -0
vn -0.2886 -0.4269 -0.857
vn -0.5878 -0.809 -0.0025
vn 0.6411 -0.744 -0.1882
vn 0.8509 -0.5254 -0
vn 0.5206 -0.6282 -0.5782
vn -0.2822 -0.9594 0
vn 0.3527 -0.6684 -0.6549
vn 0.1596 -0.641 -0.7508
vn 0.2607 -0.5083 -0.8208
vn 0.5738 -0.0796 -0.8151
vn 0.169 -0.7208 -0.6722
vn -0.1422 -0.2559 -0.9562
vn -0.6328 0.155 -0.7586
vn -0.4042 0.4366 -0.8037
vn -0.2027 0.6356 -0.7449
vn -0.1052 0.6809 -0.7248
vn 0.3489 0.4001 -0.8475
vn 0.0292 0.6989 -0.7146
vn 0.9015 -0.4328 -0
vn -0.3832 -0.9236 -0
vn -0.3891 -0.8479 -0.36
vn 0.3391 -0.3931 -0.8547
vn 0.0621 -0.998 -0.0108
vn -0.2781 -0.9117 -0.3024
vn -0.9991 -0.0432 -0
vn -0.8116 -0.0351 -0.5831
vn -0.8787 -0.038 -0.4759
vn 0.8121 0.2906 0.506
vn 0.4075 -0.0139 -0.9131
vn -0.8964 -0.0388 -0.4415
vn 0.4473 -0.022 -0.8941
vn 0.6865 -0.7271 -0
vn 0.0836 -0.9965 -0
vn -0.0306 0.0004 -0.9995
vn -0.0307 0.0002 -0.9995
vn 0.9957 -0.0922 -0
vn -0.6759 -0.737 -0
vn 0.9995 -0.0307 -0
vn 0.1811 -0.7048 0.6859
vn 0.0041 -0.7259 0.6878
vn 0.669 0.7074 0.2283
vn -0.0306 0 0.9995
vn 0.2414 -0.394 0.8869
vn 0.1673 -0.7184 0.6752
vn -0.0135 0 0.9999
vn -0.6532 0.6201 0.4346
vn -0.6997 0.5429 0.4644
vn -0.8688 0.1131 0.4821
vn 0.7448 -0.1626 0.6472
vn 0.5299 -0.5618 0.6353
vn -0.2188 0.9244 0.3125
vn -0.2735 0.879 0.3906
vn 0.7192 0 0.6948
vn 0.7191 0 0.6949
vn 0.7183 -0.0028 0.6957
vn 0.6112 0.3857 0.6911
vn -0.0334 0.3005 0.9532
vn -0.0136 0.0001 0.9999
vn -0.0003 0.0004 1
vn -0.0003 0.0003 1
vn 0.2101 0.3478 0.9137
vn 0.2925 0.4839 0.8248
vn -0.0135 0.0001 0.9999
vn 0 0.0005 1
vn 0 0.0004 1
vn 0.6867 -0.4206 0.5929
vn -0.8164 -0.0906 0.5703
vn -0.7866 0.2903 0.545
vn -0.478 -0.8524 0.2118
vn 0.0673 -0.6868 0.7237
vn -0.0731 -0.6812 0.7284
vn -0.0861 -0.7387 0.6686
vn -0.5204 -0.6029 0.6047
vn 0.424 -0.8937 0.1464
vn 0.2451 -0.9695 0.0016
vn 0.028 0.2376 0.971
vn 0.0246 0.8924 0.4506
vn -0.1962 0.8335 0.5165
vn -0.2784 0.0343 0.9598
vn -0.2637 0.008 0.9646
vn -0.7669 0.0244 0.6413
vn 0.8465 -0.5323 -0.005
vn -0.1794 0.6297 0.7559
vn -0.3819 0.8699 0.3123
vn -0.7145 -0.1722 0.6781
vn -0.4792 0.0512 0.8762
vn -0.2406 0.7186 0.6525
vn -0.8005 -0.2493 0.545
vn -0.7443 0.1399 0.653
vn -0.2783 -0.0167 0.9604
vn -0.3142 0.3762 0.8716
vn -0.1967 0.1029 0.9751
vn 0.1178 -0.9926 -0.0308
vn -0.1119 -0.9936 -0.0176
vn -0.2704 0.0096 0.9627
vn -0.303 0.1079 0.9469
vn 0.4269 0.034 0.9037
vn 0.9075 0.0372 0.4184
vn 0.8701 -0.2713 0.4114
vn 0.3611 -0.1044 0.9266
vn -0.2608 -0.7222 0.6406
vn 0.3812 -0.667 0.6402
vn 0.6497 -0.73 0.2121
vn 0.1133 0.5949 0.7958
vn -0.2091 0.6343 0.7443
vn -0.5872 -0.4597 0.6663
vn -0.2 -0.7411 0.6409
vn -0.802 -0.597 0.0199
vn -0.2792 -0.9602 0.0093
vn 0.1929 0.7346 0.6504
vn -0.2886 -0.4269 0.857
vn -0.5878 -0.809 0.0025
vn 0.6411 -0.744 0.1882
vn 0.5206 -0.6282 0.5782
vn 0.3527 -0.6684 0.6549
vn 0.1596 -0.641 0.7508
vn 0.2607 -0.5083 0.8208
vn 0.5738 -0.0796 0.8151
vn 0.169 -0.7208 0.6722
vn -0.1422 -0.2559 0.9562
vn -0.6328 0.155 0.7586
vn -0.4042 0.4366 0.8037
vn -0.2027 0.6356 0.7449
vn -0.1052 0.6809 0.7248
vn 0.3489 0.4001 0.8475
vn 0.0292 0.6989 0.7146
vn 0.3391 -0.3931 0.8547
vn -0.3891 -0.8479 0.36
vn 0.0621 -0.998 0.0108
vn -0.2781 -0.9117 0.3024
vn -0.8787 -0.038 0.4759
vn -0.8116 -0.0351 0.5831
vn 0.4075 -0.0139 0.9131
vn 0.8121 0.2906 -0.506
vn -0.8964 -0.0388 0.4415
vn 0.4473 -0.022 0.8941
vn -0.0306 0.0004 0.9995
vn -0.0307 0.0003 0.9995
vn -0.9733 0.2294 -0
vn -0.5459 -0.8378 -0
vn 0.2407 -0.9706 -0
vn -0.6929 0.7211 -0
vn -0.2659 0.964 -0
vn -0.0731 0.9973 -0
vn 0.0768 0.997 -0
vn 0.6529 0.7575 -0
vn 0.9902 -0.1394 -0
vn 0.4948 -0.869 -0
vn 0.6701 -0.7423 0
vn 0.6701 -0.6975 0.2539
vn 0.6701 -0.5686 0.4772
vn 0.6701 -0.3712 0.6428
vn 0 -0.1736 0.9848
vn 0.6701 -0.1289 0.731
vn 0.6701 0.1289 0.731
vn 0 0.1736 0.9848
vn 0.6701 0.3712 0.6428
vn 0.67 0.5686 0.4772
vn 0.67 0.6976 0.2539
vn 0.67 0.7423 -0
vn 0.67 0.6976 -0.2539
vn 0.67 0.5686 -0.4772
vn 0 0.766 -0.6428
vn 0.67 0.3712 -0.6429
vn 0.67 -0.1289 -0.7311
vn 0.67 -0.3712 -0.6429
vn 0 -0.766 -0.6428
vn 0.67 -0.5686 -0.4772
vn 0.6701 -0.6975 -0.2539
vn 0.0255 -0.9997 0
vn 0.0255 -0.9394 0.3419
vn 0.0255 -0.7658 0.6426
vn 0.0255 -0.4998 0.8657
vn 0.0255 -0.1736 0.9845
vn 0.0255 0.1736 0.9845
vn 0.0255 0.4998 0.8657
vn 0.0255 0.7658 0.6426
vn 0.0255 0.9394 0.3419
vn 0.0255 0.9997 -0
vn 0.0255 0.9394 -0.3419
vn 0.0255 0.7658 -0.6426
vn 0.0255 0.4998 -0.8658
vn 0.0255 0.1736 -0.9845
vn 0.0255 -0.1736 -0.9845
vn 0.0255 -0.4998 -0.8658
vn 0.0255 -0.7658 -0.6426
vn 0.0255 -0.9394 -0.3419
vn -0.6511 -0.759 -0
vn -0.6511 -0.7132 0.2596
vn -0.6511 -0.5814 0.4878
vn -0.6511 -0.3795 0.6573
vn -0.6511 -0.1318 0.7474
vn -0.6511 0.1318 0.7474
vn -0.6511 0.3795 0.6573
vn -0.6511 0.5814 0.4878
vn -0.6511 0.7132 0.2596
vn -0.6511 0.759 -0
vn -0.6511 0.7132 -0.2596
vn -0.6511 0.5814 -0.4878
vn -0.6511 0.3795 -0.6573
vn -0.6511 0.1318 -0.7474
vn -0.6511 -0.1318 -0.7474
vn -0.6511 -0.3795 -0.6573
vn -0.6511 -0.5814 -0.4878
vn -0.6511 -0.7132 -0.2596

# Mesh 'g RicochetRevolver_LP_Cylinder001_RicochetRevolver_LP_Cylinder001' with 1284 faces
g g RicochetRevolver_LP_Cylinder001_RicochetRevolver_LP_Cylinder001
usemtl initialShadingGroup
f  1/1/1 2/2/2 3/3/3
f  3/3/3 4/4/4 1/1/1
f  5/5/5 1/1/1 4/4/4
f  4/4/4 6/6/6 5/5/5
f  6/6/6 7/7/7 8/8/8
f  8/8/8 5/5/5 6/6/6
f  9/9/9 8/10/8 7/11/7
f  7/11/7 10/12/10 9/9/9
f  10/12/10 11/13/11 12/14/12
f  12/14/12 9/9/9 10/12/10
f  12/14/12 11/13/11 13/15/13
f  13/15/13 14/16/14 12/14/12
f  14/16/14 13/15/13 15/17/15
f  15/17/15 16/18/16 14/16/14
f  15/19/15 17/20/17 18/21/18
f  18/21/18 16/22/16 15/19/15
f  19/23/19 18/21/18 17/20/17
f  17/20/17 20/24/20 19/23/19
f  20/24/20 21/25/21 22/26/22
f  22/26/22 19/23/19 20/24/20
f  22/26/22 21/25/21 23/27/23
f  23/27/23 24/28/24 22/26/22
f  23/27/23 25/29/25 26/30/26
f  26/30/26 24/28/24 23/27/23
f  27/31/27 26/30/26 25/29/25
f  25/29/25 28/32/28 27/31/27
f  29/33/29 27/34/27 28/35/28
f  28/35/28 30/36/30 29/33/29
f  30/36/30 31/37/31 32/38/32
f  32/38/32 29/33/29 30/36/30
f  33/39/33 32/40/32 31/41/31
f  31/41/31 34/42/34 33/39/33
f  34/42/34 35/43/35 36/44/36
f  36/44/36 33/39/33 34/42/34
f  36/44/36 35/43/35 3/3/3
f  3/3/3 2/2/2 36/44/36
f  37/45/1 38/46/2 2/2/2
f  2/2/2 1/1/1 37/45/1
f  37/45/1 1/1/1 5/5/5
f  5/5/5 39/47/5 37/45/1
f  5/5/5 8/8/8 40/48/8
f  40/48/8 39/47/5 5/5/5
f  41/49/9 40/50/8 8/10/8
f  8/10/8 9/9/9 41/49/9
f  42/51/12 41/49/9 9/9/9
f  9/9/9 12/14/12 42/51/12
f  43/52/14 42/51/12 12/14/12
f  12/14/12 14/16/14 43/52/14
f  44/53/16 43/52/14 14/16/14
f  14/16/14 16/18/16 44/53/16
f  16/22/16 18/21/18 45/54/18
f  45/54/18 44/55/16 16/22/16
f  46/56/19 45/54/18 18/21/18
f  18/21/18 19/23/19 46/56/19
f  22/26/22 47/57/22 46/56/19
f  46/56/19 19/23/19 22/26/22
f  22/26/22 24/28/24 48/58/24
f  48/58/24 47/57/22 22/26/22
f  49/59/26 48/58/24 24/28/24
f  24/28/24 26/30/26 49/59/26
f  50/60/27 49/59/26 26/30/26
f  26/30/26 27/31/27 50/60/27
f  27/34/27 29/33/29 51/61/29
f  51/61/29 50/62/27 27/34/27
f  51/61/29 29/33/29 32/38/32
f  32/38/32 52/63/32 51/61/29
f  33/39/33 53/64/33 52/65/32
f  52/65/32 32/40/32 33/39/33
f  33/39/33 36/44/36 54/66/36
f  54/66/36 53/64/33 33/39/33
f  2/2/2 38/46/2 54/66/36
f  54/66/36 36/44/36 2/2/2
f  38/46/2 37/45/1 55/67/1
f  55/67/1 56/68/2 38/46/2
f  37/45/1 39/47/5 57/69/5
f  57/69/5 55/67/1 37/45/1
f  39/47/5 40/48/8 58/70/8
f  58/70/8 57/69/5 39/47/5
f  40/50/8 41/49/9 59/71/9
f  59/71/9 58/72/8 40/50/8
f  60/73/12 59/71/9 41/49/9
f  41/49/9 42/51/12 60/73/12
f  42/51/12 43/52/14 61/74/14
f  61/74/14 60/73/12 42/51/12
f  61/74/14 43/52/14 44/53/16
f  44/53/16 62/75/16 61/74/14
f  44/55/16 45/54/18 63/76/18
f  63/76/18 62/77/16 44/55/16
f  63/76/18 45/54/18 46/56/19
f  46/56/19 64/78/19 63/76/18
f  65/79/22 64/78/19 46/56/19
f  46/56/19 47/57/22 65/79/22
f  66/80/24 65/79/22 47/57/22
f  47/57/22 48/58/24 66/80/24
f  49/59/26 67/81/26 66/80/24
f  66/80/24 48/58/24 49/59/26
f  67/81/26 49/59/26 50/60/27
f  50/60/27 68/82/27 67/81/26
f  51/61/29 69/83/29 68/84/27
f  68/84/27 50/62/27 51/61/29
f  69/83/29 51/61/29 52/63/32
f  52/63/32 70/85/32 69/83/29
f  53/64/33 71/86/33 70/87/32
f  70/87/32 52/65/32 53/64/33
f  72/88/36 71/86/33 53/64/33
f  53/64/33 54/66/36 72/88/36
f  56/68/2 72/88/36 54/66/36
f  54/66/36 38/46/2 56/68/2
f  73/89/37 56/68/2 55/67/1
f  55/67/1 74/90/38 73/89/37
f  55/67/1 57/69/5 75/91/39
f  75/91/39 74/90/38 55/67/1
f  76/92/40 75/91/39 57/69/5
f  57/69/5 58/70/8 76/92/40
f  59/71/9 77/93/41 76/94/40
f  76/94/40 58/72/8 59/71/9
f  78/95/42 77/93/41 59/71/9
f  59/71/9 60/73/12 78/95/42
f  78/95/42 60/73/12 61/74/14
f  61/74/14 79/96/43 78/95/42
f  79/96/43 61/74/14 62/75/16
f  62/75/16 80/97/44 79/96/43
f  63/76/18 81/98/45 80/99/44
f  80/99/44 62/77/16 63/76/18
f  82/100/46 81/98/45 63/76/18
f  63/76/18 64/78/19 82/100/46
f  82/100/46 64/78/19 65/79/22
f  65/79/22 83/101/47 82/100/46
f  84/102/48 83/101/47 65/79/22
f  65/79/22 66/80/24 84/102/48
f  85/103/49 84/102/48 66/80/24
f  66/80/24 67/81/26 85/103/49
f  67/81/26 68/82/27 86/104/50
f  86/104/50 85/103/49 67/81/26
f  69/83/29 87/105/51 86/106/50
f  86/106/50 68/84/27 69/83/29
f  88/107/52 87/105/51 69/83/29
f  69/83/29 70/85/32 88/107/52
f  71/86/33 89/108/53 88/109/52
f  88/109/52 70/87/32 71/86/33
f  71/86/33 72/88/36 90/110/54
f  90/110/54 89/108/53 71/86/33
f  72/88/36 56/68/2 73/89/37
f  73/89/37 90/110/54 72/88/36
f  91/111/55 73/89/37 74/90/38
f  74/90/38 92/112/56 91/111/55
f  74/90/38 75/91/39 93/113/57
f  93/113/57 92/112/56 74/90/38
f  76/92/40 94/114/58 93/113/57
f  93/113/57 75/91/39 76/92/40
f  94/115/58 76/94/40 77/93/41
f  77/93/41 95/116/59 94/115/58
f  95/116/59 77/93/41 78/95/42
f  78/95/42 96/117/60 95/116/59
f  96/117/60 78/95/42 79/96/43
f  79/96/43 97/118/61 96/117/60
f  79/96/43 80/97/44 98/119/62
f  98/119/62 97/118/61 79/96/43
f  98/120/62 80/99/44 81/98/45
f  81/98/45 99/121/63 98/120/62
f  82/100/46 100/122/64 99/121/63
f  99/121/63 81/98/45 82/100/46
f  101/123/65 102/124/66 103/125/67
f  103/125/67 104/126/68 101/123/65
f  84/102/48 105/127/69 106/128/70
f  106/128/70 83/101/47 84/102/48
f  107/129/71 105/127/69 84/102/48
f  84/102/48 85/103/49 107/129/71
f  85/130/49 86/106/50 108/131/72
f  108/131/72 107/132/71 85/130/49
f  86/106/50 87/105/51 109/133/73
f  109/133/73 108/131/72 86/106/50
f  110/134/74 109/133/73 87/105/51
f  87/105/51 88/107/52 110/134/74
f  110/134/74 88/107/52 89/135/53
f  89/135/53 111/136/75 110/134/74
f  112/137/76 111/138/75 89/108/53
f  89/108/53 90/110/54 112/137/76
f  73/89/37 91/111/55 112/137/76
f  112/137/76 90/110/54 73/89/37
f  113/139/77 4/140/4 3/141/3
f  113/139/77 6/142/6 4/140/4
f  113/139/77 7/143/7 6/142/6
f  113/139/77 10/144/10 7/143/7
f  113/139/77 11/145/11 10/144/10
f  113/139/77 13/146/13 11/145/11
f  113/139/77 15/147/15 13/146/13
f  113/139/77 17/148/17 15/147/15
f  113/139/77 20/149/20 17/148/17
f  113/139/77 21/150/21 20/149/20
f  113/139/77 23/151/23 21/150/21
f  113/139/77 25/152/25 23/151/23
f  113/139/77 28/153/28 25/152/25
f  113/139/77 30/154/30 28/153/28
f  113/139/77 31/155/31 30/154/30
f  113/139/77 34/156/34 31/155/31
f  113/139/77 35/157/35 34/156/34
f  113/139/77 3/141/3 35/157/35
f  114/158/78 91/159/55 92/160/56
f  114/158/78 92/160/56 93/161/57
f  114/158/78 93/161/57 94/162/58
f  114/158/78 94/162/58 95/163/59
f  114/158/78 95/163/59 96/164/60
f  114/158/78 96/164/60 97/165/61
f  114/158/78 97/165/61 98/166/62
f  114/158/78 98/166/62 99/167/63
f  114/158/78 99/167/63 100/168/64
f  114/158/78 100/168/64 106/169/70
f  114/158/78 106/169/70 105/170/69
f  114/158/78 105/170/69 107/171/71
f  114/158/78 107/171/71 108/172/72
f  114/158/78 108/172/72 109/173/73
f  114/158/78 109/173/73 110/174/74
f  114/158/78 110/174/74 111/175/75
f  114/158/78 111/175/75 112/176/76
f  114/158/78 112/176/76 91/159/55
f  115/177/79 116/178/80 82/100/46
f  82/100/46 83/101/47 115/177/79
f  115/177/79 83/101/47 106/128/70
f  106/128/70 117/179/81 115/177/79
f  118/180/82 117/179/81 106/128/70
f  106/128/70 100/122/64 118/180/82
f  82/100/46 116/178/80 118/180/82
f  118/180/82 100/122/64 82/100/46
f  104/181/68 116/178/80 115/177/79
f  115/177/79 101/182/65 104/181/68
f  117/183/81 102/184/66 101/185/65
f  101/185/65 115/186/79 117/183/81
f  103/187/67 102/188/66 117/189/81
f  117/189/81 118/190/82 103/187/67
f  118/191/82 116/192/80 104/193/68
f  104/193/68 103/194/67 118/191/82
f  119/195/83 120/196/84 121/197/85
f  121/197/85 122/198/86 119/195/83
f  123/199/87 119/195/83 122/198/86
f  122/198/86 124/200/88 123/199/87
f  124/200/88 125/201/89 126/202/90
f  126/202/90 123/199/87 124/200/88
f  127/203/91 126/202/90 125/201/89
f  125/201/89 128/204/92 127/203/91
f  128/204/92 129/205/93 130/206/94
f  130/206/94 127/203/91 128/204/92
f  130/207/94 129/208/93 131/209/95
f  131/209/95 132/210/96 130/207/94
f  132/210/96 131/209/95 133/211/97
f  133/211/97 134/212/98 132/210/96
f  133/211/97 135/213/99 136/214/100
f  136/214/100 134/212/98 133/211/97
f  137/215/101 136/216/100 135/217/99
f  135/217/99 138/218/102 137/215/101
f  138/218/102 139/219/103 140/220/104
f  140/220/104 137/215/101 138/218/102
f  140/220/104 139/219/103 141/221/105
f  141/221/105 142/222/106 140/220/104
f  141/221/105 143/223/107 144/224/108
f  144/224/108 142/222/106 141/221/105
f  145/225/109 144/224/108 143/223/107
f  143/223/107 146/226/110 145/225/109
f  147/227/111 145/225/109 146/226/110
f  146/226/110 148/228/112 147/227/111
f  148/229/112 149/230/113 150/231/114
f  150/231/114 147/232/111 148/229/112
f  151/233/115 150/231/114 149/230/113
f  149/230/113 152/234/116 151/233/115
f  152/234/116 153/235/117 154/236/118
f  154/236/118 151/233/115 152/234/116
f  154/237/118 153/238/117 121/197/85
f  121/197/85 120/196/84 154/237/118
f  155/239/83 156/240/84 120/196/84
f  120/196/84 119/195/83 155/239/83
f  155/239/83 119/195/83 123/199/87
f  123/199/87 157/241/87 155/239/83
f  123/199/87 126/202/90 158/242/90
f  158/242/90 157/241/87 123/199/87
f  159/243/91 158/242/90 126/202/90
f  126/202/90 127/203/91 159/243/91
f  160/244/94 159/243/91 127/203/91
f  127/203/91 130/206/94 160/244/94
f  161/245/96 160/246/94 130/207/94
f  130/207/94 132/210/96 161/245/96
f  162/247/98 161/245/96 132/210/96
f  132/210/96 134/212/98 162/247/98
f  134/212/98 136/214/100 163/248/100
f  163/248/100 162/247/98 134/212/98
f  164/249/101 163/250/100 136/216/100
f  136/216/100 137/215/101 164/249/101
f  140/220/104 165/251/104 164/249/101
f  164/249/101 137/215/101 140/220/104
f  140/220/104 142/222/106 166/252/106
f  166/252/106 165/251/104 140/220/104
f  167/253/108 166/252/106 142/222/106
f  142/222/106 144/224/108 167/253/108
f  168/254/109 167/253/108 144/224/108
f  144/224/108 145/225/109 168/254/109
f  145/225/109 147/227/111 169/255/111
f  169/255/111 168/254/109 145/225/109
f  169/256/111 147/232/111 150/231/114
f  150/231/114 170/257/114 169/256/111
f  151/233/115 171/258/115 170/257/114
f  170/257/114 150/231/114 151/233/115
f  151/233/115 154/236/118 172/259/118
f  172/259/118 171/258/115 151/233/115
f  120/196/84 156/240/84 172/260/118
f  172/260/118 154/237/118 120/196/84
f  156/240/84 155/239/83 173/261/83
f  173/261/83 174/262/84 156/240/84
f  155/239/83 157/241/87 175/263/87
f  175/263/87 173/261/83 155/239/83
f  157/241/87 158/242/90 176/264/90
f  176/264/90 175/263/87 157/241/87
f  158/242/90 159/243/91 177/265/91
f  177/265/91 176/264/90 158/242/90
f  178/266/94 177/265/91 159/243/91
f  159/243/91 160/244/94 178/266/94
f  160/246/94 161/245/96 179/267/96
f  179/267/96 178/268/94 160/246/94
f  179/267/96 161/245/96 162/247/98
f  162/247/98 180/269/98 179/267/96
f  162/247/98 163/248/100 181/270/100
f  181/270/100 180/269/98 162/247/98
f  181/271/100 163/250/100 164/249/101
f  164/249/101 182/272/101 181/271/100
f  183/273/104 182/272/101 164/249/101
f  164/249/101 165/251/104 183/273/104
f  184/274/106 183/273/104 165/251/104
f  165/251/104 166/252/106 184/274/106
f  167/253/108 185/275/108 184/274/106
f  184/274/106 166/252/106 167/253/108
f  185/275/108 167/253/108 168/254/109
f  168/254/109 186/276/109 185/275/108
f  169/255/111 187/277/111 186/276/109
f  186/276/109 168/254/109 169/255/111
f  187/278/111 169/256/111 170/257/114
f  170/257/114 188/279/114 187/278/111
f  171/258/115 189/280/115 188/279/114
f  188/279/114 170/257/114 171/258/115
f  190/281/118 189/280/115 171/258/115
f  171/258/115 172/259/118 190/281/118
f  174/262/84 190/282/118 172/260/118
f  172/260/118 156/240/84 174/262/84
f  191/283/84 174/262/84 173/261/83
f  173/261/83 192/284/83 191/283/84
f  173/261/83 175/263/87 193/285/87
f  193/285/87 192/284/83 173/261/83
f  194/286/90 193/285/87 175/263/87
f  175/263/87 176/264/90 194/286/90
f  177/265/91 195/287/91 194/286/90
f  194/286/90 176/264/90 177/265/91
f  196/288/94 195/287/91 177/265/91
f  177/265/91 178/266/94 196/288/94
f  196/289/94 178/268/94 179/267/96
f  179/267/96 197/290/96 196/289/94
f  197/290/96 179/267/96 180/269/98
f  180/269/98 198/291/98 197/290/96
f  181/270/100 199/292/100 198/291/98
f  198/291/98 180/269/98 181/270/100
f  200/293/101 199/294/100 181/271/100
f  181/271/100 182/272/101 200/293/101
f  200/293/101 182/272/101 183/273/104
f  183/273/104 201/295/104 200/293/101
f  202/296/106 201/295/104 183/273/104
f  183/273/104 184/274/106 202/296/106
f  203/297/108 202/296/106 184/274/106
f  184/274/106 185/275/108 203/297/108
f  185/275/108 186/276/109 204/298/109
f  204/298/109 203/297/108 185/275/108
f  187/277/111 205/299/111 204/298/109
f  204/298/109 186/276/109 187/277/111
f  206/300/114 205/301/111 187/278/111
f  187/278/111 188/279/114 206/300/114
f  189/280/115 207/302/115 206/300/114
f  206/300/114 188/279/114 189/280/115
f  189/280/115 190/281/118 208/303/118
f  208/303/118 207/302/115 189/280/115
f  190/282/118 174/262/84 191/283/84
f  191/283/84 208/304/118 190/282/118
f  209/305/119 191/283/84 192/284/83
f  192/284/83 210/306/120 209/305/119
f  192/284/83 193/285/87 211/307/121
f  211/307/121 210/306/120 192/284/83
f  194/286/90 212/308/122 211/307/121
f  211/307/121 193/285/87 194/286/90
f  212/308/122 194/286/90 195/287/91
f  195/287/91 213/309/123 212/308/122
f  213/309/123 195/287/91 196/288/94
f  196/288/94 214/310/124 213/309/123
f  214/311/124 196/289/94 197/290/96
f  197/290/96 215/312/125 214/311/124
f  197/290/96 198/291/98 216/313/126
f  216/313/126 215/312/125 197/290/96
f  216/313/126 198/291/98 199/292/100
f  199/292/100 217/314/127 216/313/126
f  200/293/101 218/315/128 217/316/127
f  217/316/127 199/294/100 200/293/101
f  200/293/101 201/295/104 219/317/129
f  219/317/129 218/315/128 200/293/101
f  220/318/130 219/317/129 201/295/104
f  201/295/104 202/296/106 220/318/130
f  220/318/130 202/296/106 203/297/108
f  203/297/108 221/319/131 220/318/130
f  221/319/131 203/297/108 204/298/109
f  204/298/109 222/320/132 221/319/131
f  222/320/132 204/298/109 205/299/111
f  205/299/111 223/321/133 222/320/132
f  224/322/134 223/323/133 205/301/111
f  205/301/111 206/300/114 224/322/134
f  224/322/134 206/300/114 207/302/115
f  207/302/115 225/324/135 224/322/134
f  226/325/136 225/324/135 207/302/115
f  207/302/115 208/303/118 226/325/136
f  208/304/118 191/283/84 209/305/119
f  209/305/119 226/326/136 208/304/118
f  227/327/77 122/328/86 121/329/85
f  227/327/77 124/330/88 122/328/86
f  227/327/77 125/331/89 124/330/88
f  227/327/77 128/332/92 125/331/89
f  227/327/77 129/333/93 128/332/92
f  227/327/77 131/334/95 129/333/93
f  227/327/77 133/335/97 131/334/95
f  227/327/77 135/336/99 133/335/97
f  227/327/77 138/337/102 135/336/99
f  227/327/77 139/338/103 138/337/102
f  227/327/77 141/339/105 139/338/103
f  227/327/77 143/340/107 141/339/105
f  227/327/77 146/341/110 143/340/107
f  227/327/77 148/342/112 146/341/110
f  227/327/77 149/343/113 148/342/112
f  227/327/77 152/344/116 149/343/113
f  227/327/77 153/345/117 152/344/116
f  227/327/77 121/329/85 153/345/117
f  228/346/78 209/347/119 210/348/120
f  228/346/78 210/348/120 211/349/121
f  228/346/78 211/349/121 212/350/122
f  228/346/78 212/350/122 213/351/123
f  228/346/78 213/351/123 214/352/124
f  228/346/78 214/352/124 215/353/125
f  228/346/78 215/353/125 216/354/126
f  228/346/78 216/354/126 217/355/127
f  228/346/78 217/355/127 218/356/128
f  228/346/78 218/356/128 219/357/129
f  228/346/78 219/357/129 220/358/130
f  228/346/78 220/358/130 221/359/131
f  228/346/78 221/359/131 222/360/132
f  228/346/78 222/360/132 223/361/133
f  228/346/78 223/361/133 224/362/134
f  228/346/78 224/362/134 225/363/135
f  228/346/78 225/363/135 226/364/136
f  228/346/78 226/364/136 209/347/119
f  229/365/137 230/366/138 231/367/139
f  231/367/139 232/368/140 229/365/137
f  233/369/78 234/370/78 235/371/78
f  235/371/78 236/372/78 233/369/78
f  237/373/141 238/374/142 239/375/143
f  239/375/143 240/376/144 237/373/141
f  241/377/78 237/373/141 240/376/144
f  240/376/144 242/378/78 241/377/78
f  234/370/78 241/377/78 242/378/78
f  242/378/78 235/371/78 234/370/78
f  243/379/145 244/380/146 245/381/147
f  245/381/147 246/382/148 243/379/145
f  247/383/149 248/384/150 249/385/151
f  249/385/151 250/386/152 247/383/149
f  251/387/153 248/384/150 247/383/149
f  247/383/149 252/388/154 251/387/153
f  253/389/155 254/390/156 255/391/157
f  255/391/157 256/392/158 253/389/155
f  257/393/159 258/394/106 259/395/106
f  259/395/106 260/396/160 257/393/159
f  261/397/146 262/398/146 263/399/161
f  263/399/161 264/400/162 261/397/146
f  265/401/12 266/402/12 267/403/12
f  267/403/12 268/404/12 265/401/12
f  269/405/163 270/406/164 271/407/165
f  271/407/165 272/408/166 269/405/163
f  273/409/167 274/410/168 275/411/169
f  275/411/169 276/412/170 273/409/167
f  277/413/171 270/406/164 269/405/163
f  269/405/163 278/414/161 277/413/171
f  274/410/168 279/415/172 280/416/172
f  280/416/172 275/411/169 274/410/168
f  262/398/146 277/413/171 278/414/161
f  278/414/161 263/399/161 262/398/146
f  279/415/172 266/402/12 265/401/12
f  265/401/12 280/416/172 279/415/172
f  281/417/12 282/418/12 283/419/12
f  283/419/12 284/420/12 281/417/12
f  285/421/173 245/381/147 244/380/146
f  244/380/146 286/422/162 285/421/173
f  268/404/12 267/403/12 282/418/12
f  282/418/12 281/417/12 268/404/12
f  244/380/146 261/397/146 264/400/162
f  264/400/162 286/422/162 244/380/146
f  287/423/174 288/424/175 289/425/176
f  289/425/176 290/426/177 287/423/174
f  291/427/12 292/428/12 293/429/12
f  293/429/12 294/430/12 291/427/12
f  289/425/176 295/431/178 296/432/179
f  296/432/179 290/426/177 289/425/176
f  293/429/12 297/433/180 298/434/181
f  298/434/181 294/430/12 293/429/12
f  292/428/12 291/427/12 284/420/12
f  284/420/12 283/419/12 292/428/12
f  299/435/182 300/436/183 301/437/184
f  301/437/184 302/438/185 299/435/182
f  245/439/147 303/440/186 304/441/187
f  304/441/187 246/442/148 245/439/147
f  305/443/188 306/444/189 307/445/190
f  307/445/190 271/446/165 305/443/188
f  306/444/189 308/447/106 309/448/191
f  309/448/191 307/445/190 306/444/189
f  234/370/78 233/369/78 264/449/162
f  264/449/162 263/450/161 234/370/78
f  310/451/192 251/387/153 311/452/193
f  311/452/193 312/453/194 310/451/192
f  252/388/154 313/454/195 311/452/193
f  311/452/193 251/387/153 252/388/154
f  272/455/166 238/374/142 237/373/141
f  237/373/141 269/456/163 272/455/166
f  237/373/141 241/377/78 278/457/161
f  278/457/161 269/456/163 237/373/141
f  241/377/78 234/370/78 263/450/161
f  263/450/161 278/457/161 241/377/78
f  314/458/78 315/459/196 285/460/173
f  285/460/173 286/461/162 314/458/78
f  316/462/78 317/463/197 315/459/196
f  315/459/196 314/458/78 316/462/78
f  233/369/78 314/458/78 286/461/162
f  286/461/162 264/449/162 233/369/78
f  236/372/78 316/462/78 314/458/78
f  314/458/78 233/369/78 236/372/78
f  318/464/198 319/465/199 320/466/200
f  320/466/200 321/467/201 318/464/198
f  322/468/202 323/469/203 324/470/204
f  324/470/204 325/471/205 322/468/202
f  326/472/206 318/464/198 321/467/201
f  321/467/201 327/473/207 326/472/206
f  328/474/208 329/475/209 318/464/198
f  318/464/198 326/472/206 328/474/208
f  311/452/193 326/472/206 327/473/207
f  327/473/207 312/453/194 311/452/193
f  313/454/195 328/474/208 326/472/206
f  326/472/206 311/452/193 313/454/195
f  330/476/210 249/477/151 248/478/150
f  248/478/150 331/479/211 330/476/210
f  331/480/211 248/384/150 251/387/153
f  251/387/153 310/451/192 331/480/211
f  285/481/173 315/482/196 303/440/186
f  303/440/186 245/439/147 285/481/173
f  332/483/212 333/484/213 298/485/181
f  298/485/181 297/486/180 332/483/212
f  334/487/214 335/488/215 333/484/213
f  333/484/213 332/483/212 334/487/214
f  307/445/190 238/489/142 272/490/166
f  272/490/166 271/446/165 307/445/190
f  309/448/191 239/491/143 238/489/142
f  238/489/142 307/445/190 309/448/191
f  260/396/160 273/492/167 276/493/170
f  276/493/170 257/393/159 260/396/160
f  336/494/216 289/425/176 288/424/175
f  288/424/175 337/495/217 336/494/216
f  338/496/218 339/497/219 340/498/220
f  340/498/220 341/499/221 338/496/218
f  342/500/222 343/501/223 339/497/219
f  339/497/219 338/496/218 342/500/222
f  295/431/178 289/425/176 336/494/216
f  336/494/216 344/502/224 295/431/178
f  337/495/217 288/424/175 249/385/151
f  249/385/151 330/503/210 337/495/217
f  288/424/175 287/423/174 250/386/152
f  250/386/152 249/385/151 288/424/175
f  339/497/219 345/504/225 346/505/226
f  346/505/226 340/498/220 339/497/219
f  343/501/223 347/506/227 345/504/225
f  345/504/225 339/497/219 343/501/223
f  246/507/148 304/508/187 338/496/218
f  338/496/218 341/499/221 246/507/148
f  348/509/228 349/510/203 350/511/229
f  350/511/229 351/512/230 348/509/228
f  351/513/230 350/514/229 352/515/231
f  352/515/231 353/516/232 351/513/230
f  353/517/232 352/518/231 354/519/233
f  354/519/233 355/520/234 353/517/232
f  323/469/203 356/521/235 357/522/236
f  357/522/236 324/470/204 323/469/203
f  348/509/228 351/512/230 357/522/236
f  357/522/236 356/521/235 348/509/228
f  319/523/199 350/511/229 349/510/203
f  349/510/203 358/524/237 319/523/199
f  324/525/204 357/526/236 359/527/238
f  359/527/238 325/528/205 324/525/204
f  351/513/230 353/516/232 359/527/238
f  359/527/238 357/526/236 351/513/230
f  318/529/198 352/515/231 350/514/229
f  350/514/229 319/530/199 318/529/198
f  359/531/238 360/532/239 322/533/202
f  322/533/202 325/534/205 359/531/238
f  353/517/232 355/520/234 360/535/239
f  360/535/239 359/536/238 353/517/232
f  329/537/209 354/538/233 352/539/231
f  352/539/231 318/540/198 329/537/209
f  361/541/240 315/482/196 317/542/197
f  317/542/197 362/543/241 361/541/240
f  363/544/242 364/545/243 342/500/222
f  342/500/222 338/496/218 363/544/242
f  363/544/242 338/496/218 304/508/187
f  304/508/187 365/546/244 363/544/242
f  365/547/244 304/441/187 303/440/186
f  303/440/186 366/548/245 365/547/244
f  361/541/240 366/548/245 303/440/186
f  303/440/186 315/482/196 361/541/240
f  255/391/157 361/549/240 362/550/241
f  362/550/241 256/392/158 255/391/157
f  300/551/183 299/552/182 364/553/243
f  364/553/243 363/554/242 300/551/183
f  367/555/246 368/556/247 363/557/242
f  363/557/242 365/558/244 367/555/246
f  367/555/246 365/558/244 366/559/245
f  366/559/245 369/560/248 367/555/246
f  370/561/249 369/560/248 366/559/245
f  366/559/245 361/562/240 370/561/249
f  370/561/249 361/562/240 255/563/157
f  255/563/157 371/564/250 370/561/249
f  372/565/251 371/564/250 255/563/157
f  255/563/157 254/566/156 372/565/251
f  373/567/252 231/568/139 230/569/138
f  230/569/138 374/570/253 373/567/252
f  375/571/254 376/572/255 301/573/184
f  301/573/184 300/574/183 375/571/254
f  375/571/254 300/574/183 363/557/242
f  363/557/242 368/556/247 375/571/254
f  377/575/256 378/576/257 379/577/258
f  379/577/258 380/578/259 377/575/256
f  230/366/138 229/365/137 302/438/185
f  302/438/185 301/437/184 230/366/138
f  374/570/253 230/569/138 301/573/184
f  301/573/184 376/572/255 374/570/253
f  254/579/156 253/580/155 232/368/140
f  232/368/140 231/367/139 254/579/156
f  372/565/251 254/566/156 231/568/139
f  231/568/139 373/567/252 372/565/251
f  381/581/260 382/582/261 367/583/246
f  367/583/246 369/584/248 381/581/260
f  383/585/262 384/586/263 385/587/264
f  385/587/264 386/588/262 383/585/262
f  384/589/263 387/590/265 388/591/266
f  388/591/266 385/592/264 384/589/263
f  389/593/262 390/594/267 379/595/258
f  379/595/258 378/596/257 389/593/262
f  386/588/262 385/587/264 390/594/267
f  390/594/267 389/593/262 386/588/262
f  390/594/267 391/597/268 380/598/259
f  380/598/259 379/595/258 390/594/267
f  385/587/264 388/599/266 391/597/268
f  391/597/268 390/594/267 385/587/264
f  387/590/265 384/589/263 382/600/261
f  382/600/261 381/601/260 387/590/265
f  392/602/269 387/603/265 381/604/260
f  381/604/260 393/605/270 392/602/269
f  394/606/145 261/397/146 244/380/146
f  244/380/146 243/379/145 394/606/145
f  261/397/146 394/606/145 395/607/145
f  395/607/145 262/398/146 261/397/146
f  262/398/146 395/607/145 396/608/271
f  396/608/271 277/413/171 262/398/146
f  277/413/171 396/608/271 397/609/272
f  397/609/272 270/406/164 277/413/171
f  270/406/164 397/609/272 305/610/188
f  305/610/188 271/407/165 270/406/164
f  392/611/269 398/612/273 388/613/266
f  388/613/266 387/614/265 392/611/269
f  383/585/262 399/615/274 382/616/261
f  382/616/261 384/586/263 383/585/262
f  400/617/275 377/575/256 380/578/259
f  380/578/259 391/618/268 400/617/275
f  398/612/273 400/617/275 391/618/268
f  391/618/268 388/613/266 398/612/273
f  229/365/137 232/368/140 401/619/276
f  401/619/276 402/620/277 229/365/137
f  235/371/78 403/621/78 404/622/78
f  404/622/78 236/372/78 235/371/78
f  239/375/143 405/623/278 406/624/141
f  406/624/141 240/376/144 239/375/143
f  240/376/144 406/624/141 407/625/78
f  407/625/78 242/378/78 240/376/144
f  242/378/78 407/625/78 403/621/78
f  403/621/78 235/371/78 242/378/78
f  408/626/279 409/627/280 410/628/281
f  410/628/281 411/629/282 408/626/279
f  247/383/149 250/386/152 412/630/283
f  412/630/283 413/631/284 247/383/149
f  247/383/149 413/631/284 414/632/285
f  414/632/285 252/388/154 247/383/149
f  253/389/155 256/392/158 415/633/286
f  415/633/286 416/634/287 253/389/155
f  259/395/106 258/394/106 417/635/288
f  417/635/288 418/636/289 259/395/106
f  419/637/290 420/638/282 421/639/282
f  421/639/282 422/640/291 419/637/290
f  423/641/29 424/642/29 425/643/29
f  425/643/29 426/644/29 423/641/29
f  427/645/292 428/646/293 429/647/294
f  429/647/294 430/648/295 427/645/292
f  431/649/296 432/650/297 433/651/298
f  433/651/298 434/652/299 431/649/296
f  427/645/292 430/648/295 435/653/300
f  435/653/300 436/654/290 427/645/292
f  437/655/301 438/656/302 432/650/297
f  432/650/297 431/649/296 437/655/301
f  436/654/290 435/653/300 420/638/282
f  420/638/282 419/637/290 436/654/290
f  425/643/29 424/642/29 438/656/302
f  438/656/302 437/655/301 425/643/29
f  439/657/29 440/658/29 441/659/29
f  441/659/29 442/660/29 439/657/29
f  443/661/303 444/662/291 411/629/282
f  411/629/282 410/628/281 443/661/303
f  440/658/29 423/641/29 426/644/29
f  426/644/29 441/659/29 440/658/29
f  422/640/291 421/639/282 411/629/282
f  411/629/282 444/662/291 422/640/291
f  287/423/174 290/426/177 445/663/304
f  445/663/304 446/664/305 287/423/174
f  447/665/29 448/666/29 449/667/29
f  449/667/29 450/668/29 447/665/29
f  296/432/179 451/669/306 445/663/304
f  445/663/304 290/426/177 296/432/179
f  452/670/307 453/671/308 447/665/29
f  447/665/29 450/668/29 452/670/307
f  442/660/29 449/667/29 448/666/29
f  448/666/29 439/657/29 442/660/29
f  299/435/182 302/438/185 454/672/309
f  454/672/309 455/673/310 299/435/182
f  410/674/281 409/675/280 456/676/311
f  456/676/311 457/677/312 410/674/281
f  458/678/313 429/679/294 459/680/314
f  459/680/314 460/681/315 458/678/313
f  460/681/315 459/680/314 309/448/191
f  309/448/191 308/447/106 460/681/315
f  422/682/291 404/622/78 403/621/78
f  403/621/78 419/683/290 422/682/291
f  461/684/316 462/685/317 463/686/318
f  463/686/318 414/632/285 461/684/316
f  463/686/318 313/454/195 252/388/154
f  252/388/154 414/632/285 463/686/318
f  428/687/293 427/688/292 406/624/141
f  406/624/141 405/623/278 428/687/293
f  436/689/290 407/625/78 406/624/141
f  406/624/141 427/688/292 436/689/290
f  419/683/290 403/621/78 407/625/78
f  407/625/78 436/689/290 419/683/290
f  443/690/303 464/691/319 465/692/78
f  465/692/78 444/693/291 443/690/303
f  464/691/319 317/463/197 316/462/78
f  316/462/78 465/692/78 464/691/319
f  444/693/291 465/692/78 404/622/78
f  404/622/78 422/682/291 444/693/291
f  465/692/78 316/462/78 236/372/78
f  236/372/78 404/622/78 465/692/78
f  466/694/320 467/695/321 468/696/322
f  468/696/322 469/697/323 466/694/320
f  470/698/324 471/699/203 472/700/202
f  472/700/202 473/701/325 470/698/324
f  469/697/323 468/696/322 474/702/326
f  474/702/326 475/703/327 469/697/323
f  468/696/322 329/475/209 328/474/208
f  328/474/208 474/702/326 468/696/322
f  475/703/327 474/702/326 463/686/318
f  463/686/318 462/685/317 475/703/327
f  474/702/326 328/474/208 313/454/195
f  313/454/195 463/686/318 474/702/326
f  476/704/328 477/705/329 413/706/284
f  413/706/284 412/707/283 476/704/328
f  477/708/329 461/684/316 414/632/285
f  414/632/285 413/631/284 477/708/329
f  443/709/303 410/674/281 457/677/312
f  457/677/312 464/710/319 443/709/303
f  452/711/307 478/712/330 479/713/331
f  479/713/331 453/714/308 452/711/307
f  478/712/330 335/488/215 334/487/214
f  334/487/214 479/713/331 478/712/330
f  428/715/293 405/716/278 459/680/314
f  459/680/314 429/679/294 428/715/293
f  405/716/278 239/491/143 309/448/191
f  309/448/191 459/680/314 405/716/278
f  434/717/299 433/718/298 418/636/289
f  418/636/289 417/635/288 434/717/299
f  480/719/332 481/720/333 446/664/305
f  446/664/305 445/663/304 480/719/332
f  482/721/334 483/722/335 484/723/336
f  484/723/336 485/724/337 482/721/334
f  483/722/335 343/501/223 342/500/222
f  342/500/222 484/723/336 483/722/335
f  480/719/332 445/663/304 451/669/306
f  451/669/306 486/725/338 480/719/332
f  481/720/333 476/726/328 412/630/283
f  412/630/283 446/664/305 481/720/333
f  446/664/305 412/630/283 250/386/152
f  250/386/152 287/423/174 446/664/305
f  487/727/339 488/728/340 483/722/335
f  483/722/335 482/721/334 487/727/339
f  488/728/340 347/506/227 343/501/223
f  343/501/223 483/722/335 488/728/340
f  409/729/280 485/724/337 484/723/336
f  484/723/336 456/730/311 409/729/280
f  489/731/228 490/732/341 491/733/342
f  491/733/342 492/734/203 489/731/228
f  490/735/341 493/736/343 494/737/344
f  494/737/344 491/738/342 490/735/341
f  493/739/343 495/740/345 496/741/346
f  496/741/346 494/742/344 493/739/343
f  471/699/203 470/698/324 497/743/347
f  497/743/347 498/744/235 471/699/203
f  497/743/347 490/732/341 489/731/228
f  489/731/228 498/744/235 497/743/347
f  467/745/321 358/524/237 492/734/203
f  492/734/203 491/733/342 467/745/321
f  470/746/324 473/747/325 499/748/348
f  499/748/348 497/749/347 470/746/324
f  499/748/348 493/736/343 490/735/341
f  490/735/341 497/749/347 499/748/348
f  468/750/322 467/751/321 491/738/342
f  491/738/342 494/737/344 468/750/322
f  472/752/202 500/753/349 499/754/348
f  499/754/348 473/755/325 472/752/202
f  500/756/349 495/740/345 493/739/343
f  493/739/343 499/757/348 500/756/349
f  329/537/209 468/758/322 494/759/344
f  494/759/344 496/760/346 329/537/209
f  317/542/197 464/710/319 501/761/350
f  501/761/350 362/543/241 317/542/197
f  502/762/351 484/723/336 342/500/222
f  342/500/222 364/545/243 502/762/351
f  456/730/311 484/723/336 502/762/351
f  502/762/351 503/763/352 456/730/311
f  457/677/312 456/676/311 503/764/352
f  503/764/352 504/765/353 457/677/312
f  501/761/350 464/710/319 457/677/312
f  457/677/312 504/765/353 501/761/350
f  362/550/241 501/766/350 415/633/286
f  415/633/286 256/392/158 362/550/241
f  455/767/310 502/768/351 364/553/243
f  364/553/243 299/552/182 455/767/310
f  505/769/354 503/770/352 502/771/351
f  502/771/351 506/772/355 505/769/354
f  504/773/353 503/770/352 505/769/354
f  505/769/354 507/774/356 504/773/353
f  508/775/357 501/776/350 504/773/353
f  504/773/353 507/774/356 508/775/357
f  415/777/286 501/776/350 508/775/357
f  508/775/357 509/778/358 415/777/286
f  510/779/359 416/780/287 415/777/286
f  415/777/286 509/778/358 510/779/359
f  402/781/277 401/782/276 511/783/360
f  511/783/360 512/784/361 402/781/277
f  513/785/362 455/786/310 454/787/309
f  454/787/309 514/788/363 513/785/362
f  502/771/351 455/786/310 513/785/362
f  513/785/362 506/772/355 502/771/351
f  377/575/256 515/789/364 516/790/365
f  516/790/365 378/576/257 377/575/256
f  302/438/185 229/365/137 402/620/277
f  402/620/277 454/672/309 302/438/185
f  454/787/309 402/781/277 512/784/361
f  512/784/361 514/788/363 454/787/309
f  232/368/140 253/580/155 416/791/287
f  416/791/287 401/619/276 232/368/140
f  401/782/276 416/780/287 510/779/359
f  510/779/359 511/783/360 401/782/276
f  517/792/366 507/793/356 505/794/354
f  505/794/354 518/795/367 517/792/366
f  519/796/368 520/797/369 383/585/262
f  383/585/262 386/588/262 519/796/368
f  521/798/370 522/799/371 520/800/369
f  520/800/369 519/801/368 521/798/370
f  516/802/365 523/803/372 389/593/262
f  389/593/262 378/596/257 516/802/365
f  523/803/372 519/796/368 386/588/262
f  386/588/262 389/593/262 523/803/372
f  515/804/364 524/805/373 523/803/372
f  523/803/372 516/802/365 515/804/364
f  524/805/373 521/806/370 519/796/368
f  519/796/368 523/803/372 524/805/373
f  518/807/367 520/800/369 522/799/371
f  522/799/371 517/808/366 518/807/367
f  517/809/366 522/810/371 392/602/269
f  392/602/269 393/605/270 517/809/366
f  411/629/282 421/639/282 525/811/279
f  525/811/279 408/626/279 411/629/282
f  526/812/279 525/811/279 421/639/282
f  421/639/282 420/638/282 526/812/279
f  527/813/374 526/812/279 420/638/282
f  420/638/282 435/653/300 527/813/374
f  528/814/375 527/813/374 435/653/300
f  435/653/300 430/648/295 528/814/375
f  458/815/313 528/814/375 430/648/295
f  430/648/295 429/647/294 458/815/313
f  521/816/370 398/612/273 392/611/269
f  392/611/269 522/817/371 521/816/370
f  518/818/367 399/615/274 383/585/262
f  383/585/262 520/797/369 518/818/367
f  515/789/364 377/575/256 400/617/275
f  400/617/275 524/819/373 515/789/364
f  524/819/373 400/617/275 398/612/273
f  398/612/273 521/816/370 524/819/373
f  529/820/376 509/821/358 508/822/357
f  508/822/357 530/823/377 529/820/376
f  531/824/378 530/825/377 508/826/357
f  508/826/357 507/793/356 531/824/378
f  532/827/379 510/828/359 509/821/358
f  509/821/358 529/820/376 532/827/379
f  533/829/380 511/830/360 510/831/359
f  510/831/359 532/832/379 533/829/380
f  533/829/380 534/833/381 512/834/361
f  512/834/361 511/830/360 533/829/380
f  534/833/381 535/835/382 514/836/363
f  514/836/363 512/834/361 534/833/381
f  536/837/383 513/838/362 514/836/363
f  514/836/363 535/835/382 536/837/383
f  537/839/384 506/840/355 513/841/362
f  513/841/362 536/842/383 537/839/384
f  538/843/385 505/844/354 506/840/355
f  506/840/355 537/839/384 538/843/385
f  529/820/376 530/823/377 370/845/249
f  370/845/249 371/846/250 529/820/376
f  370/847/249 530/825/377 531/824/378
f  531/824/378 369/584/248 370/847/249
f  532/827/379 529/820/376 371/846/250
f  371/846/250 372/848/251 532/827/379
f  533/829/380 532/832/379 372/849/251
f  372/849/251 373/850/252 533/829/380
f  374/851/253 534/833/381 533/829/380
f  533/829/380 373/850/252 374/851/253
f  376/852/255 535/835/382 534/833/381
f  534/833/381 374/851/253 376/852/255
f  536/837/383 535/835/382 376/852/255
f  376/852/255 375/853/254 536/837/383
f  537/839/384 536/842/383 375/854/254
f  375/854/254 368/855/247 537/839/384
f  538/843/385 537/839/384 368/855/247
f  368/855/247 367/856/246 538/843/385
f  517/792/366 393/857/270 531/824/378
f  531/824/378 507/793/356 517/792/366
f  381/581/260 369/584/248 531/824/378
f  531/824/378 393/857/270 381/581/260
f  518/795/367 505/794/354 538/858/385
f  538/858/385 399/859/274 518/795/367
f  382/582/261 399/859/274 538/858/385
f  538/858/385 367/583/246 382/582/261
f  360/532/239 500/753/349 472/752/202
f  472/752/202 322/533/202 360/532/239
f  322/468/202 472/700/202 471/699/203
f  471/699/203 323/469/203 322/468/202
f  323/469/203 471/699/203 498/744/235
f  498/744/235 356/521/235 323/469/203
f  356/521/235 498/744/235 489/731/228
f  489/731/228 348/509/228 356/521/235
f  348/509/228 489/731/228 492/734/203
f  492/734/203 349/510/203 348/509/228
f  492/734/203 358/524/237 349/510/203
f  355/520/234 495/740/345 500/756/349
f  500/756/349 360/535/239 355/520/234
f  354/519/233 496/741/346 495/740/345
f  495/740/345 355/520/234 354/519/233
f  354/538/233 329/537/209 496/760/346
f  260/396/160 259/395/106 308/447/106
f  308/447/106 306/444/189 260/396/160
f  258/394/106 257/393/159 319/523/199
f  319/523/199 358/524/237 258/394/106
f  312/860/194 265/401/12 268/404/12
f  268/404/12 310/861/192 312/860/194
f  267/403/12 266/402/12 395/607/145
f  395/607/145 394/606/145 267/403/12
f  320/862/200 276/412/170 275/411/169
f  275/411/169 321/863/201 320/862/200
f  274/410/168 273/409/167 305/610/188
f  305/610/188 397/609/272 274/410/168
f  275/411/169 280/416/172 327/864/207
f  327/864/207 321/863/201 275/411/169
f  279/415/172 274/410/168 397/609/272
f  397/609/272 396/608/271 279/415/172
f  280/416/172 265/401/12 312/860/194
f  312/860/194 327/864/207 280/416/172
f  266/402/12 279/415/172 396/608/271
f  396/608/271 395/607/145 266/402/12
f  331/479/211 281/417/12 284/420/12
f  284/420/12 330/476/210 331/479/211
f  246/382/148 283/419/12 282/418/12
f  282/418/12 243/379/145 246/382/148
f  310/861/192 268/404/12 281/417/12
f  281/417/12 331/479/211 310/861/192
f  243/379/145 282/418/12 267/403/12
f  267/403/12 394/606/145 243/379/145
f  337/865/217 291/427/12 294/430/12
f  294/430/12 336/866/216 337/865/217
f  293/429/12 292/428/12 341/867/221
f  341/867/221 340/868/220 293/429/12
f  336/866/216 294/430/12 298/434/181
f  298/434/181 344/869/224 336/866/216
f  297/433/180 293/429/12 340/868/220
f  340/868/220 346/870/226 297/433/180
f  341/867/221 292/428/12 283/419/12
f  283/419/12 246/382/148 341/867/221
f  330/476/210 284/420/12 291/427/12
f  291/427/12 337/865/217 330/476/210
f  332/483/212 297/486/180 346/871/226
f  346/871/226 345/872/225 332/483/212
f  344/873/224 298/485/181 333/484/213
f  333/484/213 295/874/178 344/873/224
f  334/487/214 332/483/212 345/872/225
f  345/872/225 347/875/227 334/487/214
f  295/874/178 333/484/213 335/488/215
f  335/488/215 296/876/179 295/874/178
f  257/393/159 276/493/170 320/877/200
f  320/877/200 319/523/199 257/393/159
f  273/492/167 260/396/160 306/444/189
f  306/444/189 305/443/188 273/492/167
f  308/447/106 259/395/106 418/636/289
f  418/636/289 460/681/315 308/447/106
f  467/745/321 417/635/288 258/394/106
f  258/394/106 358/524/237 467/745/321
f  426/644/29 425/643/29 462/878/317
f  462/878/317 461/879/316 426/644/29
f  424/642/29 423/641/29 525/811/279
f  525/811/279 526/812/279 424/642/29
f  431/649/296 434/652/299 466/880/320
f  466/880/320 469/881/323 431/649/296
f  458/815/313 433/651/298 432/650/297
f  432/650/297 528/814/375 458/815/313
f  475/882/327 437/655/301 431/649/296
f  431/649/296 469/881/323 475/882/327
f  432/650/297 438/656/302 527/813/374
f  527/813/374 528/814/375 432/650/297
f  462/878/317 425/643/29 437/655/301
f  437/655/301 475/882/327 462/878/317
f  438/656/302 424/642/29 526/812/279
f  526/812/279 527/813/374 438/656/302
f  442/660/29 441/659/29 477/705/329
f  477/705/329 476/704/328 442/660/29
f  440/658/29 439/657/29 409/627/280
f  409/627/280 408/626/279 440/658/29
f  441/659/29 426/644/29 461/879/316
f  461/879/316 477/705/329 441/659/29
f  423/641/29 440/658/29 408/626/279
f  408/626/279 525/811/279 423/641/29
f  450/668/29 449/667/29 481/883/333
f  481/883/333 480/884/332 450/668/29
f  448/666/29 447/665/29 482/885/334
f  482/885/334 485/886/337 448/666/29
f  452/670/307 450/668/29 480/884/332
f  480/884/332 486/887/338 452/670/307
f  482/885/334 447/665/29 453/671/308
f  453/671/308 487/888/339 482/885/334
f  439/657/29 448/666/29 485/886/337
f  485/886/337 409/627/280 439/657/29
f  449/667/29 442/660/29 476/704/328
f  476/704/328 481/883/333 449/667/29
f  487/889/339 453/714/308 479/713/331
f  479/713/331 488/890/340 487/889/339
f  478/712/330 452/711/307 486/891/338
f  486/891/338 451/892/306 478/712/330
f  488/890/340 479/713/331 334/487/214
f  334/487/214 347/875/227 488/890/340
f  335/488/215 478/712/330 451/892/306
f  451/892/306 296/876/179 335/488/215
f  466/893/320 434/717/299 417/635/288
f  417/635/288 467/745/321 466/893/320
f  460/681/315 418/636/289 433/718/298
f  433/718/298 458/678/313 460/681/315
f  539/894/83 540/895/87 541/896/386
f  541/896/386 542/897/387 539/894/83
f  543/898/84 539/894/83 542/897/387
f  542/897/387 544/899/388 543/898/84
f  544/899/388 545/900/389 546/901/118
f  546/901/118 543/898/84 544/899/388
f  547/902/390 546/903/118 545/904/389
f  545/904/389 548/905/391 547/902/390
f  548/905/391 549/906/392 550/907/393
f  550/907/393 547/902/390 548/905/391
f  550/907/393 549/906/392 551/908/394
f  551/908/394 552/909/111 550/907/393
f  552/910/111 551/911/394 553/912/395
f  553/912/395 554/913/109 552/910/111
f  553/912/395 555/914/396 556/915/108
f  556/915/108 554/913/109 553/912/395
f  557/916/106 556/915/108 555/914/396
f  555/914/396 558/917/397 557/916/106
f  558/917/397 559/918/398 560/919/104
f  560/919/104 557/916/106 558/917/397
f  560/919/104 559/918/398 561/920/399
f  561/920/399 562/921/400 560/919/104
f  561/920/399 563/922/401 564/923/100
f  564/923/100 562/921/400 561/920/399
f  565/924/98 564/925/100 563/926/401
f  563/926/401 566/927/126 565/924/98
f  567/928/96 565/924/98 566/927/126
f  566/927/126 568/929/402 567/928/96
f  568/929/402 569/930/403 570/931/94
f  570/931/94 567/928/96 568/929/402
f  571/932/404 570/933/94 569/934/403
f  569/934/403 572/935/405 571/932/404
f  572/935/405 573/936/406 574/937/90
f  574/937/90 571/932/404 572/935/405
f  574/937/90 573/936/406 541/896/386
f  541/896/386 540/895/87 574/937/90
f  575/938/83 576/939/87 540/895/87
f  540/895/87 539/894/83 575/938/83
f  575/938/83 539/894/83 543/898/84
f  543/898/84 577/940/84 575/938/83
f  543/898/84 546/901/118 578/941/118
f  578/941/118 577/940/84 543/898/84
f  579/942/390 578/943/118 546/903/118
f  546/903/118 547/902/390 579/942/390
f  580/944/393 579/942/390 547/902/390
f  547/902/390 550/907/393 580/944/393
f  581/945/111 580/944/393 550/907/393
f  550/907/393 552/909/111 581/945/111
f  582/946/109 581/947/111 552/910/111
f  552/910/111 554/913/109 582/946/109
f  554/913/109 556/915/108 583/948/108
f  583/948/108 582/946/109 554/913/109
f  584/949/106 583/948/108 556/915/108
f  556/915/108 557/916/106 584/949/106
f  560/919/104 585/950/104 584/949/106
f  584/949/106 557/916/106 560/919/104
f  560/919/104 562/921/400 586/951/400
f  586/951/400 585/950/104 560/919/104
f  587/952/100 586/951/400 562/921/400
f  562/921/400 564/923/100 587/952/100
f  588/953/98 587/954/100 564/925/100
f  564/925/100 565/924/98 588/953/98
f  565/924/98 567/928/96 589/955/96
f  589/955/96 588/953/98 565/924/98
f  589/955/96 567/928/96 570/931/94
f  570/931/94 590/956/94 589/955/96
f  571/932/404 591/957/404 590/958/94
f  590/958/94 570/933/94 571/932/404
f  571/932/404 574/937/90 592/959/90
f  592/959/90 591/957/404 571/932/404
f  540/895/87 576/939/87 592/959/90
f  592/959/90 574/937/90 540/895/87
f  576/939/87 575/938/83 593/960/83
f  593/960/83 594/961/87 576/939/87
f  575/938/83 577/940/84 595/962/84
f  595/962/84 593/960/83 575/938/83
f  577/940/84 578/941/118 596/963/118
f  596/963/118 595/962/84 577/940/84
f  578/943/118 579/942/390 597/964/390
f  597/964/390 596/965/118 578/943/118
f  598/966/393 597/964/390 579/942/390
f  579/942/390 580/944/393 598/966/393
f  580/944/393 581/945/111 599/967/111
f  599/967/111 598/966/393 580/944/393
f  599/968/111 581/947/111 582/946/109
f  582/946/109 600/969/109 599/968/111
f  582/946/109 583/948/108 601/970/108
f  601/970/108 600/969/109 582/946/109
f  601/970/108 583/948/108 584/949/106
f  584/949/106 602/971/106 601/970/108
f  603/972/104 602/971/106 584/949/106
f  584/949/106 585/950/104 603/972/104
f  604/973/400 603/972/104 585/950/104
f  585/950/104 586/951/400 604/973/400
f  587/952/100 605/974/100 604/973/400
f  604/973/400 586/951/400 587/952/100
f  605/975/100 587/954/100 588/953/98
f  588/953/98 606/976/98 605/975/100
f  589/955/96 607/977/96 606/976/98
f  606/976/98 588/953/98 589/955/96
f  607/977/96 589/955/96 590/956/94
f  590/956/94 608/978/94 607/977/96
f  591/957/404 609/979/404 608/980/94
f  608/980/94 590/958/94 591/957/404
f  610/981/90 609/979/404 591/957/404
f  591/957/404 592/959/90 610/981/90
f  594/961/87 610/981/90 592/959/90
f  592/959/90 576/939/87 594/961/87
f  611/982/407 594/961/87 593/960/83
f  593/960/83 612/983/408 611/982/407
f  593/960/83 595/962/84 613/984/409
f  613/984/409 612/983/408 593/960/83
f  614/985/410 613/984/409 595/962/84
f  595/962/84 596/963/118 614/985/410
f  597/964/390 615/986/411 614/987/410
f  614/987/410 596/965/118 597/964/390
f  616/988/412 615/986/411 597/964/390
f  597/964/390 598/966/393 616/988/412
f  616/988/412 598/966/393 599/967/111
f  599/967/111 617/989/413 616/988/412
f  617/990/413 599/968/111 600/969/109
f  600/969/109 618/991/414 617/990/413
f  601/970/108 619/992/415 618/991/414
f  618/991/414 600/969/109 601/970/108
f  620/993/416 619/992/415 601/970/108
f  601/970/108 602/971/106 620/993/416
f  620/993/416 602/971/106 603/972/104
f  603/972/104 621/994/417 620/993/416
f  622/995/418 621/994/417 603/972/104
f  603/972/104 604/973/400 622/995/418
f  623/996/419 622/995/418 604/973/400
f  604/973/400 605/974/100 623/996/419
f  605/975/100 606/976/98 624/997/420
f  624/997/420 623/998/419 605/975/100
f  607/977/96 625/999/421 624/997/420
f  624/997/420 606/976/98 607/977/96
f  626/1000/422 625/999/421 607/977/96
f  607/977/96 608/978/94 626/1000/422
f  609/979/404 627/1001/423 626/1002/422
f  626/1002/422 608/980/94 609/979/404
f  609/979/404 610/981/90 628/1003/424
f  628/1003/424 627/1001/423 609/979/404
f  610/981/90 594/961/87 611/982/407
f  611/982/407 628/1003/424 610/981/90
f  629/1004/425 611/982/407 612/983/408
f  612/983/408 630/1005/426 629/1004/425
f  612/983/408 613/984/409 631/1006/427
f  631/1006/427 630/1005/426 612/983/408
f  614/985/410 632/1007/428 631/1006/427
f  631/1006/427 613/984/409 614/985/410
f  632/1008/428 614/987/410 615/986/411
f  615/986/411 633/1009/429 632/1008/428
f  633/1009/429 615/986/411 616/988/412
f  616/988/412 634/1010/430 633/1009/429
f  634/1010/430 616/988/412 617/989/413
f  617/989/413 635/1011/431 634/1010/430
f  617/990/413 618/991/414 636/1012/432
f  636/1012/432 635/1013/431 617/990/413
f  636/1012/432 618/991/414 619/992/415
f  619/992/415 637/1014/433 636/1012/432
f  620/993/416 638/1015/434 637/1014/433
f  637/1014/433 619/992/415 620/993/416
f  620/993/416 621/994/417 639/1016/435
f  639/1016/435 638/1015/434 620/993/416
f  640/1017/436 639/1016/435 621/994/417
f  621/994/417 622/995/418 640/1017/436
f  640/1017/436 622/995/418 623/996/419
f  623/996/419 641/1018/437 640/1017/436
f  641/1019/437 623/998/419 624/997/420
f  624/997/420 642/1020/438 641/1019/437
f  642/1020/438 624/997/420 625/999/421
f  625/999/421 643/1021/439 642/1020/438
f  644/1022/440 643/1021/439 625/999/421
f  625/999/421 626/1000/422 644/1022/440
f  644/1023/440 626/1002/422 627/1001/423
f  627/1001/423 645/1024/441 644/1023/440
f  646/1025/442 645/1024/441 627/1001/423
f  627/1001/423 628/1003/424 646/1025/442
f  628/1003/424 611/982/407 629/1004/425
f  629/1004/425 646/1025/442 628/1003/424
f  647/1026/78 542/1027/387 541/1028/386
f  647/1026/78 544/1029/388 542/1027/387
f  647/1026/78 545/1030/389 544/1029/388
f  647/1026/78 548/1031/391 545/1030/389
f  647/1026/78 549/1032/392 548/1031/391
f  647/1026/78 551/1033/394 549/1032/392
f  647/1026/78 553/1034/395 551/1033/394
f  647/1026/78 555/1035/396 553/1034/395
f  647/1026/78 558/1036/397 555/1035/396
f  647/1026/78 559/1037/398 558/1036/397
f  647/1026/78 561/1038/399 559/1037/398
f  647/1026/78 563/1039/401 561/1038/399
f  647/1026/78 566/1040/126 563/1039/401
f  647/1026/78 568/1041/402 566/1040/126
f  647/1026/78 569/1042/403 568/1041/402
f  647/1026/78 572/1043/405 569/1042/403
f  647/1026/78 573/1044/406 572/1043/405
f  647/1026/78 541/1028/386 573/1044/406
f  648/1045/77 629/1046/425 630/1047/426
f  648/1045/77 630/1047/426 631/1048/427
f  648/1045/77 631/1048/427 632/1049/428
f  648/1045/77 632/1049/428 633/1050/429
f  648/1045/77 633/1050/429 634/1051/430
f  648/1045/77 634/1051/430 635/1052/431
f  648/1045/77 635/1052/431 636/1053/432
f  648/1045/77 636/1053/432 637/1054/433
f  648/1045/77 637/1054/433 638/1055/434
f  648/1045/77 638/1055/434 639/1056/435
f  648/1045/77 639/1056/435 640/1057/436
f  648/1045/77 640/1057/436 641/1058/437
f  648/1045/77 641/1058/437 642/1059/438
f  648/1045/77 642/1059/438 643/1060/439
f  648/1045/77 643/1060/439 644/1061/440
f  648/1045/77 644/1061/440 645/1062/441
f  648/1045/77 645/1062/441 646/1063/442
f  648/1045/77 646/1063/442 629/1046/425

