%YAML 1.1
%TAG !u! tag:unity3d.com,2011:
--- !u!114 &11400000
MonoBehaviour:
  m_ObjectHideFlags: 0
  m_CorrespondingSourceObject: {fileID: 0}
  m_PrefabInstance: {fileID: 0}
  m_PrefabAsset: {fileID: 0}
  m_GameObject: {fileID: 0}
  m_Enabled: 1
  m_EditorHideFlags: 0
  m_Script: {fileID: 11500000, guid: af276ec1490c21c489e28ae275abf6da, type: 3}
  m_Name: InventoryManager
  m_EditorClassIdentifier: 
  items:
  - {fileID: 11400000, guid: 2b24eb1213be831478a9c58c1d25fdec, type: 2}
  - {fileID: 11400000, guid: 108d341a8c1c42f488b300495bd205e7, type: 2}
  - {fileID: 11400000, guid: b83b7e00113e37e488ada6a9c0f65b0e, type: 2}
  - {fileID: 11400000, guid: 2f14eab7d77201440abe5229de3641b8, type: 2}
  - {fileID: 11400000, guid: 55db5d772dae4ad469c6251198a3f08d, type: 2}
  - {fileID: 11400000, guid: 3ba1e3f1b082583458eddc71517d1180, type: 2}
  - {fileID: 11400000, guid: d6b66ee18a927ae4bb95d87b3cec1167, type: 2}
  - {fileID: 11400000, guid: a5eafb5eeed0348408ef62369120a3fa, type: 2}
  - {fileID: 11400000, guid: c452f443911c86448ab1ae23f24801fc, type: 2}
  - {fileID: 11400000, guid: 52458210a595c0b4e9262f25dfeb3f1f, type: 2}
  - {fileID: 11400000, guid: fb0855d0a4519354ab611408d7a5de4a, type: 2}
  - {fileID: 11400000, guid: f773e69b35359a244b3053d8cc30434e, type: 2}
  - {fileID: 11400000, guid: 1b494d7f7ed9bc248a8f44b8f56145ce, type: 2}
  - {fileID: 0}
  - {fileID: 11400000, guid: 8ce3761ef13778a4591f5536a77b67cd, type: 2}
  - {fileID: 11400000, guid: ff2b627352b58764d97d3292a47ef742, type: 2}
  - {fileID: 11400000, guid: 18f8be8fba8bdbf47accfe42871344ee, type: 2}
  - {fileID: 11400000, guid: 7995d6db8c3f6e64c911f4bd2031f831, type: 2}
