%YAML 1.1
%TAG !u! tag:unity3d.com,2011:
--- !u!114 &11400000
MonoBehaviour:
  m_ObjectHideFlags: 0
  m_CorrespondingSourceObject: {fileID: 0}
  m_PrefabInstance: {fileID: 0}
  m_PrefabAsset: {fileID: 0}
  m_GameObject: {fileID: 0}
  m_Enabled: 1
  m_EditorHideFlags: 0
  m_Script: {fileID: 11500000, guid: 8490d8c69562ffe4bbc6c9d74c16bc54, type: 3}
  m_Name: SceneTransitionData
  m_EditorClassIdentifier: 
  loadUIOverlay: {fileID: 1245672013235608, guid: 7d9494c278fe7e6488a6d6e3c5f43ac4,
    type: 3}
  gameOverUIOverlay: {fileID: 1245672013235608, guid: 9eb96225e752b42418dbc0a3060bbbc8,
    type: 3}
