%YAML 1.1
%TAG !u! tag:unity3d.com,2011:
--- !u!114 &11400000
MonoBehaviour:
  m_ObjectHideFlags: 0
  m_CorrespondingSourceObject: {fileID: 0}
  m_PrefabInstance: {fileID: 0}
  m_PrefabAsset: {fileID: 0}
  m_GameObject: {fileID: 0}
  m_Enabled: 1
  m_EditorHideFlags: 0
  m_Script: {fileID: 11500000, guid: 343724a6bea0b3c4387ab29402af6714, type: 3}
  m_Name: MoveTowardsLight
  m_EditorClassIdentifier: 
  delay: 0
  overrideSender: 0
  senderTag:
    stringValue: 
  targetTag:
    stringValue: Light
  speed: 5
  doFXOnFinish: 1
  interacts:
  - {fileID: 11400000, guid: c7683917fb8ee004a87d15b3b95065c9, type: 2}
  - {fileID: 11400000, guid: 5e6c8d0682bc80648aaeaa756e443686, type: 2}
  - {fileID: 11400000, guid: c585be68c6a7c8447a582343dc18aec8, type: 2}
