%YAML 1.1
%TAG !u! tag:unity3d.com,2011:
--- !u!114 &11400000
MonoBehaviour:
  m_ObjectHideFlags: 0
  m_CorrespondingSourceObject: {fileID: 0}
  m_PrefabInstance: {fileID: 0}
  m_PrefabAsset: {fileID: 0}
  m_GameObject: {fileID: 0}
  m_Enabled: 1
  m_EditorHideFlags: 0
  m_Script: {fileID: 11500000, guid: fb5f02594f083224580f0cf002ff48bd, type: 3}
  m_Name: New State Trigger Input
  m_EditorClassIdentifier: 
  guid: 6db2ac17b1aa81143a5ea67ccb9f94be
  input:
    stringValue: Fire1
    indexValue: 2
