%YAML 1.1
%TAG !u! tag:unity3d.com,2011:
--- !u!114 &11400000
MonoBehaviour:
  m_ObjectHideFlags: 0
  m_CorrespondingSourceObject: {fileID: 0}
  m_PrefabInstance: {fileID: 0}
  m_PrefabAsset: {fileID: 0}
  m_GameObject: {fileID: 0}
  m_Enabled: 1
  m_EditorHideFlags: 0
  m_Script: {fileID: 11500000, guid: 753c78b41806f0c4787aad4aaca7dc4a, type: 3}
  m_Name: PickupThrowable
  m_EditorClassIdentifier: 
  delay: 0
  pickupSender: 0
  itemToPickUp: {fileID: 0}
  setItemSlot: 0
  slot: -1
  cancelIfFull: 0
  destroySenderAfterPickup: 1
  destroyDelay: 0
