# 3ds Max Wavefront OBJ Exporter v0.97b - (c)2007 guruware
# File Created: 13.11.2019 17:07:38

mtllib blue book.mtl

#
# object blue_book
#

v  9.5518 63.4535 -29.5299
v  -9.5519 63.4535 -29.5299
v  -9.5519 63.4535 -26.8864
v  9.5518 63.4535 -26.8864
v  9.5518 0.4358 -29.8499
v  -9.5519 0.4358 -29.8498
v  -9.5519 63.0177 -29.8499
v  9.5518 63.0177 -29.8499
v  -14.5000 0.4358 -29.5298
v  -14.5000 0.4358 -26.5663
v  -14.5000 63.0177 -26.5664
v  -14.5000 63.0177 -29.5299
v  14.5000 0.4358 29.5298
v  14.4999 0.4358 -26.5664
v  14.4999 63.0177 -26.5664
v  14.5000 63.0177 29.5298
v  -10.4115 0.0000 29.5299
v  -13.6402 0.0000 29.5299
v  -13.6403 -0.0000 -26.5663
v  -10.4116 -0.0000 -26.5663
v  9.5518 -0.0000 -29.5299
v  13.6402 -0.0000 -29.5299
v  13.6402 -0.0000 -26.5664
v  10.4115 -0.0000 -26.5664
v  9.5518 -0.0000 -26.8864
v  -13.6403 63.4535 -29.5299
v  -13.6403 63.4535 -26.5664
v  -10.4116 63.4535 -26.5664
v  10.4116 63.4535 29.5298
v  13.6403 63.4535 29.5298
v  13.6402 63.4535 -26.5664
v  10.4115 63.4535 -26.5664
v  -13.6403 0.4358 -29.8498
v  -13.6403 63.0177 -29.8499
v  13.6402 63.0177 -29.8499
v  13.6402 0.4358 -29.8499
v  10.4116 0.4358 29.8498
v  13.6403 0.4358 29.8498
v  13.6403 63.0177 29.8498
v  10.4116 63.0177 29.8498
v  -10.4115 63.0177 29.8498
v  -13.6402 63.0177 29.8498
v  -13.6402 0.4358 29.8499
v  -10.4115 0.4358 29.8499
v  -9.5519 -0.0000 -26.8864
v  -9.5519 -0.0000 -29.5298
v  -14.4999 0.4358 29.5299
v  -14.4999 63.0177 29.5298
v  14.4999 0.4358 -29.5299
v  14.4999 63.0177 -29.5299
v  -13.6403 -0.0000 -29.5298
v  13.6403 0.0000 29.5298
v  10.4116 0.0000 29.5298
v  -13.6402 63.4535 29.5298
v  -10.4115 63.4535 29.5298
v  13.6402 63.4535 -29.5299
v  -8.6046 63.1760 -26.3196
v  -8.1227 61.5754 -24.8966
v  8.1226 61.5754 -24.8966
v  8.6045 63.1760 -26.3197
v  -9.4222 0.4308 -25.6842
v  -9.0326 1.7248 -24.5337
v  -8.9860 1.8794 28.1789
v  -9.4687 0.2762 29.6043
v  9.5518 -0.0000 -26.5664
v  8.9860 1.8794 -24.8954
v  9.4687 0.2762 -26.3208
v  -9.4687 63.1773 -26.3208
v  -8.9861 61.5741 -24.8954
v  -9.5519 63.4535 -26.5664
v  9.4687 63.1773 -26.3208
v  8.9860 61.5741 -24.8954
v  8.9861 61.5741 28.1788
v  9.4688 63.1773 29.6042
v  8.9861 1.8794 28.1789
v  9.4688 0.2762 29.6043
v  -8.9860 61.5741 28.1789
v  -9.4687 63.1773 29.6043
v  -8.9861 1.8794 -24.8954
v  -9.4687 0.2762 -26.3208
v  -9.5519 -0.0000 -26.5664
v  9.0325 1.7248 -24.5337
v  9.4221 0.4308 -25.6843
v  9.5518 63.4535 -26.5664
v  -8.0431 60.8621 27.9333
v  -8.0431 2.5914 27.9333
v  8.0432 2.5914 27.9333
v  8.0432 60.8621 27.9333
v  8.0431 61.2979 -24.3298
v  -8.0432 61.2979 -24.3298
v  -8.0431 61.2979 27.6133
v  8.0432 61.2979 27.6133
v  -8.0432 2.1556 -24.3298
v  8.0431 2.1556 -24.3298
v  8.0432 2.1556 27.6133
v  -8.0431 2.1556 27.6133
v  14.4044 0.3013 -29.6879
v  14.4044 0.4358 -29.7076
v  -14.0649 0.3013 -29.8143
v  -14.1179 0.4358 -29.8143
v  14.0649 0.3013 29.8143
v  14.1179 0.4358 29.8143
v  -14.4044 0.3013 29.6879
v  -14.4044 0.4358 29.7076
v  14.0648 63.1522 -29.8143
v  14.1178 63.0177 -29.8143
v  -14.4045 63.1522 -29.6879
v  -14.4045 63.0177 -29.7076
v  14.4045 63.1522 29.6878
v  14.4045 63.0177 29.7076
v  -14.0648 63.1522 29.8143
v  -14.1178 63.0177 29.8143
v  8.1480 2.2218 27.7472
v  8.0432 2.3009 27.7199
v  -8.1479 2.4155 27.8895
v  -8.0431 2.4461 27.8266
v  -8.2526 61.0687 27.9523
v  -8.3574 61.0994 28.0151
v  8.6718 61.3852 28.0614
v  8.6718 61.3368 28.0970
v  -8.8076 1.8377 -24.5286
v  -8.7028 1.8684 -24.4657
v  8.3678 2.0292 -24.4380
v  8.3729 2.0120 -24.3978
v  -8.2616 61.3901 -24.5185
v  -8.3575 61.3899 -24.5183
v  8.6805 61.5128 -24.7699
v  8.6717 61.4820 -24.7069
v  10.3069 0.3212 29.7514
v  10.4116 0.2905 29.7432
v  -10.3068 63.1323 29.7514
v  -10.4115 63.1630 29.7432
v  -10.3068 0.1275 29.6092
v  -10.4115 0.1453 29.6365
v  10.3069 63.3260 29.6092
v  10.4116 63.3082 29.6365
v  -9.3414 63.3918 -26.7249
v  -9.2361 63.3610 -26.6975
v  9.4466 63.4226 -26.7523
v  9.5518 63.4535 -26.7797
v  -10.0962 0.0957 -26.3703
v  -10.0818 0.1436 -26.2723
v  10.1106 0.0479 -26.4684
v  10.1250 -0.0000 -26.5664
v  14.1178 0.0484 -29.5299
v  14.1178 0.0484 -26.5664
v  13.6403 0.0484 29.7076
v  10.4116 0.1453 29.6365
v  -14.1178 0.0484 29.5299
v  -14.1179 0.0484 -26.5663
v  -13.6403 0.0484 -29.7076
v  -9.5519 0.0484 -29.7076
v  13.6402 63.4050 -29.7077
v  9.5518 63.4050 -29.7077
v  -14.1179 63.4050 -29.5299
v  -14.1179 63.4050 -26.5664
v  -13.6402 63.4051 29.7076
v  -10.4115 63.3082 29.6365
v  14.1179 63.4051 29.5298
v  14.1179 63.4050 -26.5664
v  -14.1179 63.0177 -29.8143
v  14.1178 0.4358 -29.8143
v  -14.4044 63.0177 29.7076
v  14.1179 63.0177 29.8142
v  -13.6402 0.0484 29.7076
v  9.5518 0.0484 -29.7076
v  13.6402 0.0484 -29.7076
v  -9.5519 63.4050 -29.7076
v  -13.6403 63.4050 -29.7076
v  13.6403 63.4051 29.7076
v  -8.6717 1.9715 27.9904
v  8.6718 61.4820 27.9903
v  8.6718 2.1168 28.0970
v  -8.6717 2.1168 28.0970
v  -8.6717 61.3368 28.0970
v  14.1179 0.0484 29.5298
v  -14.1179 0.0484 -29.5298
v  -14.1178 63.4051 29.5298
v  14.1178 63.4050 -29.5299
v  8.6718 1.9715 27.9903
v  8.7027 1.8684 -24.4658
v  -8.6717 61.4820 27.9903
v  -8.6718 61.4820 -24.7069
v  8.6717 1.9715 -24.7069
v  -8.6718 1.9715 -24.7068
v  -8.0962 61.4829 -24.7076
v  8.0961 61.4829 -24.7077
v  -8.9204 63.2685 -26.4019
v  -8.4105 61.5749 -24.8962
v  8.4104 61.5749 -24.8962
v  8.9203 63.2685 -26.4019
v  -9.4654 0.2872 -25.9783
v  -9.0171 1.7764 -24.6543
v  9.5086 0.1436 -26.2723
v  9.0015 1.8279 -24.7748
v  9.2361 63.3610 -26.6975
v  -10.0972 0.0921 29.5547
v  9.5426 0.0307 -26.6813
v  -9.9248 63.4228 -26.5391
v  -9.5519 63.4535 -26.7797
v  9.9247 63.4228 -26.5391
v  10.0973 63.3614 29.5546
v  10.0973 63.0709 29.7679
v  10.0973 0.3826 29.7680
v  -10.0972 0.3826 29.7680
v  -10.0972 63.0709 29.7680
v  -9.5427 0.0307 -26.6813
v  -10.1250 -0.0000 -26.5663
v  10.0973 0.0921 29.5546
v  10.0817 0.1436 -26.2723
v  -10.0972 63.3614 29.5546
v  8.0432 2.4461 27.8266
v  8.0432 61.0074 27.8266
v  -8.0431 61.0074 27.8266
v  14.4044 0.1937 -29.5299
v  14.4044 0.2206 -29.6286
v  14.1178 0.0914 -29.6879
v  14.1178 0.2206 -29.7827
v  13.6402 0.1937 -29.8143
v  -13.6403 0.1937 -29.8143
v  -13.9057 0.2206 -29.8143
v  -14.0649 0.0914 -29.7076
v  -14.3196 0.2206 -29.7076
v  -14.4045 0.1937 -29.5298
v  -14.4045 0.4358 -29.7076
v  13.6403 0.1937 29.8143
v  13.9057 0.2206 29.8143
v  14.0649 0.0915 29.7076
v  14.3196 0.2206 29.7076
v  14.4045 0.1937 29.5298
v  14.4045 0.4358 29.7076
v  -14.4044 0.1937 29.5299
v  -14.4044 0.2206 29.6286
v  -14.1178 0.0915 29.6879
v  -14.1178 0.2206 29.7827
v  -13.6402 0.1937 29.8143
v  -14.1178 0.4358 29.8143
v  13.6402 63.2598 -29.8143
v  13.9056 63.2329 -29.8143
v  14.0648 63.3620 -29.7077
v  14.3195 63.2329 -29.7077
v  14.4044 63.2598 -29.5299
v  14.4044 63.0177 -29.7077
v  -14.4045 63.2598 -29.5299
v  -14.4045 63.2329 -29.6286
v  -14.1179 63.3620 -29.6879
v  -14.1179 63.2329 -29.7827
v  -13.6403 63.2598 -29.8143
v  14.4045 63.2598 29.5298
v  14.4045 63.2329 29.6286
v  14.1179 63.3620 29.6878
v  14.1179 63.2329 29.7826
v  13.6403 63.2598 29.8142
v  -13.6402 63.2598 29.8143
v  -13.9056 63.2329 29.8143
v  -14.0648 63.3620 29.7076
v  -14.3195 63.2329 29.7076
v  -14.4044 63.2598 29.5298
v  8.3575 2.0636 27.8018
v  8.2527 2.1427 27.7745
v  8.4623 2.1297 27.9358
v  8.2527 2.2879 27.8812
v  8.3575 2.3541 28.0151
v  -8.3574 2.3541 28.0152
v  -8.2526 2.3848 27.9523
v  -8.4622 2.1781 27.9713
v  -8.2526 2.2395 27.8457
v  -8.3574 2.0636 27.8018
v  -8.0431 2.3009 27.7200
v  -8.1479 61.0381 27.8895
v  -8.0431 61.1526 27.7199
v  -8.2526 61.2140 27.8456
v  -8.3574 61.3899 27.8018
v  -8.4622 61.2754 27.9713
v  8.6718 61.4336 28.0259
v  8.3575 61.3899 27.8018
v  8.3575 61.2931 27.8729
v  8.0432 61.1526 27.7199
v  8.3575 61.1963 27.9440
v  8.3575 61.0994 28.0151
v  -8.9123 1.8070 -24.5914
v  -9.0016 1.8279 -24.7748
v  -8.7921 1.8893 -24.6491
v  -8.5825 1.9506 -24.5235
v  -8.3575 2.0635 -24.5183
v  -8.3730 2.0120 -24.3978
v  8.3574 2.0635 -24.5183
v  8.3626 2.0464 -24.4782
v  8.6820 1.9371 -24.6265
v  8.6924 1.9028 -24.5461
v  9.0170 1.7764 -24.6543
v  -8.0697 61.3904 -24.5187
v  -8.1656 61.3902 -24.5186
v  -8.2880 61.4826 -24.7074
v  -8.4799 61.4823 -24.7071
v  -8.6983 61.5745 -24.8958
v  8.6982 61.5745 -24.8958
v  8.6894 61.5437 -24.8328
v  8.3928 61.5133 -24.7703
v  8.3751 61.4516 -24.6443
v  8.0696 61.3904 -24.5188
v  8.3574 61.3899 -24.5184
v  10.2021 0.3519 29.7597
v  9.7830 0.3294 29.6861
v  9.9926 0.2680 29.6696
v  9.7830 0.1841 29.5795
v  10.2021 0.2066 29.6530
v  -10.2020 63.1016 29.7597
v  -9.7829 63.1241 29.6861
v  -9.9925 63.1855 29.6696
v  -9.7830 63.2693 29.5795
v  -10.2020 63.2468 29.6530
v  -10.2020 0.1098 29.5820
v  -9.7830 0.1841 29.5795
v  -9.9925 0.2196 29.6341
v  -9.7830 0.3294 29.6861
v  -10.2020 0.2551 29.6886
v  -10.4115 0.2905 29.7432
v  10.2021 63.3437 29.5819
v  9.7830 63.2693 29.5794
v  9.9926 63.2339 29.6340
v  9.7830 63.1241 29.6861
v  10.2021 63.1984 29.6886
v  10.4116 63.1630 29.7431
v  -9.4466 63.4226 -26.7523
v  -9.5519 63.4535 -26.6730
v  -9.3414 63.3918 -26.6182
v  -9.2361 63.3610 -26.4841
v  -9.1309 63.3301 -26.5634
v  -8.9204 63.2685 -26.5086
v  9.3413 63.3918 -26.7249
v  8.9203 63.2685 -26.5086
v  9.1308 63.3301 -26.5634
v  9.3413 63.3918 -26.6182
v  9.2361 63.3610 -26.4842
v  9.5518 63.4535 -26.6731
v  -10.1106 0.0479 -26.4683
v  -9.8385 -0.0000 -26.5664
v  -9.8097 0.0957 -26.3703
v  -9.5087 0.1436 -26.2723
v  -9.7808 0.1915 -26.1743
v  -9.7520 0.2872 -25.9783
v  10.0961 0.0957 -26.3704
v  9.7519 0.2872 -25.9783
v  9.7808 0.1914 -26.1743
v  9.4654 0.2872 -25.9783
v  9.8096 0.0957 -26.3704
v  9.8384 -0.0000 -26.5664
v  14.4044 0.1937 -26.5664
v  -14.4045 0.1937 -26.5663
v  -9.5519 0.1937 -29.8143
v  9.5518 63.2598 -29.8143
v  -14.4045 63.2598 -26.5664
v  14.4044 63.2598 -26.5664
v  9.5518 0.1937 -29.8143
v  -9.5519 63.2598 -29.8143
v  9.5149 0.1227 -26.4928
v  -9.6105 63.3307 -26.4572
v  9.6104 63.3307 -26.4573
v  -9.5149 0.1227 -26.4928
# 360 vertices

vn -0.0000 0.9951 -0.0985
vn 0.0499 0.9972 0.0564
vn -0.0499 0.9972 0.0564
vn -0.0000 -0.0985 -0.9951
vn -0.0000 0.0985 -0.9951
vn -0.9905 -0.0975 -0.0975
vn -0.9951 -0.0985 0.0000
vn -0.9951 0.0985 0.0000
vn -0.9935 0.0802 -0.0802
vn 0.9905 -0.0975 0.0975
vn 0.9951 -0.0985 -0.0000
vn 0.9951 0.0985 -0.0000
vn 0.9935 0.0802 0.0802
vn 0.2125 -0.9152 0.3425
vn -0.0975 -0.9905 0.0975
vn -0.0985 -0.9951 0.0000
vn 0.0525 -0.9965 0.0647
vn -0.0000 -0.9951 -0.0985
vn 0.0975 -0.9905 -0.0975
vn 0.0985 -0.9951 0.0000
vn -0.0525 -0.9965 0.0647
vn -0.0138 -0.9991 0.0408
vn -0.0975 0.9904 -0.0975
vn -0.0985 0.9951 -0.0000
vn 0.0440 0.9989 0.0160
vn -0.2126 0.9152 0.3424
vn 0.0975 0.9905 0.0975
vn 0.0985 0.9951 -0.0000
vn -0.0440 0.9989 0.0160
vn -0.0802 -0.0802 -0.9935
vn -0.0975 0.0975 -0.9905
vn 0.0802 0.0802 -0.9935
vn 0.0975 -0.0975 -0.9905
vn -0.2434 -0.3321 0.9113
vn 0.0802 -0.0802 0.9935
vn 0.0975 0.0975 0.9905
vn -0.2434 0.3321 0.9113
vn 0.2434 0.3321 0.9113
vn -0.0802 0.0802 0.9935
vn -0.0975 -0.0975 0.9905
vn 0.2434 -0.3321 0.9113
vn 0.0138 -0.9991 0.0408
vn -0.9935 -0.0802 0.0802
vn -0.9905 0.0975 0.0975
vn 0.9935 -0.0802 -0.0802
vn 0.9905 0.0975 -0.0975
vn -0.0975 -0.9905 -0.0975
vn 0.0975 -0.9905 0.0975
vn -0.2125 -0.9152 0.3425
vn -0.0975 0.9905 0.0975
vn 0.2126 0.9152 0.3424
vn 0.0975 0.9904 -0.0975
vn 0.0325 0.8577 0.5132
vn -0.0004 0.8688 0.4952
vn 0.0004 0.8688 0.4952
vn -0.0325 0.8577 0.5132
vn 0.8775 -0.4793 0.0179
vn 0.8986 -0.4356 -0.0529
vn 0.9652 -0.1898 0.1797
vn 0.7571 -0.4769 0.4465
vn -0.5022 -0.4288 -0.7509
vn -0.6205 -0.7290 0.2890
vn 0.7596 -0.4833 0.4352
vn -0.1253 0.8981 0.4216
vn 0.6174 0.7186 0.3199
vn -0.5462 0.8162 0.1886
vn 0.2387 0.9293 0.2820
vn -0.6174 0.7186 0.3199
vn -0.9653 0.1898 0.1796
vn -0.7571 0.4766 0.4469
vn -0.9652 -0.1898 0.1797
vn -0.7571 -0.4769 0.4465
vn 0.9653 0.1898 0.1796
vn 0.7571 0.4766 0.4469
vn 0.6205 -0.7290 0.2890
vn -0.7834 -0.4615 0.4163
vn 0.5022 -0.4288 -0.7509
vn -0.8986 -0.4356 -0.0529
vn -0.8775 -0.4793 0.0179
vn 0.5462 0.8162 0.1886
vn 0.4158 0.2683 0.8690
vn 0.4158 -0.2683 0.8690
vn -0.4158 -0.2683 0.8690
vn -0.4158 0.2683 0.8690
vn -0.2133 0.9696 0.1202
vn 0.2133 0.9696 0.1202
vn 0.3778 0.8881 0.2618
vn -0.3778 0.8881 0.2618
vn 0.2936 -0.9501 0.1056
vn -0.2936 -0.9501 0.1056
vn -0.3777 -0.8881 0.2618
vn 0.3777 -0.8881 0.2618
vn 0.8671 -0.2316 -0.4409
vn 0.8732 -0.0493 -0.4848
vn -0.4410 -0.2316 -0.8671
vn -0.4848 -0.0493 -0.8732
vn 0.4410 -0.2316 0.8671
vn 0.4848 -0.0493 0.8732
vn -0.8671 -0.2316 0.4409
vn -0.8732 -0.0493 0.4848
vn 0.4409 0.2316 -0.8671
vn 0.4848 0.0493 -0.8732
vn -0.8671 0.2316 -0.4409
vn -0.8732 0.0493 -0.4848
vn 0.8671 0.2316 0.4409
vn 0.8732 0.0493 0.4848
vn -0.4409 0.2316 0.8671
vn -0.4848 0.0493 0.8732
vn -0.8400 -0.3837 0.3837
vn -0.4782 -0.6210 0.6210
vn 0.8400 -0.3837 0.3837
vn 0.4782 -0.6210 0.6210
vn 0.8400 0.3837 0.3837
vn 0.7457 0.2024 0.6347
vn -0.8400 0.3837 0.3837
vn -0.7457 0.2024 0.6347
vn 0.6971 -0.6929 -0.1841
vn 0.6777 -0.7296 -0.0920
vn -0.6971 -0.6929 -0.1841
vn -0.6777 -0.7295 -0.0923
vn -0.0016 0.9410 0.3384
vn 0.2619 0.9486 0.1777
vn 0.0016 0.9410 0.3384
vn -0.2619 0.9486 0.1777
vn -0.2504 -0.6846 0.6846
vn -0.1675 -0.6971 0.6971
vn 0.2504 0.6846 0.6846
vn 0.1675 0.6971 0.6971
vn 0.2504 -0.6846 0.6846
vn 0.1675 -0.6971 0.6971
vn -0.2504 0.6846 0.6846
vn -0.1675 0.6971 0.6971
vn 0.5004 0.8658 -0.0000
vn 0.2626 0.9484 0.1776
vn -0.5004 0.8658 0.0000
vn -0.1805 0.9836 -0.0000
vn 0.0000 -0.9413 0.3376
vn 0.3523 -0.9180 0.1821
vn 0.0000 -0.9972 0.0753
vn 0.4631 -0.8821 -0.0865
vn 0.4719 -0.8817 -0.0000
vn 0.0469 -0.8834 0.4662
vn -0.4631 -0.8821 0.0865
vn -0.4719 -0.8817 0.0000
vn -0.0865 -0.8821 -0.4631
vn -0.0000 -0.8817 -0.4719
vn 0.0865 0.8821 -0.4631
vn -0.0000 0.8817 -0.4719
vn -0.4631 0.8821 -0.0865
vn -0.4719 0.8817 0.0000
vn -0.0469 0.8834 0.4662
vn 0.4631 0.8821 0.0865
vn 0.4719 0.8817 -0.0000
vn -0.4631 0.0865 -0.8821
vn 0.4631 -0.0865 -0.8821
vn -0.8821 0.0865 0.4631
vn 0.4631 0.0865 0.8821
vn -0.0615 -0.8784 0.4739
vn 0.1010 -0.8766 -0.4705
vn -0.1011 0.8766 -0.4705
vn 0.0615 0.8784 0.4740
vn 0.7164 -0.6667 0.2055
vn -0.7160 0.6674 0.2049
vn -0.7457 -0.2024 0.6348
vn 0.7457 -0.2024 0.6347
vn 0.4705 -0.8766 0.1010
vn -0.4705 -0.8766 -0.1010
vn -0.4705 0.8766 0.1010
vn 0.4705 0.8766 -0.1010
vn -0.7164 -0.6667 0.2055
vn -0.6777 -0.7296 -0.0920
vn 0.7160 0.6674 0.2049
vn -0.3909 -0.9164 0.0861
vn 0.3909 -0.9164 0.0861
vn -0.0008 0.9410 0.3384
vn 0.0008 0.9410 0.3384
vn 0.2740 0.8963 0.3487
vn -0.0008 0.8689 0.4950
vn 0.0008 0.8689 0.4950
vn -0.2740 0.8963 0.3487
vn 0.6541 -0.7227 0.2234
vn 0.8900 -0.4455 -0.0972
vn -0.6541 -0.7227 0.2234
vn -0.8900 -0.4455 -0.0972
vn -0.2626 0.9484 0.1776
vn 0.4051 -0.8365 0.3691
vn -0.1012 -0.9738 0.2038
vn 0.2361 0.9642 0.1210
vn 0.1805 0.9836 -0.0000
vn -0.2361 0.9642 0.1210
vn -0.4048 0.8362 0.3699
vn -0.4462 0.3708 0.8145
vn -0.4462 -0.3708 0.8145
vn 0.4462 -0.3708 0.8145
vn 0.4462 0.3708 0.8145
vn 0.1012 -0.9738 0.2038
vn -0.4051 -0.8365 0.3691
vn -0.3523 -0.9180 0.1821
vn 0.4048 0.8362 0.3699
vn -0.4783 0.6210 0.6210
vn 0.4783 0.6210 0.6210
vn 0.8732 -0.4848 -0.0493
vn 0.8671 -0.4410 -0.2316
vn 0.4638 -0.7807 -0.4189
vn 0.4638 -0.4189 -0.7807
vn 0.1010 -0.4705 -0.8766
vn -0.0493 -0.4848 -0.8732
vn -0.2316 -0.4409 -0.8671
vn -0.4189 -0.7807 -0.4638
vn -0.7807 -0.4189 -0.4638
vn -0.8766 -0.4705 -0.1010
vn -0.8821 -0.0865 -0.4631
vn 0.0096 -0.4874 0.8731
vn 0.2316 -0.4409 0.8671
vn 0.4189 -0.7807 0.4638
vn 0.7807 -0.4189 0.4638
vn 0.8766 -0.4705 0.1010
vn 0.8821 -0.0865 0.4631
vn -0.8732 -0.4848 0.0493
vn -0.8671 -0.4410 0.2316
vn -0.4638 -0.7807 0.4189
vn -0.4638 -0.4189 0.7807
vn -0.0615 -0.4740 0.8784
vn -0.4631 -0.0865 0.8821
vn 0.0493 0.4848 -0.8732
vn 0.2316 0.4410 -0.8671
vn 0.4189 0.7807 -0.4638
vn 0.7807 0.4189 -0.4638
vn 0.8766 0.4705 -0.1010
vn 0.8821 0.0865 -0.4631
vn -0.8732 0.4848 -0.0493
vn -0.8671 0.4410 -0.2316
vn -0.4638 0.7807 -0.4189
vn -0.4638 0.4189 -0.7807
vn -0.1010 0.4705 -0.8766
vn 0.8732 0.4848 0.0493
vn 0.8671 0.4410 0.2316
vn 0.4638 0.7807 0.4189
vn 0.4638 0.4189 0.7807
vn 0.0615 0.4740 0.8784
vn -0.0096 0.4874 0.8731
vn -0.2316 0.4410 0.8671
vn -0.4189 0.7807 0.4638
vn -0.7807 0.4189 0.4638
vn -0.8766 0.4705 0.1010
vn -0.7162 -0.6671 0.2052
vn 0.7457 -0.2024 0.6348
vn 0.7162 -0.6671 0.2052
vn 0.4783 -0.6210 0.6210
vn -0.7457 0.2024 0.6348
vn 0.6777 -0.7295 -0.0923
vn -0.0007 0.9410 0.3384
vn -0.0015 0.9410 0.3384
vn -0.2505 -0.6846 0.6846
vn -0.4052 -0.8365 0.3688
vn 0.2505 0.6846 0.6846
vn 0.4052 -0.8365 0.3688
vn -0.3938 0.9192 0.0000
vn 0.2627 0.9484 0.1776
vn -0.2627 0.9484 0.1776
vn 0.3938 0.9192 -0.0000
vn -0.0000 -0.5772 -0.8166
vn 0.3527 -0.9179 0.1819
vn -0.3527 -0.9179 0.1819
vn -0.0000 -0.9413 0.3376
vn 0.8817 -0.4718 -0.0000
vn -0.8817 -0.4718 0.0000
vn -0.0000 -0.4718 -0.8817
vn -0.0000 0.4718 -0.8817
vn -0.8817 0.4719 0.0000
vn 0.8817 0.4719 -0.0000
vn -0.1806 -0.8748 0.4497
vn 0.5722 0.7911 0.2161
vn -0.5722 0.7911 0.2161
vn 0.1806 -0.8748 0.4497
# 275 vertex normals

vt 0.6866 0.4326 5.5778
vt 0.6605 0.3961 5.5778
vt 0.6740 0.3863 5.5778
vt 0.7002 0.4229 5.5778
vt 0.4478 0.6034 -5.5778
vt 0.4217 0.5668 5.5778
vt 0.6578 0.3979 5.5778
vt 0.6840 0.4345 5.5778
vt 0.4184 0.5459 5.5778
vt 0.3885 0.5376 5.5778
vt 0.6380 0.3595 5.5778
vt 0.6384 0.3888 5.5778
vt 0.6849 0.9464 5.5778
vt 0.4676 0.6418 5.5778
vt 0.7171 0.4638 5.5778
vt 0.9344 0.7683 5.5778
vt 0.1486 0.2489 5.5778
vt 0.1551 0.2443 5.5778
vt 0.3725 0.5488 5.5778
vt 0.3660 0.5535 5.5778
vt 0.4463 0.6088 5.5778
vt 0.4617 0.6128 5.5778
vt 0.4624 0.6420 5.5778
vt 0.4491 0.6417 5.5778
vt 0.4456 0.6380 5.5778
vt 0.6593 0.3925 5.5778
vt 0.6439 0.3886 5.5778
vt 0.6432 0.3593 5.5778
vt 0.6565 0.3596 5.5778
vt 0.6600 0.3633 5.5778
vt 0.9570 0.7524 5.5778
vt 0.9505 0.7571 5.5778
vt 0.7331 0.4525 5.5778
vt 0.7396 0.4478 5.5778
vt 0.4221 0.5513 5.5778
vt 0.6422 0.3940 5.5778
vt 0.6835 0.4500 5.5778
vt 0.4634 0.6073 5.5778
vt 0.6988 0.9660 -5.5778
vt 0.6942 0.9595 5.5778
vt 0.9437 0.7814 5.5778
vt 0.9483 0.7879 5.5778
vt 0.4067 0.0353 5.5778
vt 0.4114 0.0418 5.5778
vt 0.1619 0.2199 5.5778
vt 0.1572 0.2134 5.5778
vt 0.4055 0.5784 5.5778
vt 0.4190 0.5687 5.5778
vt 0.4452 0.6053 5.5778
vt 0.4316 0.6150 5.5778
vt 0.1711 0.2330 5.5778
vt 0.4206 0.0549 5.5778
vt 0.4672 0.6125 5.5778
vt 0.6873 0.4554 5.5778
vt 0.3870 0.5428 5.5778
vt 0.4165 0.5514 5.5778
vt 0.4162 0.5669 5.5778
vt 0.3869 0.5605 5.5778
vt 0.3841 0.5562 5.5778
vt 0.4516 0.6531 5.5778
vt 0.6689 0.9576 5.5778
vt 0.6624 0.9623 5.5778
vt 0.4450 0.6577 5.5778
vt 0.6541 0.3482 5.5778
vt 0.4367 0.0436 5.5778
vt 0.4432 0.0390 5.5778
vt 0.6606 0.3435 5.5778
vt 0.7186 0.4585 5.5778
vt 0.6891 0.4500 5.5778
vt 0.6894 0.4344 5.5778
vt 0.7188 0.4408 5.5778
vt 0.7215 0.4452 5.5778
vt 0.6784 0.3859 5.5778
vt 0.6887 0.3807 5.5778
vt 0.7103 0.4107 5.5778
vt 0.7020 0.4189 5.5778
vt 0.3390 0.5417 5.5778
vt 0.3218 0.5318 5.5778
vt 0.1305 0.2682 5.5778
vt 0.1313 0.2569 5.5778
vt 0.4269 0.6233 5.5778
vt 0.4182 0.6229 5.5778
vt 0.4294 0.6193 5.5778
vt 0.6602 0.3563 5.5778
vt 0.6600 0.3527 5.5778
vt 0.6605 0.3598 5.5778
vt 0.7623 0.4463 5.5778
vt 0.7741 0.4494 5.5778
vt 0.9758 0.7320 5.5778
vt 0.9749 0.7441 5.5778
vt 0.9612 0.7987 5.5778
vt 0.9604 0.8113 5.5778
vt 0.7168 0.9852 5.5778
vt 0.7046 0.9818 5.5778
vt 0.1443 0.2026 5.5778
vt 0.1451 0.1900 5.5778
vt 0.3887 0.0161 5.5778
vt 0.4010 0.0194 5.5778
vt 0.3936 0.5886 5.5778
vt 0.4024 0.5808 5.5778
vt 0.3399 0.5492 5.5778
vt 0.3219 0.5377 5.5778
vt 0.3582 0.5601 5.5778
vt 0.6492 0.9760 5.5778
vt 0.6382 0.9731 5.5778
vt 0.4512 0.7065 5.5778
vt 0.4474 0.6871 5.5778
vt 0.4568 0.0248 5.5778
vt 0.4686 0.0278 5.5778
vt 0.6703 0.3105 5.5778
vt 0.6694 0.3226 5.5778
vt 0.7019 0.4219 5.5778
vt 0.7116 0.4122 5.5778
vt 0.7068 0.4171 5.5778
vt 0.0785 0.3603 -0.0005
vt 0.0943 0.6390 -0.0005
vt 0.0554 0.6412 -0.0005
vt 0.0394 0.3625 -0.0005
vt 0.0193 0.0195 -0.0005
vt 0.0586 0.0172 -0.0005
vt 0.0789 0.3581 -0.0005
vt 0.0396 0.3605 -0.0005
vt 0.1135 0.9752 -0.0005
vt 0.0751 0.9775 -0.0005
vt 0.0552 0.6433 -0.0005
vt 0.0939 0.6411 -0.0005
vt 0.4655 0.6110 5.5778
vt 0.4664 0.6103 5.5778
vt 0.4204 0.5497 5.5778
vt 0.4213 0.5490 5.5778
vt 0.6893 0.9563 5.5778
vt 0.6916 0.9545 5.5778
vt 0.1663 0.2299 5.5778
vt 0.1686 0.2280 5.5778
vt 0.6852 0.4516 5.5778
vt 0.6843 0.4523 5.5778
vt 0.6401 0.3903 5.5778
vt 0.6392 0.3910 5.5778
vt 0.9393 0.7715 5.5778
vt 0.9370 0.7733 5.5778
vt 0.4163 0.0449 5.5778
vt 0.4140 0.0468 5.5778
vt 0.0552 0.6424 -0.0005
vt 0.0555 0.6425 -0.0005
vt 0.0942 0.6399 -0.0005
vt 0.0939 0.6398 -0.0005
vt 0.0787 0.3600 -0.0005
vt 0.0788 0.3602 -0.0005
vt 0.0389 0.3601 -0.0005
vt 0.0390 0.3607 -0.0005
vt 0.0389 0.3608 -0.0005
vt 0.1147 0.9766 -0.0005
vt 0.1146 0.9765 -0.0005
vt 0.1145 0.9763 -0.0005
vt 0.0747 0.9780 -0.0005
vt 0.0747 0.9779 -0.0005
vt 0.0586 0.0165 -0.0005
vt 0.0587 0.0166 -0.0005
vt 0.0185 0.0157 -0.0005
vt 0.0187 0.0166 -0.0005
vt 0.0186 0.0169 -0.0005
vt 0.6973 0.9709 5.5778
vt 0.6956 0.9707 5.5778
vt 0.4083 0.0304 5.5778
vt 0.4100 0.0306 5.5778
vt 0.1407 0.2179 5.5778
vt 0.1448 0.2152 5.5778
vt 0.1462 0.2164 5.5778
vt 0.9648 0.7835 5.5778
vt 0.9608 0.7862 5.5778
vt 0.9593 0.7850 5.5778
vt 0.6752 0.3861 5.5778
vt 0.6755 0.3862 5.5778
vt 0.7008 0.4222 5.5778
vt 0.7008 0.4226 5.5778
vt 0.3587 0.5513 5.5778
vt 0.3564 0.5492 5.5778
vt 0.4434 0.6624 5.5778
vt 0.4419 0.6594 5.5778
vt 0.4636 0.6129 5.5778
vt 0.4642 0.6419 5.5778
vt 0.6914 0.9615 5.5778
vt 0.6924 0.9607 5.5778
vt 0.6972 0.9672 5.5778
vt 0.6964 0.9678 5.5778
vt 0.1604 0.2405 5.5778
vt 0.3778 0.5451 5.5778
vt 0.4184 0.5516 5.5778
vt 0.4182 0.5669 5.5778
vt 0.6872 0.4497 5.5778
vt 0.6875 0.4344 5.5778
vt 0.6420 0.3884 5.5778
vt 0.6414 0.3594 5.5778
vt 0.4141 0.0398 5.5778
vt 0.4132 0.0405 5.5778
vt 0.4084 0.0341 5.5778
vt 0.4091 0.0335 5.5778
vt 0.9451 0.7608 5.5778
vt 0.7278 0.4562 5.5778
vt 0.6403 0.3925 5.5778
vt 0.4653 0.6088 5.5778
vt 0.4167 0.0508 5.5778
vt 0.9398 0.7773 5.5778
vt 0.1547 0.2151 5.5778
vt 0.1556 0.2145 5.5778
vt 0.1601 0.2212 5.5778
vt 0.1591 0.2218 5.5778
vt 0.4200 0.5681 5.5778
vt 0.4461 0.6046 5.5778
vt 0.4468 0.6069 5.5778
vt 0.4620 0.6109 5.5778
vt 0.6857 0.4333 5.5778
vt 0.6595 0.3967 5.5778
vt 0.6588 0.3944 5.5778
vt 0.6436 0.3905 5.5778
vt 0.9508 0.7863 5.5778
vt 0.9500 0.7868 5.5778
vt 0.9455 0.7801 5.5778
vt 0.9465 0.7795 5.5778
vt 0.0945 0.6411 -0.0005
vt 0.0947 0.6415 -22.5931
vt 0.0391 0.3605 -0.0005
vt 0.0549 0.6412 -0.0005
vt 0.0547 0.6407 -0.0005
vt 0.0948 0.6409 -0.0005
vt 0.0791 0.3604 -0.0005
vt 0.0793 0.3609 -0.0005
vt 0.4569 0.6493 5.5778
vt 0.6742 0.9539 5.5778
vt 0.3875 0.5410 5.5778
vt 0.4169 0.5495 5.5778
vt 0.6487 0.3520 5.5778
vt 0.4313 0.0474 5.5778
vt 0.7181 0.4603 5.5778
vt 0.6888 0.4519 5.5778
vt 0.0546 0.6414 -0.0005
vt 0.0743 0.9781 -0.0005
vt 0.0739 0.9782 -0.0005
vt 0.0794 0.3601 -0.0005
vt 0.0589 0.0162 -0.0005
vt 0.0591 0.0160 -0.0005
vt 0.0736 0.9804 -0.0005
vt 0.0743 0.9793 -0.0005
vt 0.1143 0.9773 -0.0005
vt 0.1151 0.9784 -0.0005
vt 0.0585 0.0148 -0.0005
vt 0.0584 0.0157 -0.0005
vt 0.0196 0.0171 -0.0005
vt 0.0196 0.0159 22.5931
vt 0.6774 0.3856 5.5778
vt 0.6884 0.3801 5.5778
vt 0.7107 0.4112 5.5778
vt 0.7020 0.4199 5.5778
vt 0.3455 0.5474 5.5778
vt 0.3218 0.5334 5.5778
vt 0.4363 0.6629 5.5778
vt 0.4404 0.6711 5.5778
vt 0.4478 0.7053 5.5778
vt 0.4457 0.7046 5.5778
vt 0.7008 0.4216 5.5778
vt 0.1427 0.2517 5.5778
vt 0.4418 0.6206 5.5778
vt 0.4389 0.6191 5.5778
vt 0.4405 0.6172 5.5778
vt 0.4442 0.6181 5.5778
vt 0.6586 0.3594 5.5778
vt 0.6600 0.3621 5.5778
vt 0.7455 0.4449 5.5778
vt 0.9630 0.7496 5.5778
vt 0.9526 0.7915 5.5778
vt 0.7007 0.9712 5.5778
vt 0.1529 0.2098 5.5778
vt 0.4048 0.0300 5.5778
vt 0.4305 0.6157 5.5778
vt 0.4044 0.5792 5.5778
vt 0.3846 0.5600 5.5778
vt 0.3838 0.5574 5.5778
vt 0.6579 0.9670 5.5778
vt 0.4460 0.6682 5.5778
vt 0.4478 0.0342 5.5778
vt 0.6653 0.3389 5.5778
vt 0.7199 0.4411 5.5778
vt 0.7223 0.4432 5.5778
vt 0.0556 0.6418 -0.0005
vt 0.0397 0.3617 -0.0005
vt 0.0784 0.3596 -0.0005
vt 0.4651 0.6128 5.5778
vt 0.4651 0.6118 5.5778
vt 0.4637 0.6114 5.5778
vt 0.4642 0.6102 5.5778
vt 0.4625 0.6093 5.5778
vt 0.4200 0.5516 5.5778
vt 0.4200 0.5505 5.5778
vt 0.4186 0.5500 5.5778
vt 0.4191 0.5488 5.5778
vt 0.4174 0.5479 5.5778
vt 0.4203 0.5475 5.5778
vt 0.6887 0.9617 5.5778
vt 0.6884 0.9586 5.5778
vt 0.6837 0.9626 5.5778
vt 0.6840 0.9575 5.5778
vt 0.6774 0.9618 5.5778
vt 0.6786 0.9556 5.5778
vt 0.6855 0.9539 5.5778
vt 0.6809 0.9510 5.5778
vt 0.6888 0.9505 5.5778
vt 0.1656 0.2353 5.5778
vt 0.1653 0.2321 5.5778
vt 0.1606 0.2361 5.5778
vt 0.1609 0.2310 5.5778
vt 0.1542 0.2354 5.5778
vt 0.1555 0.2291 5.5778
vt 0.1625 0.2275 5.5778
vt 0.1578 0.2245 5.5778
vt 0.1658 0.2240 5.5778
vt 0.6856 0.4497 5.5778
vt 0.6856 0.4508 5.5778
vt 0.6871 0.4513 5.5778
vt 0.6866 0.4525 5.5778
vt 0.6883 0.4534 5.5778
vt 0.6854 0.4538 5.5778
vt 0.6405 0.3885 5.5778
vt 0.6404 0.3895 5.5778
vt 0.6419 0.3900 5.5778
vt 0.6414 0.3912 5.5778
vt 0.6431 0.3920 5.5778
vt 0.9400 0.7661 5.5778
vt 0.9403 0.7692 5.5778
vt 0.9450 0.7652 5.5778
vt 0.9446 0.7703 5.5778
vt 0.9513 0.7660 5.5778
vt 0.9501 0.7723 5.5778
vt 0.9431 0.7738 5.5778
vt 0.9477 0.7768 5.5778
vt 0.4169 0.0395 5.5778
vt 0.4172 0.0426 5.5778
vt 0.4219 0.0387 5.5778
vt 0.4215 0.0438 5.5778
vt 0.4282 0.0394 5.5778
vt 0.4270 0.0457 5.5778
vt 0.4200 0.0473 5.5778
vt 0.4247 0.0503 5.5778
vt 0.0548 0.6423 -0.0005
vt 0.0550 0.6423 -0.0005
vt 0.0549 0.6417 -0.0005
vt 0.0552 0.6418 -0.0005
vt 0.0552 0.6414 -0.0005
vt 0.0946 0.6401 -0.0005
vt 0.0944 0.6400 -0.0005
vt 0.0945 0.6406 -0.0005
vt 0.0942 0.6405 -0.0005
vt 0.0942 0.6409 -0.0005
vt 0.0938 0.6405 -0.0005
vt 0.0786 0.3598 -0.0005
vt 0.0785 0.3589 -0.0005
vt 0.0789 0.3595 -0.0005
vt 0.0793 0.3592 -0.0005
vt 0.0790 0.3600 -0.0005
vt 0.0390 0.3606 -0.0005
vt 0.0393 0.3607 -0.0005
vt 0.0393 0.3609 -0.0005
vt 0.0398 0.3610 -0.0005
vt 0.0392 0.3613 -0.0005
vt 0.0390 0.3616 -0.0005
vt 0.1150 0.9768 -0.0005
vt 0.1147 0.9767 -0.0005
vt 0.1152 0.9776 -0.0005
vt 0.1146 0.9770 -0.0005
vt 0.1142 0.9764 -0.0005
vt 0.1138 0.9763 -0.0005
vt 0.1140 0.9758 -0.0005
vt 0.0748 0.9784 -0.0005
vt 0.0748 0.9782 -0.0005
vt 0.0743 0.9789 -0.0005
vt 0.0734 0.9795 -0.0005
vt 0.0743 0.9785 -0.0005
vt 0.0736 0.9787 -0.0005
vt 0.0584 0.0165 -0.0005
vt 0.0585 0.0165 -0.0005
vt 0.0585 0.0159 -0.0005
vt 0.0590 0.0153 -0.0005
vt 0.0587 0.0160 -0.0005
vt 0.0592 0.0157 -0.0005
vt 0.0188 0.0160 -0.0005
vt 0.0187 0.0163 -0.0005
vt 0.0192 0.0160 -0.0005
vt 0.0191 0.0166 -0.0005
vt 0.0191 0.0174 -0.0005
vt 0.0195 0.0183 -0.0005
vt 0.0189 0.0182 -0.0005
vt 0.6990 0.9711 5.5778
vt 0.7026 0.9765 5.5778
vt 0.6992 0.9761 5.5778
vt 0.6994 0.9812 5.5778
vt 0.6957 0.9757 5.5778
vt 0.6942 0.9806 5.5778
vt 0.6923 0.9754 5.5778
vt 0.6890 0.9801 5.5778
vt 0.4065 0.0302 5.5778
vt 0.4029 0.0247 5.5778
vt 0.4064 0.0251 5.5778
vt 0.4062 0.0200 5.5778
vt 0.4098 0.0255 5.5778
vt 0.4114 0.0206 5.5778
vt 0.4133 0.0259 5.5778
vt 0.4166 0.0212 5.5778
vt 0.1419 0.2128 5.5778
vt 0.1434 0.2140 5.5778
vt 0.1431 0.2077 5.5778
vt 0.1460 0.2101 5.5778
vt 0.1486 0.2062 5.5778
vt 0.1489 0.2125 5.5778
vt 0.1517 0.2149 5.5778
vt 0.9636 0.7885 5.5778
vt 0.9622 0.7873 5.5778
vt 0.9624 0.7936 5.5778
vt 0.9596 0.7912 5.5778
vt 0.9569 0.7951 5.5778
vt 0.9567 0.7888 5.5778
vt 0.9538 0.7865 5.5778
vt 0.6745 0.3859 5.5778
vt 0.6749 0.3860 5.5778
vt 0.6750 0.3855 5.5778
vt 0.6757 0.3856 5.5778
vt 0.6755 0.3850 5.5778
vt 0.6765 0.3853 5.5778
vt 0.6763 0.3858 5.5778
vt 0.6769 0.3860 5.5778
vt 0.7008 0.4219 5.5778
vt 0.7014 0.4203 5.5778
vt 0.7014 0.4209 5.5778
vt 0.7014 0.4216 5.5778
vt 0.7019 0.4209 5.5778
vt 0.7013 0.4222 5.5778
vt 0.3633 0.5559 5.5778
vt 0.3610 0.5536 5.5778
vt 0.3607 0.5581 5.5778
vt 0.3563 0.5535 5.5778
vt 0.3518 0.5535 5.5778
vt 0.3519 0.5493 5.5778
vt 0.3476 0.5453 5.5778
vt 0.4447 0.6653 5.5778
vt 0.4468 0.6778 5.5778
vt 0.4444 0.6724 5.5778
vt 0.4441 0.6791 5.5778
vt 0.4418 0.6668 5.5778
vt 0.4390 0.6612 5.5778
vt 0.4657 0.6419 5.5778
vt 0.6932 0.9601 5.5778
vt 0.6980 0.9666 5.5778
vt 0.1658 0.2368 5.5778
vt 0.3832 0.5413 5.5778
vt 0.4197 0.5669 5.5778
vt 0.6859 0.4344 5.5778
vt 0.6399 0.3594 5.5778
vt 0.4124 0.0411 5.5778
vt 0.4075 0.0347 5.5778
vt 0.9398 0.7646 5.5778
vt 0.7224 0.4600 5.5778
vt 0.1564 0.2140 5.5778
vt 0.1609 0.2206 5.5778
vt 0.4207 0.5675 5.5778
vt 0.4469 0.6040 5.5778
vt 0.4473 0.6053 5.5778
vt 0.6849 0.4338 5.5778
vt 0.6588 0.3973 5.5778
vt 0.6584 0.3960 5.5778
vt 0.9491 0.7874 5.5778
vt 0.9446 0.7807 5.5778
vt 0.4622 0.6456 5.5778
vt 0.6796 0.9501 5.5778
vt 0.3880 0.5394 5.5778
vt 0.6434 0.3557 5.5778
vt 0.4260 0.0511 5.5778
vt 0.7176 0.4619 5.5778
vt 0.6880 0.3796 5.5778
vt 0.6877 0.3790 5.5778
vt 0.7112 0.4117 5.5778
vt 0.3219 0.5354 5.5778
vt 0.4497 0.7060 5.5778
vt 0.1369 0.2543 5.5778
vt 0.4333 0.6212 5.5778
vt 0.4373 0.6166 5.5778
vt 0.6600 0.3583 5.5778
vt 0.6601 0.3609 5.5778
vt 0.7531 0.4443 5.5778
vt 0.9690 0.7469 5.5778
vt 0.4287 0.6155 5.5778
vt 0.4034 0.5800 5.5778
vt 0.3823 0.5600 5.5778
vt 0.3835 0.5585 5.5778
vt 0.3815 0.5622 5.5778
vt 0.3823 0.5586 5.5778
vt 0.6535 0.9716 5.5778
vt 0.4523 0.0294 5.5778
vt 0.6683 0.3320 5.5778
vt 0.7211 0.4413 5.5778
vt 0.7237 0.4421 5.5778
vt 0.7223 0.4412 5.5778
vt 0.7258 0.4424 5.5778
# 500 texture coords

o blue_book
g blue_book
usemtl 13___Default
s 1
f 1/1/1 2/2/1 3/3/2 4/4/3 
f 5/5/4 6/6/4 7/7/5 8/8/5 
s 2
f 9/9/6 10/10/7 11/11/8 12/12/9 
f 13/13/10 14/14/11 15/15/12 16/16/13 
s 1
f 17/17/14 18/18/15 19/19/16 20/20/17 
f 21/21/18 22/22/19 23/23/20 24/24/21 25/25/22 
f 2/26/1 26/27/23 27/28/24 28/29/25 3/30/2 
f 29/31/26 30/32/27 31/33/28 32/34/29 
f 6/6/4 33/35/30 34/36/31 7/7/5 
f 8/8/5 35/37/32 36/38/33 5/5/4 
f 37/39/34 38/40/35 39/41/36 40/42/37 
f 41/43/38 42/44/39 43/45/40 44/46/41 
f 45/47/42 46/48/18 21/49/18 25/50/22 
s 2
f 10/10/7 47/51/43 48/52/44 11/11/8 
f 14/14/11 49/53/45 50/54/46 15/15/12 
s 1
f 19/55/16 51/56/47 46/57/18 45/58/42 20/59/17 
f 23/60/20 52/61/48 53/62/49 24/63/21 
f 27/64/24 54/65/50 55/66/51 28/67/25 
f 31/68/28 56/69/52 1/70/1 4/71/3 32/72/29 
f 57/73/53 58/74/54 59/75/55 60/76/56 
s 2
f 61/77/57 62/78/58 63/79/59 64/80/60 
f 65/81/61 66/82/62 67/83/63 
s 4
f 68/84/64 69/85/65 70/86/66 
f 71/87/67 72/88/68 73/89/69 74/90/70 
f 74/91/70 73/92/69 75/93/71 76/94/72 
s 2
f 64/95/60 63/96/59 77/97/73 78/98/74 
s 1
f 67/83/63 66/82/62 79/99/75 80/100/76 
s 4
f 80/101/76 79/102/75 81/103/77 
f 76/104/72 75/105/71 82/106/78 83/107/79 
s 2
f 78/108/74 77/109/73 69/110/65 68/111/64 
f 84/112/80 72/113/68 71/114/67 
s 1
f 85/115/81 86/116/82 87/117/83 88/118/84 
f 89/119/85 90/120/86 91/121/87 92/122/88 
f 93/123/89 94/124/90 95/125/91 96/126/92 
s 2
f 49/53/45 97/127/93 98/128/94 
s 1
f 33/35/30 99/129/95 100/130/96 
f 38/40/35 101/131/97 102/132/98 
s 2
f 47/51/43 103/133/99 104/134/100 
s 1
f 35/37/32 105/135/101 106/136/102 
s 2
f 12/12/9 107/137/103 108/138/104 
f 16/16/13 109/139/105 110/140/106 
s 1
f 42/44/39 111/141/107 112/142/108 
s 2
f 95/125/91 113/143/109 114/144/110 
s 4
f 86/116/82 115/145/111 116/146/112 
f 85/115/81 117/147/113 118/148/114 
s 2
f 73/149/69 119/150/115 120/151/116 
s 8
f 62/152/58 121/153/117 122/154/118 
f 94/124/90 123/155/119 124/156/120 
s 1
f 90/120/86 125/157/121 126/158/122 
f 72/159/68 127/160/123 128/161/124 
f 37/39/34 129/162/125 130/163/126 
f 41/43/38 131/164/127 132/165/128 
f 17/166/14 133/167/129 134/168/130 
f 29/169/26 135/170/131 136/171/132 
f 3/3/2 137/172/133 138/173/134 
f 4/4/3 139/174/135 140/175/136 
f 20/20/17 141/176/137 142/177/138 
f 24/63/21 143/178/137 144/179/139 
f 22/22/19 145/180/140 146/181/141 23/23/20 
f 52/182/48 147/183/142 148/184/126 53/185/49 
f 18/18/15 149/186/143 150/187/144 19/19/16 
f 51/56/47 151/188/145 152/189/146 46/57/18 
f 56/69/52 153/190/147 154/191/148 1/70/1 
f 26/27/23 155/192/149 156/193/150 27/28/24 
f 54/194/50 157/195/151 158/196/128 55/197/51 
f 30/32/27 159/198/152 160/199/153 31/33/28 
f 33/35/30 100/130/96 161/200/154 34/36/31 
f 35/37/32 106/136/102 162/201/155 36/38/33 
s 2
f 47/51/43 104/134/100 163/202/156 48/52/44 
s 1
f 38/40/35 102/132/98 164/203/157 39/41/36 
f 17/204/14 134/205/130 165/206/158 18/207/15 
f 46/48/18 152/208/146 166/209/146 21/49/18 
f 21/21/18 166/210/146 167/211/159 22/22/19 
f 1/1/1 154/212/148 168/213/148 2/2/1 
f 2/26/1 168/214/148 169/215/160 26/27/23 
f 29/216/26 136/217/132 170/218/161 30/219/27 
s 8
f 62/152/58 122/154/118 171/220/162 63/221/59 
f 72/159/68 128/161/124 172/222/163 73/149/69 
s 16
f 73/149/69 120/151/116 173/223/164 75/224/71 
f 63/221/59 174/225/165 175/226/114 77/227/73 
s 1
f 23/60/20 146/228/141 176/229/166 52/61/48 
f 19/55/16 150/230/144 177/231/167 51/56/47 
f 27/64/24 156/232/150 178/233/168 54/65/50 
f 31/68/28 160/234/153 179/235/169 56/69/52 
s 8
f 75/224/71 180/236/170 181/237/171 82/238/78 
f 77/227/73 182/239/172 183/240/122 69/241/65 
s 1
f 66/242/62 184/243/173 185/244/174 79/245/75 
f 58/246/54 186/247/175 187/248/176 59/249/55 
f 57/73/53 188/250/177 189/251/178 58/74/54 
f 59/75/55 190/252/179 191/253/180 60/76/56 
s 2
f 61/77/57 192/254/181 193/255/182 62/78/58 
s 4
f 65/256/61 194/257/183 195/258/184 66/259/62 
s 1
f 3/3/2 138/173/134 196/260/185 4/4/3 
s 4
f 20/20/17 142/177/138 197/261/186 17/17/14 
s 1
f 24/262/21 144/263/139 198/264/187 25/265/22 
f 28/29/25 199/266/188 200/267/189 3/30/2 
f 32/34/29 201/268/190 202/269/191 29/31/26 
s 2
f 40/42/37 203/270/192 204/271/193 37/39/34 
s 8
f 44/46/41 205/272/194 206/273/195 41/43/38 
s 1
f 25/50/22 198/274/187 207/275/196 45/47/42 
f 45/58/42 207/276/196 208/277/139 20/59/17 
s 8
f 53/62/49 209/278/197 210/279/198 24/63/21 
s 1
f 55/66/51 211/280/199 199/281/188 28/67/25 
f 4/71/3 140/282/136 201/283/190 32/72/29 
s 32
f 86/116/82 116/146/112 212/284/110 87/117/83 
f 88/118/84 213/285/200 214/286/201 85/115/81 
s 2
f 49/53/45 215/287/202 216/288/203 
s 4
f 215/287/202 145/180/140 217/289/204 216/288/203 
s 1
f 145/180/140 22/22/19 167/211/159 217/289/204 
s 2
f 49/53/45 216/288/203 97/127/93 
s 4
f 216/288/203 217/289/204 218/290/205 97/127/93 
s 8
f 217/289/204 167/211/159 219/291/206 218/290/205 
s 4
f 97/127/93 218/290/205 162/201/155 98/128/94 
s 1
f 218/290/205 219/291/206 36/38/33 162/201/155 
f 33/35/30 220/292/207 221/293/208 
s 8
f 220/292/207 151/188/145 222/294/209 221/293/208 
s 1
f 151/188/145 51/56/47 177/231/167 222/294/209 
f 33/35/30 221/293/208 99/129/95 
s 8
f 221/293/208 222/294/209 223/295/210 99/129/95 
s 1
f 222/294/209 177/231/167 224/296/211 223/295/210 
s 8
f 99/129/95 223/295/210 225/297/212 100/130/96 
s 2
f 223/295/210 224/296/211 9/9/6 225/297/212 
s 1
f 38/40/35 226/298/213 227/299/214 
f 226/298/213 147/300/142 228/301/215 227/299/214 
f 147/300/142 52/302/48 176/303/166 228/301/215 
f 38/40/35 227/299/214 101/131/97 
f 227/299/214 228/301/215 229/304/216 101/131/97 
s 4
f 228/301/215 176/303/166 230/305/217 229/304/216 
s 1
f 101/131/97 229/304/216 231/306/218 102/132/98 
s 2
f 229/304/216 230/305/217 13/13/10 231/306/218 
f 47/51/43 232/307/219 233/308/220 
s 1
f 232/307/219 149/309/143 234/310/221 233/308/220 
f 149/309/143 18/311/15 165/312/158 234/310/221 
s 2
f 47/51/43 233/308/220 103/133/99 
s 1
f 233/308/220 234/310/221 235/313/222 103/133/99 
f 234/310/221 165/312/158 236/314/223 235/313/222 
f 103/133/99 235/313/222 237/315/224 104/134/100 
f 235/313/222 236/314/223 43/45/40 237/315/224 
f 35/37/32 238/316/225 239/317/226 
s 4
f 238/316/225 153/190/147 240/318/227 239/317/226 
s 1
f 153/190/147 56/69/52 179/235/169 240/318/227 
f 35/37/32 239/317/226 105/135/101 
s 4
f 239/317/226 240/318/227 241/319/228 105/135/101 
s 1
f 240/318/227 179/235/169 242/320/229 241/319/228 
s 4
f 105/135/101 241/319/228 243/321/230 106/136/102 
s 2
f 241/319/228 242/320/229 50/54/46 243/321/230 
f 12/12/9 244/322/231 245/323/232 
s 8
f 244/322/231 155/192/149 246/324/233 245/323/232 
s 1
f 155/192/149 26/27/23 169/215/160 246/324/233 
s 2
f 12/12/9 245/323/232 107/137/103 
s 8
f 245/323/232 246/324/233 247/325/234 107/137/103 
s 4
f 246/324/233 169/215/160 248/326/235 247/325/234 
s 8
f 107/137/103 247/325/234 161/200/154 108/138/104 
s 1
f 247/325/234 248/326/235 34/36/31 161/200/154 
s 2
f 16/16/13 249/327/236 250/328/237 
s 1
f 249/327/236 159/329/152 251/330/238 250/328/237 
f 159/329/152 30/331/27 170/332/161 251/330/238 
s 2
f 16/16/13 250/328/237 109/139/105 
s 1
f 250/328/237 251/330/238 252/333/239 109/139/105 
f 251/330/238 170/332/161 253/334/240 252/333/239 
f 109/139/105 252/333/239 164/203/157 110/140/106 
f 252/333/239 253/334/240 39/41/36 164/203/157 
f 42/44/39 254/335/241 255/336/242 
f 254/335/241 157/337/151 256/338/243 255/336/242 
f 157/337/151 54/339/50 178/340/168 256/338/243 
f 42/44/39 255/336/242 111/141/107 
f 255/336/242 256/338/243 257/341/244 111/141/107 
s 8
f 256/338/243 178/340/168 258/342/245 257/341/244 
s 1
f 111/141/107 257/341/244 163/202/156 112/142/108 
s 2
f 257/341/244 258/342/245 48/52/44 163/202/156 
f 95/125/91 259/343/246 260/344/109 
f 259/343/246 180/236/170 261/345/109 260/344/109 
f 180/236/170 75/224/71 173/223/164 261/345/109 
f 95/125/91 260/344/109 113/143/109 
f 260/344/109 261/345/109 262/346/109 113/143/109 
f 261/345/109 173/223/164 263/347/164 262/346/109 
f 113/143/109 262/346/109 212/284/110 114/144/110 
f 262/346/109 263/347/164 87/117/83 212/284/110 
s 4
f 86/116/82 264/348/247 265/349/111 
f 264/348/247 174/225/165 266/350/111 265/349/111 
f 174/225/165 63/221/59 171/220/162 266/350/111 
f 86/116/82 265/349/111 115/145/111 
f 265/349/111 266/350/111 267/351/111 115/145/111 
f 266/350/111 171/220/162 268/352/248 267/351/111 
f 115/145/111 267/351/111 269/353/249 116/146/112 
f 267/351/111 268/352/248 96/126/92 269/353/249 
f 85/115/81 214/286/201 270/354/113 
f 214/286/201 271/355/201 272/356/113 270/354/113 
f 271/355/201 91/121/87 273/357/172 272/356/113 
f 85/115/81 270/354/113 117/147/113 
f 270/354/113 272/356/113 274/358/113 117/147/113 
f 272/356/113 273/357/172 182/239/172 274/358/113 
f 117/147/113 274/358/113 175/226/114 118/148/114 
f 274/358/113 182/239/172 77/227/73 175/226/114 
s 2
f 73/149/69 172/222/163 275/359/115 
f 172/222/163 276/360/163 277/361/115 275/359/115 
f 276/360/163 92/122/88 278/362/200 277/361/115 
f 73/149/69 275/359/115 119/150/115 
f 275/359/115 277/361/115 279/363/115 119/150/115 
f 277/361/115 278/362/200 213/285/200 279/363/115 
f 119/150/115 279/363/115 280/364/250 120/151/116 
f 279/363/115 213/285/200 88/118/84 280/364/250 
s 8
f 62/152/58 193/365/182 281/366/117 
f 193/365/182 282/367/182 283/368/117 281/366/117 
f 282/367/182 79/245/75 185/244/174 283/368/117 
f 62/152/58 281/366/117 121/153/117 
f 281/366/117 283/368/117 284/369/117 121/153/117 
f 283/368/117 185/244/174 285/370/174 284/369/117 
f 121/153/117 284/369/117 286/371/251 122/154/118 
f 284/369/117 285/370/174 93/123/89 286/371/251 
f 94/124/90 287/372/173 288/373/119 
f 287/372/173 184/243/173 289/374/119 288/373/119 
f 184/243/173 66/242/62 195/375/184 289/374/119 
f 94/124/90 288/373/119 123/155/119 
f 288/373/119 289/374/119 290/376/119 123/155/119 
f 289/374/119 195/375/184 291/377/184 290/376/119 
f 123/155/119 290/376/119 181/237/171 124/156/120 
f 290/376/119 291/377/184 82/238/78 181/237/171 
s 1
f 90/120/86 292/378/252 293/379/253 
f 292/378/252 186/247/175 294/380/121 293/379/253 
f 186/247/175 58/246/54 189/381/178 294/380/121 
f 90/120/86 293/379/253 125/157/121 
f 293/379/253 294/380/121 295/382/121 125/157/121 
f 294/380/121 189/381/178 296/383/178 295/382/121 
f 125/157/121 295/382/121 183/240/122 126/158/122 
f 295/382/121 296/383/178 69/241/65 183/240/122 
f 72/159/68 297/384/179 298/385/123 
f 297/384/179 190/386/179 299/387/123 298/385/123 
f 190/386/179 59/249/55 187/248/176 299/387/123 
f 72/159/68 298/385/123 127/160/123 
f 298/385/123 299/387/123 300/388/123 127/160/123 
f 299/387/123 187/248/176 301/389/176 300/388/123 
f 127/160/123 300/388/123 302/390/124 128/161/124 
f 300/388/123 301/389/176 89/119/85 302/390/124 
f 37/39/34 204/271/193 303/391/254 
f 204/271/193 304/392/193 305/393/125 303/391/254 
f 304/392/193 76/94/72 306/394/255 305/393/125 
f 37/39/34 303/391/254 129/162/125 
f 303/391/254 305/393/125 307/395/125 129/162/125 
f 305/393/125 306/394/255 209/396/197 307/395/125 
f 129/162/125 307/395/125 148/397/126 130/163/126 
f 307/395/125 209/396/197 53/398/49 148/397/126 
f 41/43/38 206/273/195 308/399/256 
f 206/273/195 309/400/195 310/401/256 308/399/256 
f 309/400/195 78/98/74 311/402/199 310/401/256 
f 41/43/38 308/399/256 131/164/127 
f 308/399/256 310/401/256 312/403/256 131/164/127 
f 310/401/256 311/402/199 211/404/199 312/403/256 
f 131/164/127 312/403/256 158/405/128 132/165/128 
f 312/403/256 211/404/199 55/406/51 158/405/128 
f 17/166/14 197/407/186 313/408/129 
f 197/407/186 314/409/257 315/410/129 313/408/129 
f 314/409/257 64/95/60 316/411/194 315/410/129 
f 17/166/14 313/408/129 133/167/129 
f 313/408/129 315/410/129 317/412/129 133/167/129 
f 315/410/129 316/411/194 205/272/194 317/412/129 
f 133/167/129 317/412/129 318/413/130 134/168/130 
f 317/412/129 205/272/194 44/46/41 318/413/130 
f 29/169/26 202/414/191 319/415/131 
f 202/414/191 320/416/191 321/417/131 319/415/131 
f 320/416/191 74/91/70 322/418/192 321/417/131 
f 29/169/26 319/415/131 135/170/131 
f 319/415/131 321/417/131 323/419/131 135/170/131 
f 321/417/131 322/418/192 203/270/192 323/419/131 
f 135/170/131 323/419/131 324/420/132 136/171/132 
f 323/419/131 203/270/192 40/42/37 324/420/132 
f 3/3/2 200/421/189 325/422/133 
f 200/421/189 326/423/258 327/424/133 325/422/133 
f 326/423/258 70/425/66 328/426/177 327/424/133 
f 3/3/2 325/422/133 137/172/133 
f 325/422/133 327/424/133 329/427/133 137/172/133 
f 327/424/133 328/426/177 188/250/177 329/427/133 
f 137/172/133 329/427/133 330/428/259 138/173/134 
f 329/427/133 188/250/177 57/73/53 330/428/259 
f 4/4/3 196/260/185 331/429/135 
f 196/260/185 332/430/260 333/431/135 331/429/135 
f 332/430/260 60/76/56 191/253/180 333/431/135 
f 4/4/3 331/429/135 139/174/135 
f 331/429/135 333/431/135 334/432/135 139/174/135 
f 333/431/135 191/253/180 335/433/180 334/432/135 
f 139/174/135 334/432/135 336/434/261 140/175/136 
f 334/432/135 335/433/180 84/112/80 336/434/261 
f 20/20/17 208/435/139 337/436/137 
f 208/435/139 338/437/262 339/438/137 337/436/137 
f 338/437/262 81/103/77 340/439/181 339/438/137 
f 20/20/17 337/436/137 141/176/137 
f 337/436/137 339/438/137 341/440/137 141/176/137 
f 339/438/137 340/439/181 192/254/181 341/440/137 
f 141/176/137 341/440/137 342/441/263 142/177/138 
f 341/440/137 192/254/181 61/77/57 342/441/263 
f 24/63/21 210/279/198 343/442/137 
f 210/279/198 344/443/264 345/444/265 343/442/137 
f 344/443/264 83/107/79 346/445/183 345/444/265 
f 24/63/21 343/442/137 143/178/137 
f 343/442/137 345/444/265 347/446/137 143/178/137 
f 345/444/265 346/445/183 194/257/183 347/446/137 
f 143/178/137 347/446/137 348/447/262 144/179/139 
f 347/446/137 194/257/183 65/256/61 348/447/262 
s 4
f 145/180/140 215/287/202 349/448/266 146/181/141 
s 2
f 215/287/202 49/53/45 14/14/11 349/448/266 
s 1
f 147/183/142 226/449/213 130/450/126 148/184/126 
f 226/449/213 38/40/35 37/39/34 130/450/126 
f 149/186/143 232/451/219 350/452/267 150/187/144 
s 2
f 232/451/219 47/51/43 10/10/7 350/452/267 
s 8
f 151/188/145 220/292/207 351/453/268 152/189/146 
s 1
f 220/292/207 33/35/30 6/6/4 351/453/268 
s 4
f 153/190/147 238/316/225 352/454/269 154/191/148 
s 1
f 238/316/225 35/37/32 8/8/5 352/454/269 
s 8
f 155/192/149 244/322/231 353/455/270 156/193/150 
s 2
f 244/322/231 12/12/9 11/11/8 353/455/270 
s 1
f 157/195/151 254/456/241 132/457/128 158/196/128 
f 254/456/241 42/44/39 41/43/38 132/457/128 
f 159/198/152 249/458/236 354/459/271 160/199/153 
s 2
f 249/458/236 16/16/13 15/15/12 354/459/271 
s 8
f 100/130/96 225/297/212 108/138/104 161/200/154 
s 2
f 225/297/212 9/9/6 12/12/9 108/138/104 
s 4
f 106/136/102 243/321/230 98/128/94 162/201/155 
s 2
f 243/321/230 50/54/46 49/53/45 98/128/94 
s 1
f 104/134/100 237/315/224 112/142/108 163/202/156 
f 237/315/224 43/45/40 42/44/39 112/142/108 
f 102/132/98 231/306/218 110/140/106 164/203/157 
s 2
f 231/306/218 13/13/10 16/16/13 110/140/106 
s 1
f 134/205/130 318/460/130 236/461/223 165/206/158 
f 318/460/130 44/46/41 43/45/40 236/461/223 
s 8
f 152/208/146 351/462/268 355/463/268 166/209/146 
s 1
f 351/462/268 6/6/4 5/5/4 355/463/268 
s 8
f 166/210/146 355/464/268 219/291/206 167/211/159 
s 1
f 355/464/268 5/5/4 36/38/33 219/291/206 
s 4
f 154/212/148 352/465/269 356/466/269 168/213/148 
s 1
f 352/465/269 8/8/5 7/7/5 356/466/269 
s 4
f 168/214/148 356/467/269 248/326/235 169/215/160 
s 1
f 356/467/269 7/7/5 34/36/31 248/326/235 
f 136/217/132 324/468/132 253/469/240 170/218/161 
f 324/468/132 40/42/37 39/41/36 253/469/240 
s 8
f 122/154/118 286/371/251 268/352/248 171/220/162 
f 286/371/251 93/123/89 96/126/92 268/352/248 
f 128/161/124 302/390/124 276/360/163 172/222/163 
f 302/390/124 89/119/85 92/122/88 276/360/163 
s 16
f 120/151/116 280/364/250 263/347/164 173/223/164 
f 280/364/250 88/118/84 87/117/83 263/347/164 
f 174/225/165 264/348/247 118/148/114 175/226/114 
f 264/348/247 86/116/82 85/115/81 118/148/114 
s 4
f 146/228/141 349/470/266 230/471/217 176/229/166 
s 2
f 349/470/266 14/14/11 13/13/10 230/471/217 
s 1
f 150/230/144 350/472/267 224/296/211 177/231/167 
s 2
f 350/472/267 10/10/7 9/9/6 224/296/211 
s 8
f 156/232/150 353/473/270 258/474/245 178/233/168 
s 2
f 353/473/270 11/11/8 48/52/44 258/474/245 
s 1
f 160/234/153 354/475/271 242/320/229 179/235/169 
s 2
f 354/475/271 15/15/12 50/54/46 242/320/229 
s 8
f 180/236/170 259/343/246 124/156/120 181/237/171 
f 259/343/246 95/125/91 94/124/90 124/156/120 
f 182/239/172 273/357/172 126/158/122 183/240/122 
f 273/357/172 91/121/87 90/120/86 126/158/122 
s 1
f 184/243/173 287/372/173 285/370/174 185/244/174 
f 287/372/173 94/124/90 93/123/89 285/370/174 
f 186/247/175 292/378/252 301/389/176 187/248/176 
f 292/378/252 90/120/86 89/119/85 301/389/176 
f 188/250/177 328/426/177 296/476/178 189/251/178 
f 328/426/177 70/425/66 69/477/65 296/476/178 
f 190/252/179 297/478/179 335/433/180 191/253/180 
f 297/478/179 72/113/68 84/112/80 335/433/180 
s 2
f 192/254/181 340/439/181 282/479/182 193/255/182 
f 340/439/181 81/103/77 79/102/75 282/479/182 
s 4
f 194/257/183 346/445/183 291/480/184 195/258/184 
f 346/445/183 83/107/79 82/106/78 291/480/184 
s 1
f 138/173/134 330/428/259 332/430/260 196/260/185 
f 330/428/259 57/73/53 60/76/56 332/430/260 
s 4
f 142/177/138 342/441/263 314/481/257 197/261/186 
f 342/441/263 61/77/57 64/80/60 314/481/257 
s 1
f 144/263/139 348/482/262 357/483/272 198/264/187 
s 8
f 348/482/262 65/81/61 67/83/63 357/483/272 
s 1
f 199/266/188 358/484/273 326/485/258 200/267/189 
s 8
f 358/484/273 68/84/64 70/86/66 326/485/258 
s 1
f 201/268/190 359/486/274 320/487/191 202/269/191 
f 359/486/274 71/87/67 74/90/70 320/487/191 
s 2
f 203/270/192 322/418/192 304/392/193 204/271/193 
f 322/418/192 74/91/70 76/94/72 304/392/193 
s 8
f 205/272/194 316/411/194 309/400/195 206/273/195 
f 316/411/194 64/95/60 78/98/74 309/400/195 
s 1
f 198/274/187 357/488/272 360/489/275 207/275/196 
f 357/488/272 67/83/63 80/100/76 360/489/275 
f 207/276/196 360/490/275 338/491/262 208/277/139 
s 8
f 360/490/275 80/492/76 81/493/77 338/491/262 
f 209/278/197 306/494/255 344/443/264 210/279/198 
f 306/494/255 76/104/72 83/107/79 344/443/264 
s 1
f 211/280/199 311/495/199 358/496/273 199/281/188 
f 311/495/199 78/108/74 68/111/64 358/496/273 
f 140/282/136 336/497/261 359/498/274 201/283/190 
s 8
f 336/497/261 84/499/80 71/500/67 359/498/274 
s 32
f 116/146/112 269/353/249 114/144/110 212/284/110 
f 269/353/249 96/126/92 95/125/91 114/144/110 
f 213/285/200 278/362/200 271/355/201 214/286/201 
f 278/362/200 92/122/88 91/121/87 271/355/201 
# 318 polygons - 76 triangles

