%YAML 1.1
%TAG !u! tag:unity3d.com,2011:
--- !u!114 &11400000
MonoBehaviour:
  m_ObjectHideFlags: 0
  m_CorrespondingSourceObject: {fileID: 0}
  m_PrefabInstance: {fileID: 0}
  m_PrefabAsset: {fileID: 0}
  m_GameObject: {fileID: 0}
  m_Enabled: 1
  m_EditorHideFlags: 0
  m_Script: {fileID: 11500000, guid: 3355b7312a182d142ba1241c39266ee5, type: 3}
  m_Name: AddUnitBuffTimer_Jump10
  m_EditorClassIdentifier: 
  delay: 0
  buffToAdd: {fileID: 11400000, guid: 65235f069ebc9124c9aa8cf83fa50fe1, type: 2}
  time: 5
